1553529006701601792,-0.01309,0.00139,-0.00228,0.51425,-0.45573,-0.52187,-0.50548,-0.06737,0.00705,0.00588,
1553529006781591552,-0.01878,0.00234,-0.00197,0.51875,-0.45079,-0.52521,-0.50184,-0.07148,0.01399,0.01143,
1553529006901561856,-0.02524,0.00374,-0.00056,0.52070,-0.44596,-0.52902,-0.50013,-0.00336,0.00662,0.01889,
1553529006981541632,-0.01498,0.00224,0.00137,0.51933,-0.45145,-0.52250,-0.50347,0.08627,-0.01182,0.03404,
1553529007101521664,0.00375,-0.00011,0.00769,0.52293,-0.45065,-0.51319,-0.50999,0.18302,-0.01051,0.09817,
1553529007181501696,0.01674,0.00094,0.01761,0.52499,-0.44471,-0.50923,-0.51701,0.20804,0.02027,0.14815,
1553529007301471744,0.04381,0.00830,0.03647,0.52255,-0.43625,-0.50949,-0.52636,0.25697,0.07792,0.15344,
1553529007381451520,0.05991,0.01642,0.04597,0.52201,-0.44211,-0.50881,-0.52265,0.15940,0.05343,0.08944,
1553529007501431808,0.06917,0.02424,0.05237,0.53817,-0.43436,-0.51582,-0.50561,0.00657,0.00585,0.01905,
1553529007581411584,0.06328,0.03152,0.05151,0.55869,-0.41240,-0.53754,-0.47838,-0.07853,0.00029,-0.03172,
1553529007701381632,0.04522,0.03655,0.04326,0.57230,-0.39221,-0.56602,-0.44527,-0.13695,-0.02806,-0.08225,
1553529007781371904,0.02913,0.03513,0.03458,0.58981,-0.36921,-0.58622,-0.41492,-0.14291,-0.06844,-0.09766,
1553529007901341696,0.00666,0.02730,0.02043,0.60728,-0.34235,-0.60766,-0.38047,-0.14991,-0.08826,-0.11366,
1553529007981321728,-0.00385,0.02129,0.01187,0.61267,-0.33043,-0.61807,-0.36529,-0.12942,-0.09152,-0.12126,
1553529008101301760,-0.01856,0.01044,-0.00229,0.62672,-0.31933,-0.62063,-0.34650,-0.10816,-0.08279,-0.12014,
1553529008181281792,-0.02635,0.00507,-0.01132,0.63050,-0.31625,-0.62534,-0.33377,-0.06662,-0.05067,-0.11272,
1553529008301251584,-0.03200,0.00249,-0.02133,0.62960,-0.32301,-0.62864,-0.32262,-0.03717,-0.00664,-0.04108,
1553529008381231872,-0.03372,0.00422,-0.01848,0.61881,-0.33310,-0.62942,-0.33159,-0.02246,0.01547,0.12416,
1553529008501211648,-0.03562,0.00910,0.00950,0.60928,-0.34751,-0.61577,-0.35894,-0.03805,0.04841,0.32142,
1553529008581191680,-0.03653,0.01487,0.03611,0.59874,-0.36589,-0.59484,-0.39218,-0.03653,0.05459,0.36735,
1553529008701161728,-0.03488,0.02482,0.07785,0.57652,-0.39475,-0.56566,-0.43798,0.00056,0.02623,0.32116,
1553529008781151744,-0.02968,0.02723,0.10151,0.56982,-0.40877,-0.54055,-0.46478,0.01190,-0.02563,0.24811,
1553529008901121536,-0.02725,0.02255,0.11922,0.57434,-0.40017,-0.52911,-0.47962,-0.00306,-0.03284,0.03855,
1553529008981101824,-0.02848,0.02113,0.11804,0.57540,-0.40156,-0.52284,-0.48404,-0.02367,-0.01329,-0.09684,
1553529009101081600,-0.03376,0.02021,0.09897,0.58085,-0.40589,-0.52416,-0.47235,-0.05190,-0.00804,-0.21217,
1553529009181061632,-0.03781,0.01845,0.07943,0.58236,-0.40264,-0.52796,-0.46904,-0.03183,-0.01575,-0.25517,
1553529009301031680,-0.04199,0.01261,0.04651,0.60866,-0.37771,-0.54257,-0.43873,-0.02685,-0.00762,-0.26474,
1553529009381021696,-0.04495,0.00865,0.02458,0.62538,-0.36428,-0.55403,-0.41139,-0.05517,0.00703,-0.27389,
1553529009500991488,-0.05344,0.00840,-0.00461,0.62555,-0.36388,-0.57076,-0.38796,-0.07152,0.00954,-0.22460,
1553529009580971776,-0.06364,0.00665,-0.02127,0.62957,-0.35317,-0.58583,-0.36840,-0.06588,0.00584,-0.16550,
1553529009700941568,-0.07247,0.00862,-0.02979,0.62513,-0.36059,-0.58747,-0.36615,-0.02408,0.01386,0.00719,
1553529009780931584,-0.07434,0.01130,-0.02489,0.62060,-0.36347,-0.58842,-0.36947,0.02033,0.02373,0.12007,
1553529009900901632,-0.06744,0.01726,-0.00328,0.61690,-0.37732,-0.57201,-0.38713,0.10302,0.04463,0.23213,
1553529009980881664,-0.05779,0.02232,0.01692,0.61209,-0.39465,-0.55175,-0.40642,0.12286,0.04117,0.26866,
1553529010100861440,-0.04183,0.02816,0.05194,0.58811,-0.41525,-0.52534,-0.45356,0.12251,0.00514,0.27305,
1553529010180841728,-0.02969,0.02904,0.07437,0.56586,-0.42981,-0.50512,-0.48982,0.13596,0.00318,0.22721,
1553529010300811776,-0.00698,0.02843,0.09523,0.54017,-0.44023,-0.49329,-0.52066,0.20278,-0.00185,0.09892,
1553529010380801792,0.01458,0.02464,0.10174,0.52627,-0.45833,-0.47249,-0.53827,0.22687,-0.02599,0.02418,
1553529010500771840,0.03922,0.02043,0.09831,0.53186,-0.46962,-0.45631,-0.53699,0.14574,-0.01798,-0.08155,
1553529010580751616,0.04780,0.02229,0.08831,0.54431,-0.47128,-0.45506,-0.52396,0.06416,0.01201,-0.13467,
1553529010700721664,0.04766,0.02845,0.06858,0.55060,-0.48378,-0.45878,-0.50231,-0.05611,0.07758,-0.18629,
1553529010780711680,0.03735,0.04152,0.05035,0.55417,-0.48416,-0.47398,-0.48356,-0.13258,0.07692,-0.19177,
1553529010900681728,0.01248,0.05423,0.02587,0.55094,-0.48939,-0.48936,-0.46635,-0.21086,0.02149,-0.15899,
1553529010980661504,-0.01052,0.06087,0.01010,0.55851,-0.48071,-0.50556,-0.44876,-0.24373,-0.00234,-0.14224,
1553529011100641792,-0.04598,0.05915,-0.00705,0.56124,-0.47586,-0.52320,-0.42992,-0.27520,-0.04779,-0.09445,
1553529011180621568,-0.07000,0.05370,-0.01501,0.56381,-0.47157,-0.53326,-0.41877,-0.27965,-0.05752,-0.05870,
1553529011300591616,-0.10192,0.04717,-0.01760,0.56411,-0.46220,-0.54681,-0.41128,-0.23808,-0.03648,0.03598,
1553529011380571648,-0.11929,0.04295,-0.01256,0.56703,-0.45054,-0.55326,-0.41156,-0.18077,-0.04157,0.09537,
1553529011500551680,-0.13264,0.03778,0.00257,0.56830,-0.43487,-0.55726,-0.42117,-0.06347,-0.04933,0.13869,
1553529011580531712,-0.13187,0.03727,0.01445,0.56717,-0.42645,-0.55609,-0.43269,0.03391,-0.02167,0.12895,
1553529011700501760,-0.11857,0.04269,0.03123,0.55047,-0.43986,-0.53864,-0.46192,0.14886,-0.00359,0.11694,
1553529011780491520,-0.10181,0.04962,0.04418,0.53198,-0.45928,-0.51619,-0.48950,0.19697,-0.01398,0.12224,
1553529011900461568,-0.07170,0.04746,0.05931,0.51937,-0.46812,-0.49391,-0.51689,0.22403,-0.03222,0.10263,
1553529011980441600,-0.05211,0.04309,0.06535,0.52685,-0.46117,-0.48938,-0.51987,0.22678,-0.01896,0.06744,
1553529012100421632,-0.02910,0.04205,0.06838,0.52727,-0.47033,-0.47954,-0.52041,0.15998,0.00210,-0.00814,
1553529012180401664,-0.01976,0.04331,0.06410,0.53128,-0.47760,-0.47565,-0.51322,0.07902,-0.00249,-0.06090,
1553529012300371712,-0.02072,0.04595,0.05129,0.53964,-0.48069,-0.48065,-0.49670,-0.04572,-0.00789,-0.10615,
1553529012380351488,-0.02803,0.04623,0.04249,0.54260,-0.48192,-0.48665,-0.48631,-0.10359,0.00972,-0.11586,
1553529012500331520,-0.04803,0.05504,0.02406,0.54577,-0.47509,-0.50945,-0.46570,-0.14493,0.01555,-0.11704,
1553529012580311552,-0.06968,0.07026,0.01058,0.57903,-0.42862,-0.55078,-0.42148,-0.16438,-0.02285,-0.11648,
1553529012700291584,-0.09662,0.07208,-0.00693,0.60114,-0.39693,-0.58079,-0.37916,-0.17265,-0.04986,-0.11385,
1553529012780271616,-0.11027,0.06810,-0.01405,0.59752,-0.39591,-0.59281,-0.36716,-0.16578,-0.04565,-0.05914,
1553529012900241664,-0.12765,0.06413,-0.01682,0.59205,-0.38564,-0.60683,-0.36402,-0.07560,-0.03439,0.04213,
1553529012980221440,-0.13064,0.06181,-0.01289,0.59293,-0.37901,-0.60733,-0.36869,-0.00304,-0.03365,0.07198,
1553529013100201728,-0.12535,0.05913,-0.00567,0.59781,-0.37555,-0.59933,-0.37734,0.06978,-0.02069,0.05664,
1553529013180181504,-0.11850,0.05793,-0.00178,0.60063,-0.37441,-0.59384,-0.38265,0.09251,-0.01075,0.04405,
1553529013300151552,-0.10460,0.05952,0.00227,0.60399,-0.37208,-0.58778,-0.38893,0.09847,0.03061,0.02329,
1553529013380141568,-0.09614,0.06311,0.00362,0.60136,-0.37534,-0.58416,-0.39528,0.11927,0.05547,0.01801,
1553529013500111616,-0.07943,0.07131,0.00623,0.60394,-0.38481,-0.57234,-0.39950,0.09178,0.06213,0.00315,
1553529013580091392,-0.07187,0.07740,0.00744,0.60470,-0.39457,-0.55980,-0.40655,0.01616,0.05261,-0.01522,
1553529013700071680,-0.07432,0.08099,0.00496,0.59749,-0.40581,-0.55786,-0.40879,-0.07837,-0.00598,-0.05013,
1553529013780051456,-0.08295,0.07896,-0.00053,0.59664,-0.40552,-0.56423,-0.40152,-0.11366,-0.02388,-0.06752,
1553529013900021504,-0.09734,0.07406,-0.00903,0.59467,-0.40387,-0.57656,-0.38838,-0.12867,-0.05110,-0.06280,
1553529013980001536,-0.10601,0.06975,-0.01371,0.59203,-0.39979,-0.58530,-0.38352,-0.10219,-0.05929,-0.04952,
1553529014099981568,-0.11275,0.06308,-0.01798,0.60077,-0.38729,-0.58928,-0.37660,-0.02692,-0.03629,-0.00489,
1553529014179961344,-0.11306,0.06173,-0.01846,0.60880,-0.37894,-0.59178,-0.36819,-0.00270,0.00172,0.01223,
1553529014299931648,-0.11146,0.06208,-0.01785,0.61032,-0.37393,-0.59515,-0.36535,0.02097,-0.00566,0.01516,
1553529014379911680,-0.10976,0.06152,-0.01675,0.61264,-0.37232,-0.59381,-0.36530,0.01254,-0.01343,0.01556,
1553529014499891456,-0.10862,0.06009,-0.01536,0.61552,-0.36913,-0.59308,-0.36488,-0.00035,-0.00962,0.01691,
1553529014579871744,-0.10869,0.05948,-0.01444,0.61711,-0.36654,-0.59379,-0.36365,-0.00687,-0.01206,0.01827,
1553529014699851520,-0.10907,0.05814,-0.01306,0.61803,-0.36358,-0.59501,-0.36305,-0.00539,-0.01381,0.01387,
1553529014779831552,-0.10890,0.05780,-0.01273,0.61843,-0.36184,-0.59647,-0.36172,-0.00165,-0.00318,0.00945,
1553529014899801600,-0.10845,0.05755,-0.01224,0.61901,-0.36112,-0.59731,-0.36006,-0.00040,-0.00733,0.01003,
1553529014979781632,-0.10787,0.05736,-0.01199,0.62042,-0.35915,-0.59806,-0.35834,0.00188,-0.00724,0.01249,
1553529015099761408,-0.10731,0.05651,-0.01153,0.62182,-0.35715,-0.59840,-0.35736,-0.00115,-0.01114,0.00607,
1553529015179741696,-0.10698,0.05641,-0.01170,0.62292,-0.35476,-0.59996,-0.35522,-0.00173,-0.00808,0.00956,
1553529015299711488,-0.10676,0.05543,-0.01090,0.62371,-0.35211,-0.60110,-0.35453,0.00318,-0.01418,0.01496,
1553529015379701504,-0.10649,0.05515,-0.01086,0.62417,-0.35032,-0.60230,-0.35345,0.00227,-0.01067,0.01113,
1553529015499671552,-0.10619,0.05467,-0.01081,0.62504,-0.34850,-0.60362,-0.35145,0.00351,-0.01147,0.00894,
1553529015579651584,-0.10566,0.05462,-0.01119,0.62637,-0.34658,-0.60441,-0.34962,0.00500,-0.01126,0.00959,
1553529015699631360,-0.10525,0.05429,-0.01107,0.62766,-0.34486,-0.60497,-0.34803,0.00228,-0.01300,0.01054,
1553529015779611648,-0.10506,0.05444,-0.01153,0.62844,-0.34274,-0.60617,-0.34663,0.00504,-0.01123,0.00826,
1553529015899581440,-0.10453,0.05447,-0.01193,0.62949,-0.34091,-0.60716,-0.34478,0.00638,-0.00857,0.00742,
1553529015979561472,-0.10448,0.05510,-0.01261,0.63064,-0.33952,-0.60781,-0.34291,0.00459,-0.01219,0.00710,
1553529016099541504,-0.10427,0.05547,-0.01294,0.63160,-0.33876,-0.60821,-0.34118,0.00715,-0.01425,0.00757,
1553529016179521536,-0.10395,0.05592,-0.01356,0.63316,-0.33714,-0.60839,-0.33956,0.00277,-0.01216,0.00602,
1553529016299491328,-0.10382,0.05675,-0.01412,0.63350,-0.33723,-0.60810,-0.33936,0.00295,-0.00953,0.00732,
1553529016379481600,-0.10404,0.05721,-0.01455,0.63465,-0.33444,-0.60969,-0.33713,0.00168,-0.01129,0.00677,
1553529016499451392,-0.10361,0.05796,-0.01480,0.63466,-0.33604,-0.60861,-0.33747,0.00595,-0.00595,0.00530,
1553529016579431424,-0.10361,0.05869,-0.01528,0.63512,-0.33507,-0.60932,-0.33628,0.00011,-0.00947,0.00496,
1553529016699411456,-0.10386,0.05865,-0.01528,0.63545,-0.33372,-0.60974,-0.33624,-0.00418,-0.00999,0.00994,
1553529016779391488,-0.10442,0.05893,-0.01545,0.63578,-0.33168,-0.61085,-0.33562,-0.00379,-0.00844,0.00483,
1553529016899361280,-0.10387,0.05893,-0.01588,0.63593,-0.33257,-0.61053,-0.33503,0.00882,-0.00633,0.00224,
1553529016979341568,-0.10305,0.05932,-0.01598,0.63624,-0.33330,-0.60991,-0.33484,0.00907,-0.00912,0.00790,
1553529017099321344,-0.10172,0.05928,-0.01537,0.63615,-0.33397,-0.60823,-0.33738,0.01061,-0.00773,0.00810,
1553529017179301376,-0.10120,0.06124,-0.01848,0.64435,-0.32230,-0.61008,-0.32975,0.02916,0.00852,0.00592,
1553529017299271680,-0.09851,0.06295,-0.01772,0.65656,-0.31769,-0.60228,-0.32443,0.01601,0.01307,0.00776,
1553529017379261440,-0.09599,0.06493,-0.01718,0.66050,-0.32032,-0.59475,-0.32774,0.02759,0.02291,0.00768,
1553529017499231488,-0.09303,0.06819,-0.01934,0.66021,-0.32512,-0.58974,-0.33260,-0.00600,-0.00959,0.00475,
1553529017579211520,-0.09289,0.06590,-0.01824,0.65773,-0.32595,-0.58902,-0.33794,-0.00373,-0.04492,0.01255,
1553529017699191552,-0.08848,0.06531,-0.01971,0.66141,-0.32031,-0.58628,-0.34090,0.04108,0.00049,-0.03073,
1553529017779171584,-0.08354,0.06654,-0.02246,0.66197,-0.32558,-0.58140,-0.34318,0.05556,0.02655,-0.03299,
1553529017899141632,-0.07756,0.07242,-0.02356,0.66118,-0.33744,-0.57492,-0.34416,0.00221,0.01881,0.01288,
1553529017979121408,-0.07804,0.07270,-0.02232,0.65627,-0.33601,-0.57923,-0.34771,-0.00968,-0.00757,0.01750,
1553529018099101440,-0.07758,0.07428,-0.02068,0.65187,-0.33177,-0.58514,-0.35016,-0.00775,-0.00333,0.01744,
1553529018179081472,-0.07823,0.07415,-0.01922,0.64896,-0.33369,-0.58701,-0.35059,-0.01772,-0.00681,0.01821,
1553529018299051520,-0.08158,0.07239,-0.01655,0.64873,-0.33245,-0.58947,-0.34808,-0.03290,-0.02412,0.02412,
1553529018379041536,-0.08263,0.07067,-0.01509,0.65129,-0.33177,-0.58964,-0.34362,-0.01010,-0.01853,0.01665,
1553529018499011584,-0.08347,0.07075,-0.01382,0.65320,-0.34150,-0.58433,-0.33951,-0.00905,-0.00515,0.00268,
1553529018578991360,-0.08530,0.06940,-0.01275,0.65649,-0.34607,-0.58208,-0.33233,-0.01985,-0.01461,0.01000,
1553529018698971392,-0.08831,0.06835,-0.01114,0.66179,-0.34834,-0.58013,-0.32271,-0.04134,0.00170,0.02060,
1553529018778951424,-0.09121,0.06985,-0.01042,0.65831,-0.34869,-0.58262,-0.32496,-0.05836,0.02949,0.01312,
1553529018898921472,-0.09511,0.07628,-0.00959,0.65125,-0.34891,-0.59130,-0.32327,-0.01768,0.06943,0.01663,
1553529018978911488,-0.09511,0.08184,-0.00733,0.65299,-0.34934,-0.59203,-0.31792,-0.02277,0.05103,0.03675,
1553529019098881536,-0.09949,0.09244,-0.00414,0.65396,-0.34297,-0.59932,-0.30908,-0.05129,0.09975,0.03881,
1553529019178861312,-0.10338,0.09899,-0.00233,0.64694,-0.34694,-0.60550,-0.30736,-0.04400,0.05914,0.02178,
1553529019298831360,-0.10501,0.10541,-0.00128,0.64062,-0.34198,-0.61402,-0.30925,-0.01747,0.04178,0.02698,
1553529019378821376,-0.10387,0.10906,0.00354,0.64060,-0.34392,-0.61132,-0.31248,0.00619,0.06227,0.08712,
1553529019498791424,-0.10593,0.11896,0.01642,0.64418,-0.35384,-0.60459,-0.30710,-0.05019,0.08263,0.16928,
1553529019578771456,-0.10951,0.12468,0.03375,0.64989,-0.35579,-0.60457,-0.29249,-0.03733,0.07291,0.30277,
1553529019698751488,-0.11327,0.12715,0.08074,0.66385,-0.35245,-0.59979,-0.27447,-0.04455,-0.03587,0.47527,
1553529019778731264,-0.11758,0.12580,0.12088,0.66904,-0.34387,-0.60453,-0.26210,-0.07929,-0.01536,0.54738,
1553529019898701312,-0.12994,0.12457,0.18883,0.66202,-0.33969,-0.61968,-0.24968,-0.13136,-0.02460,0.57580,
1553529019978681344,-0.13946,0.12345,0.23240,0.67510,-0.32454,-0.61886,-0.23649,-0.13883,-0.01173,0.53095,
1553529020098661376,-0.15630,0.12178,0.28505,0.69145,-0.31236,-0.61010,-0.22826,-0.16001,-0.00892,0.36606,
1553529020178641408,-0.17277,0.12417,0.30833,0.69563,-0.30190,-0.61407,-0.21878,-0.19086,0.01639,0.24117,
1553529020298611456,-0.20194,0.12456,0.32384,0.67858,-0.28531,-0.64097,-0.21744,-0.25771,0.00241,0.03873,
1553529020378601216,-0.22096,0.12442,0.32269,0.66572,-0.27755,-0.65741,-0.21817,-0.25551,0.01355,-0.05453,
1553529020498571520,-0.25587,0.12710,0.30726,0.64931,-0.26672,-0.68257,-0.20336,-0.26941,0.04386,-0.17458,
1553529020578551296,-0.27833,0.12737,0.29075,0.64217,-0.26444,-0.69463,-0.18759,-0.26244,0.00479,-0.20683,
1553529020698531328,-0.30980,0.11840,0.26307,0.64783,-0.25501,-0.70021,-0.15809,-0.31777,-0.02185,-0.24124,
1553529020778511360,-0.34020,0.11788,0.24363,0.64246,-0.24184,-0.70985,-0.15773,-0.36032,-0.00244,-0.21403,
1553529020898481408,-0.39398,0.11773,0.22325,0.64443,-0.23470,-0.71509,-0.13519,-0.45828,0.01269,-0.11860,
1553529020978471168,-0.43303,0.12192,0.21440,0.64834,-0.23958,-0.71274,-0.11937,-0.45893,0.06380,-0.06337,
1553529021098441472,-0.48501,0.13585,0.21203,0.65417,-0.25152,-0.70496,-0.10878,-0.38361,0.14963,0.02125,
1553529021178421248,-0.51601,0.15148,0.21605,0.64528,-0.25437,-0.70967,-0.12362,-0.27448,0.18386,0.04181,
1553529021298401280,-0.53390,0.18148,0.22599,0.64880,-0.28544,-0.69086,-0.14244,0.03594,0.19913,0.08516,
1553529021378381312,-0.52935,0.19961,0.23430,0.65780,-0.30598,-0.67115,-0.15240,0.10913,0.17966,0.07985,
1553529021498351360,-0.51580,0.22430,0.24337,0.64739,-0.32035,-0.66351,-0.19496,0.10275,0.13038,0.03907,
1553529021578331392,-0.50669,0.23410,0.24619,0.63805,-0.32203,-0.66469,-0.21768,0.04760,0.05871,-0.01530,
1553529021698311424,-0.50117,0.23817,0.24544,0.62862,-0.30684,-0.67647,-0.23039,0.05738,-0.01787,-0.00570,
1553529021778291456,-0.49644,0.24014,0.24715,0.63123,-0.29935,-0.68043,-0.22126,0.03404,-0.04040,0.01264,
1553529021898261248,-0.49252,0.23783,0.25022,0.63522,-0.28073,-0.68689,-0.21416,0.01912,-0.03785,0.01604,
1553529021978241536,-0.48839,0.23654,0.24816,0.63478,-0.26752,-0.69241,-0.21460,0.00466,-0.08107,-0.01197,
1553529022098221312,-0.48614,0.22648,0.23802,0.62625,-0.23877,-0.71170,-0.21045,-0.02421,-0.16280,-0.06021,
1553529022178201344,-0.48440,0.21680,0.23025,0.61762,-0.21958,-0.72867,-0.19844,-0.03651,-0.16476,-0.02449,
1553529022298171392,-0.48626,0.20289,0.22392,0.61858,-0.19849,-0.74045,-0.17231,-0.11348,-0.11654,-0.00247,
1553529022378161408,-0.49629,0.19586,0.22251,0.61397,-0.18377,-0.75126,-0.15773,-0.17250,-0.07802,0.00130,
1553529022498131200,-0.51910,0.18716,0.22410,0.60573,-0.16784,-0.76487,-0.14103,-0.20075,-0.03302,0.03163,
1553529022578111488,-0.53827,0.18558,0.22219,0.60672,-0.17242,-0.76439,-0.13367,-0.27284,0.01620,-0.11357,
1553529022698091264,-0.57885,0.18558,0.20910,0.58876,-0.17824,-0.77543,-0.14247,-0.35776,0.04075,-0.07115,
1553529022778071296,-0.61025,0.19144,0.20125,0.58301,-0.20254,-0.77186,-0.15268,-0.41883,0.08657,-0.10068,
1553529022898041344,-0.66988,0.19910,0.19174,0.56997,-0.22328,-0.76337,-0.20629,-0.56438,0.01507,-0.04918,
1553529022978021376,-0.71506,0.19827,0.19198,0.57731,-0.23153,-0.75256,-0.21624,-0.56035,-0.03360,0.02206,
1553529023098001152,-0.77729,0.18935,0.19628,0.57039,-0.26013,-0.74672,-0.22225,-0.49773,-0.07798,0.05733,
1553529023177981440,-0.81566,0.18186,0.20055,0.56683,-0.27048,-0.74383,-0.22860,-0.44343,-0.10508,0.07180,
1553529023297961216,-0.86527,0.17308,0.20659,0.57518,-0.27808,-0.73458,-0.22855,-0.32222,-0.06597,0.03443,
1553529023377941248,-0.88989,0.17108,0.20884,0.56962,-0.27710,-0.73911,-0.22907,-0.27963,0.01038,0.03384,
1553529023497911296,-0.92263,0.17912,0.21275,0.56863,-0.28186,-0.73710,-0.23214,-0.19768,0.06892,0.02875,
1553529023577891328,-0.93637,0.18644,0.21475,0.56326,-0.28849,-0.73818,-0.23366,-0.14904,0.10387,0.00171,
1553529023697871104,-0.95236,0.20241,0.21423,0.54777,-0.30059,-0.74193,-0.24320,-0.11967,0.17626,-0.01186,
1553529023777851392,-0.96028,0.21946,0.21291,0.54311,-0.30789,-0.74081,-0.24786,-0.08636,0.25575,-0.02341,
1553529023897821184,-0.96960,0.26473,0.20725,0.53535,-0.32355,-0.73690,-0.25631,-0.03700,0.41443,-0.02449,
1553529023977811456,-0.97864,0.30670,0.20306,0.52987,-0.33666,-0.73341,-0.26077,-0.03344,0.49726,-0.00018,
1553529024097781504,-0.98910,0.37800,0.20543,0.53010,-0.35779,-0.71945,-0.27087,-0.02023,0.63634,0.08504,
1553529024177761280,-0.99231,0.43810,0.20764,0.53143,-0.37126,-0.70772,-0.28086,0.00356,0.70567,0.09442,
1553529024297741312,-0.99516,0.52254,0.21610,0.52689,-0.38765,-0.69246,-0.30432,0.03618,0.69078,0.08981,
1553529024377721344,-0.98198,0.57677,0.21626,0.52234,-0.39285,-0.68486,-0.32215,0.06800,0.61652,0.05335,
1553529024497691392,-0.94827,0.64989,0.20704,0.50923,-0.41784,-0.67536,-0.33164,0.10553,0.56549,-0.01562,
1553529024577671168,-0.92687,0.69660,0.19391,0.50215,-0.43838,-0.66572,-0.33539,0.12940,0.58152,-0.04449,
1553529024697651456,-0.91957,0.78369,0.18619,-0.48411,0.46037,0.65269,0.35734,0.05088,0.63488,-0.04014,
1553529024777631232,-0.91656,0.84269,0.18071,-0.47788,0.46968,0.64413,0.36895,0.01071,0.69123,-0.01626,
1553529024897601280,-0.91933,0.94048,0.18275,-0.47379,0.48528,0.62951,0.37913,-0.03312,0.77038,0.08220,
1553529024977591296,-0.92214,1.00550,0.19063,-0.48107,0.49068,0.61828,0.38150,-0.04156,0.74679,0.13491,
1553529025097561344,-0.92355,1.09479,0.20452,-0.47947,0.50347,0.60343,0.39051,0.01295,0.67706,0.12827,
1553529025177541376,-0.91846,1.14878,0.21280,-0.48138,0.51290,0.59193,0.39348,0.05898,0.62910,0.09572,
1553529025297521408,-0.90251,1.21631,0.21778,-0.46990,0.53235,0.57962,0.39979,0.15117,0.54106,0.01199,
1553529025377501184,-0.88774,1.25523,0.21380,-0.46227,0.54363,0.57469,0.40062,0.18027,0.52582,-0.05182,
1553529025497471232,-0.86080,1.31549,0.20535,-0.44830,0.55753,0.57028,0.40370,0.24605,0.53681,-0.04924,
1553529025577451264,-0.84094,1.35985,0.20043,-0.44913,0.55896,0.56621,0.40651,0.26909,0.57414,-0.03163,
1553529025697431296,-0.80458,1.43281,0.19962,-0.45221,0.55963,0.55640,0.41562,0.34463,0.65537,0.04603,
1553529025777411328,-0.77557,1.48552,0.20447,-0.44696,0.55640,0.55546,0.42675,0.37792,0.67273,0.10628,
1553529025897381376,-0.72650,1.56166,0.21731,-0.44951,0.55733,0.54586,0.43514,0.43813,0.57784,0.10713,
1553529025977371136,-0.68951,1.60081,0.22157,-0.44582,0.55543,0.53888,0.44983,0.45320,0.47963,0.02688,
1553529026097341184,-0.63706,1.65021,0.22025,-0.42943,0.57138,0.53005,0.45625,0.40892,0.38471,-0.02031,
1553529026177321216,-0.60263,1.67858,0.21766,-0.41584,0.58530,0.52166,0.46085,0.43699,0.35584,-0.03508,
1553529026297301248,-0.54988,1.72251,0.21107,-0.39401,0.60862,0.50136,0.47220,0.41495,0.32722,-0.05514,
1553529026377281280,-0.51726,1.75017,0.20669,-0.37796,0.62464,0.48700,0.47938,0.37920,0.33033,-0.04149,
1553529026497251328,-0.46941,1.79582,0.20232,-0.35856,0.64571,0.46098,0.49192,0.38589,0.39485,-0.02849,
1553529026577231104,-0.43696,1.82916,0.20065,-0.34551,0.65694,0.44123,0.50435,0.38588,0.43803,-0.00744,
1553529026697211392,-0.38566,1.88659,0.20006,-0.32832,0.67644,0.40136,0.52302,0.42349,0.48987,0.01277,
1553529026777191168,-0.34967,1.92465,0.20129,-0.31473,0.69030,0.37402,0.53342,0.41497,0.48155,0.04703,
1553529026897161216,-0.29806,1.97589,0.20594,-0.28662,0.71082,0.33983,0.54506,0.38347,0.42762,0.03684,
1553529026977151232,-0.26647,2.00358,0.20826,-0.27092,0.71917,0.31698,0.55581,0.34446,0.36444,0.02990,
1553529027097121280,-0.22883,2.03390,0.21078,-0.25265,0.72830,0.28975,0.56727,0.27525,0.21690,0.01729,
1553529027177101056,-0.20396,2.04621,0.21085,-0.23226,0.73664,0.27370,0.57315,0.26817,0.13207,0.00492,
1553529027297081344,-0.17058,2.05535,0.20879,-0.20487,0.74554,0.24918,0.58318,0.26369,0.04116,-0.03408,
1553529027377061120,-0.14741,2.05450,0.20504,-0.18587,0.75456,0.22919,0.58615,0.29532,-0.03486,-0.06256,
1553529027497031168,-0.10852,2.04524,0.19637,-0.14640,0.77038,0.19697,0.58846,0.33173,-0.11741,-0.08258,
1553529027577011200,-0.08084,2.03585,0.18916,-0.12028,0.78212,0.17714,0.58519,0.32950,-0.10313,-0.06766,
1553529027696991232,-0.03815,2.02522,0.18248,-0.10247,0.79177,0.15088,0.58295,0.35241,-0.06743,-0.02195,
1553529027776971008,-0.00720,2.01600,0.18040,-0.10001,0.79307,0.13476,0.58556,0.40082,-0.07995,-0.00536,
1553529027896941312,0.04660,2.00047,0.18405,-0.09379,0.79083,0.10847,0.59499,0.50126,-0.07525,0.08062,
1553529027976931072,0.08663,1.98677,0.19137,-0.09167,0.78918,0.09065,0.60048,0.49856,-0.11494,0.12191,
1553529028096901120,0.14325,1.95832,0.20519,-0.07531,0.78290,0.06669,0.61396,0.45698,-0.18257,0.10826,
1553529028176881408,0.17779,1.93524,0.21113,-0.05897,0.77809,0.05233,0.62319,0.40270,-0.20906,0.06179,
1553529028296861184,0.22098,1.90402,0.21492,-0.02999,0.77359,0.02867,0.63233,0.30265,-0.20206,0.00539,
1553529028376841216,0.24587,1.88500,0.21338,-0.01209,0.77595,0.00970,0.63060,0.24314,-0.18121,-0.03731,
1553529028496811264,0.27650,1.85993,0.20895,0.01668,0.77975,-0.02833,0.62523,0.19204,-0.17295,-0.04631,
1553529028576801280,0.29127,1.84556,0.20468,0.04605,0.78172,-0.05646,0.61936,0.14453,-0.14709,-0.04995,
1553529028696771072,0.30775,1.83108,0.19990,0.09135,0.77839,-0.10302,0.61250,0.10498,-0.08592,-0.01809,
1553529028776751360,0.31846,1.82285,0.19932,0.12189,0.77396,-0.13988,0.60544,0.08275,-0.06703,0.01918,
1553529028896721152,0.33236,1.81719,0.20290,0.16695,0.75653,-0.20430,0.59838,0.07132,0.01117,0.03924,
1553529028976711168,0.33544,1.81802,0.20484,0.19131,0.74332,-0.24132,0.59384,0.00990,0.06539,0.00976,
1553529029096681216,0.32675,1.82424,0.20016,0.22877,0.72487,-0.29432,0.57931,-0.09247,0.09528,-0.05404,
1553529029176661248,0.31262,1.82819,0.19447,0.25259,0.71192,-0.32669,0.56802,-0.15725,0.06616,-0.06624,
1553529029296641024,0.28260,1.83062,0.18721,0.28664,0.69270,-0.37806,0.54321,-0.23495,0.01153,-0.03178,
1553529029376621312,0.25660,1.82909,0.18552,0.30975,0.67585,-0.41086,0.52770,-0.27275,-0.00858,-0.00728,
1553529029496591104,0.21705,1.82467,0.18601,0.34514,0.65116,-0.44584,0.50803,-0.32124,-0.03026,0.00931,
1553529029576571136,0.18728,1.82092,0.18602,0.36332,0.63536,-0.46837,0.49492,-0.34348,-0.03755,0.01336,
1553529029696551168,0.14020,1.81470,0.18670,0.38307,0.60919,-0.50011,0.48170,-0.41152,-0.06240,0.01142,
1553529029776531200,0.10303,1.80911,0.18670,0.39604,0.59451,-0.51729,0.47129,-0.47925,-0.06484,0.01434,
1553529029896500992,0.03774,1.80273,0.18818,0.41858,0.57206,-0.54190,0.45155,-0.55769,-0.05336,0.02516,
1553529029976491264,-0.01214,1.79808,0.18950,-0.43188,-0.55584,0.55703,-0.44073,-0.57690,-0.05629,0.02148,
1553529030096461056,-0.08773,1.79116,0.19048,-0.45029,-0.53693,0.57362,-0.42415,-0.58423,-0.04861,0.00617,
1553529030176441088,-0.13618,1.78496,0.18910,-0.46043,-0.52830,0.58157,-0.41313,-0.56411,-0.05190,-0.01068,
1553529030296421120,-0.20301,1.77607,0.18638,-0.47394,-0.51672,0.59194,-0.39747,-0.51135,-0.04993,-0.03068,
1553529030376401152,-0.24491,1.77099,0.18406,-0.47936,-0.51077,0.59951,-0.38719,-0.50882,-0.04892,-0.01000,
1553529030496370944,-0.30646,1.76375,0.18380,-0.49314,-0.49245,0.61401,-0.37054,-0.46203,-0.05354,0.00089,
1553529030576351232,-0.34259,1.75900,0.18273,-0.49811,-0.47715,0.62807,-0.36019,-0.40729,-0.06703,-0.01540,
1553529030696331008,-0.39023,1.74786,0.17954,0.50384,0.45218,-0.65041,0.34445,-0.32661,-0.12003,-0.03681,
1553529030776311040,-0.41679,1.73738,0.17546,0.50931,0.44164,-0.65940,0.33279,-0.26415,-0.16592,-0.06075,
1553529030896291072,-0.44738,1.71297,0.16561,0.51238,0.43545,-0.66882,0.31707,-0.20774,-0.28557,-0.09078,
1553529030976271104,-0.46155,1.68747,0.15854,0.51173,0.43415,-0.67173,0.31374,-0.16703,-0.39475,-0.08434,
1553529031096241152,-0.47569,1.63184,0.15161,0.51500,0.43322,-0.66941,0.31462,-0.12820,-0.56499,-0.01995,
1553529031176221184,-0.48475,1.58263,0.15251,0.51773,0.43441,-0.66391,0.32011,-0.09600,-0.64517,0.03725,
1553529031296201216,-0.48876,1.50628,0.15983,0.51347,0.43603,-0.66228,0.32804,-0.05731,-0.62392,0.06083,
1553529031376181248,-0.48665,1.45919,0.16424,0.51748,0.43204,-0.65893,0.33372,-0.02709,-0.57397,0.04428,
1553529031496151296,-0.48235,1.39699,0.16650,0.51558,0.44027,-0.64886,0.34542,-0.00152,-0.47229,-0.00400,
1553529031576141056,-0.47588,1.36098,0.16553,0.50760,0.45149,-0.64846,0.34351,-0.00645,-0.45300,-0.02316,
1553529031696111104,-0.47297,1.30483,0.16225,-0.49526,-0.46859,0.64338,-0.34814,-0.05424,-0.48630,-0.04304,
1553529031776091136,-0.47359,1.26367,0.15838,-0.48509,-0.47789,0.63938,-0.35707,-0.08076,-0.52443,-0.05704,
1553529031896071168,-0.48454,1.19391,0.15318,-0.47456,-0.49476,0.62654,-0.37075,-0.16510,-0.60820,-0.02745,
1553529031976051200,-0.49818,1.13941,0.15307,-0.47233,-0.50259,0.61605,-0.38051,-0.23205,-0.63393,0.00450,
1553529032096021248,-0.52289,1.04412,0.15789,-0.46927,-0.51683,0.59671,-0.39574,-0.22703,-0.73337,0.06694,
1553529032176001024,-0.53923,0.98323,0.16504,-0.46130,-0.52828,0.58820,-0.40266,-0.21606,-0.68190,0.11950,
1553529032295981056,-0.56146,0.90989,0.17708,-0.45836,-0.53991,0.56802,-0.41923,-0.15565,-0.55237,0.06297,
1553529032375961088,-0.57208,0.87056,0.18066,-0.44966,-0.54596,0.56464,-0.42535,-0.12044,-0.51238,0.02652,
1553529032495931136,-0.58538,0.81652,0.18036,-0.43839,-0.55606,0.56029,-0.42974,-0.08645,-0.49239,-0.02327,
1553529032575921152,-0.59143,0.77667,0.17749,0.43338,0.56038,-0.55856,0.43147,-0.05322,-0.50562,-0.04494,
1553529032695891200,-0.59476,0.71366,0.17133,0.42472,0.56386,-0.55470,0.44043,0.00896,-0.56870,-0.06218,
1553529032775870976,-0.59283,0.66649,0.16704,0.42141,0.56673,-0.55022,0.44552,0.04262,-0.61780,-0.04126,
1553529032895851008,-0.58545,0.58515,0.16641,0.41398,0.57520,-0.54220,0.45142,0.07607,-0.68411,0.05051,
1553529032975831040,-0.58044,0.52834,0.17112,0.41009,0.57602,-0.53914,0.45756,0.04984,-0.70913,0.06777,
1553529033095801088,-0.57841,0.44678,0.17827,0.40802,0.57391,-0.53673,0.46484,0.03629,-0.59211,0.04235,
1553529033175781120,-0.57996,0.39492,0.18037,0.40086,0.57667,-0.53412,0.47061,0.02100,-0.53006,0.00093,
1553529033295761152,-0.58195,0.33423,0.18056,0.38478,0.58685,-0.53383,0.47178,0.00895,-0.46296,-0.00796,
1553529033375740928,-0.58079,0.29136,0.17919,0.37970,0.59173,-0.53009,0.47400,0.01883,-0.48132,-0.01864,
1553529033495710976,-0.58042,0.23387,0.17393,0.36792,0.60094,-0.51861,0.48430,0.02210,-0.54443,-0.05037,
1553529033575700992,-0.57819,0.18843,0.17079,0.35837,0.61166,-0.50569,0.49165,0.01832,-0.58519,-0.02922,
1553529033695671040,-0.57813,0.12078,0.17004,0.34743,0.62946,-0.47817,0.50441,-0.00980,-0.67963,0.02623,
1553529033775651072,-0.57903,0.06765,0.17434,0.34264,0.64028,-0.46614,0.50532,-0.04289,-0.69129,0.07272,
1553529033895631104,-0.58112,-0.01719,0.18243,0.34296,0.65626,-0.44407,0.50449,-0.06043,-0.60229,0.05099,
1553529033975610880,-0.58072,-0.06742,0.18481,0.34217,0.66430,-0.43445,0.50287,-0.01950,-0.49374,0.02897,
1553529034095580928,-0.58223,-0.12650,0.18623,0.33065,0.67049,-0.43345,0.50323,0.02756,-0.48088,0.00114,
1553529034175560960,-0.57763,-0.16513,0.18517,0.32318,0.67343,-0.43319,0.50437,0.08474,-0.49357,-0.02422,
1553529034295540992,-0.56530,-0.22262,0.17939,0.31922,0.67444,-0.43100,0.50741,0.15658,-0.55117,-0.04407,
1553529034375521024,-0.54952,-0.26758,0.17681,0.32154,0.67408,-0.42758,0.50932,0.22094,-0.56865,-0.01641,
1553529034495491072,-0.52060,-0.33679,0.17864,0.32394,0.66993,-0.41920,0.52012,0.27647,-0.57912,0.06071,
1553529034575480832,-0.49941,-0.38033,0.18536,0.32132,0.67169,-0.41763,0.52074,0.25727,-0.52946,0.08846,
1553529034695451136,-0.46963,-0.44097,0.19188,0.32302,0.67254,-0.41041,0.52431,0.26416,-0.44368,0.03091,
1553529034775440896,-0.44964,-0.47250,0.19328,0.31678,0.68232,-0.39970,0.52376,0.22994,-0.36779,0.01132,
1553529034895410944,-0.42207,-0.52415,0.19300,0.31184,0.69192,-0.39343,0.51886,0.21394,-0.35250,-0.00951,
1553529034975390976,-0.40495,-0.55769,0.19095,0.30253,0.69875,-0.38729,0.51985,0.22271,-0.36564,-0.01893,
1553529035095361024,-0.38029,-0.61043,0.18900,0.28692,0.70620,-0.37237,0.52943,0.21190,-0.43626,-0.00357,
1553529035175341056,-0.36715,-0.64722,0.18868,0.27499,0.70900,-0.35820,0.54166,0.20471,-0.46763,0.01517,
1553529035295321088,-0.34596,-0.70156,0.19315,0.26442,0.71649,-0.33055,0.55448,0.22674,-0.48529,0.08045,
1553529035375301120,-0.32533,-0.73583,0.19993,0.24882,0.71949,-0.31579,0.56630,0.22868,-0.43095,0.10384,
1553529035495270912,-0.29307,-0.78350,0.20889,0.23529,0.72453,-0.28547,0.58156,0.22514,-0.33820,0.03095,
1553529035575261184,-0.26977,-0.80908,0.20939,0.22372,0.73191,-0.27321,0.58276,0.27080,-0.28006,-0.00437,
1553529035695230976,-0.23810,-0.83668,0.20815,0.20422,0.74170,-0.25537,0.58563,0.31412,-0.26289,-0.02286,
1553529035775211008,-0.21497,-0.85576,0.20497,0.19434,0.74712,-0.24469,0.58666,0.35279,-0.27911,-0.05322,
1553529035895191040,-0.16768,-0.88778,0.19755,0.18289,0.75445,-0.23325,0.58562,0.46890,-0.27735,-0.06738,
1553529035975171072,-0.12844,-0.91046,0.19255,0.17702,0.75703,-0.22439,0.58755,0.53398,-0.28709,-0.05316,
1553529036095140864,-0.05830,-0.94809,0.18791,0.17031,0.75729,-0.21607,0.59230,0.64268,-0.32169,-0.00654,
1553529036175121152,-0.00387,-0.97545,0.18968,0.16503,0.75550,-0.21667,0.59585,0.71401,-0.34198,0.04506,
1553529036295100928,0.07935,-1.01651,0.19817,0.15589,0.75629,-0.21133,0.59922,0.66028,-0.31926,0.07392,
1553529036375080960,0.12985,-1.03911,0.20363,0.15213,0.75341,-0.20751,0.60512,0.61108,-0.26414,0.05304,
1553529036495051008,0.19786,-1.06882,0.20717,0.13697,0.75697,-0.19137,0.60960,0.51778,-0.20849,0.01130,
1553529036575041024,0.23946,-1.08672,0.20619,0.12377,0.76133,-0.18171,0.60995,0.52874,-0.21334,-0.01818,
1553529036695010816,0.30458,-1.11511,0.20266,0.09518,0.76600,-0.16159,0.61488,0.55453,-0.24780,-0.03365,
1553529036774991104,0.35028,-1.13708,0.19979,0.07892,0.76746,-0.14174,0.62023,0.56238,-0.27541,-0.03286,
1553529036894970880,0.41890,-1.17318,0.19788,0.05439,0.76951,-0.09637,0.62898,0.54656,-0.31979,-0.00079,
1553529036974950912,0.46192,-1.20090,0.19970,0.03937,0.77612,-0.06946,0.62551,0.52957,-0.35484,0.04478,
1553529037094920960,0.52873,-1.23941,0.20684,0.02313,0.78169,-0.03430,0.62229,0.49888,-0.28607,0.05773,
1553529037174900992,0.57339,-1.25867,0.20995,0.01401,0.78325,-0.01551,0.62135,0.47382,-0.18682,0.02589,
1553529037294880768,0.63085,-1.27468,0.21030,-0.00658,0.78657,0.00510,0.61745,0.49604,-0.09367,-0.01857,
1553529037374861056,0.66813,-1.27779,0.20631,-0.01972,0.78790,0.01754,0.61524,0.51666,-0.03234,-0.06997,
1553529037494840832,0.72906,-1.27566,0.19645,-0.03041,0.79068,0.03126,0.61068,0.59617,0.04345,-0.08814,
1553529037574821120,0.77783,-1.26834,0.19126,-0.03615,0.78936,0.04200,0.61143,0.63838,0.11245,-0.04869,
1553529037694790912,0.85823,-1.25005,0.19029,-0.04318,0.78233,0.05737,0.61871,0.70879,0.16110,0.03471,
1553529037774770944,0.91329,-1.23566,0.19528,-0.04986,0.77905,0.06213,0.62188,0.68611,0.19259,0.07835,
1553529037894750720,0.98591,-1.20855,0.20480,-0.06842,0.77475,0.07007,0.62464,0.58128,0.24013,0.07640,
1553529037974731008,1.02717,-1.18976,0.20955,-0.07977,0.77510,0.08245,0.62133,0.51308,0.22124,0.05694,
1553529038094701056,1.08125,-1.15939,0.21272,-0.09825,0.77528,0.10479,0.61507,0.46041,0.24382,-0.00398,
1553529038174691072,1.11567,-1.13678,0.21252,-0.11485,0.77333,0.12223,0.61141,0.46009,0.24308,-0.01605,
1553529038294661120,1.17222,-1.10498,0.21052,-0.14047,0.76744,0.14924,0.60747,0.49474,0.23255,-0.01164,
1553529038374640896,1.21275,-1.08382,0.21074,-0.15316,0.76137,0.16915,0.60684,0.52374,0.22452,0.02469,
1553529038494610944,1.28002,-1.05345,0.21648,-0.17537,0.74575,0.19853,0.61131,0.55421,0.21263,0.07691,
1553529038574600960,1.32555,-1.03256,0.22245,-0.19102,0.73840,0.21759,0.60904,0.54281,0.22122,0.06901,
1553529038694571008,1.39199,-1.00402,0.22990,-0.20765,0.73287,0.24155,0.60119,0.50201,0.20965,0.04821,
1553529038774551040,1.42995,-0.98540,0.23152,-0.21879,0.72675,0.25594,0.59871,0.44317,0.21804,0.00799,
1553529038894531072,1.47551,-0.95466,0.22980,-0.23396,0.72562,0.27619,0.58520,0.36566,0.26891,-0.02123,
1553529038974510848,1.50146,-0.93241,0.22760,-0.24345,0.72323,0.28801,0.57855,0.34065,0.30292,-0.04137,
1553529039094480896,1.53957,-0.89185,0.22183,-0.25272,0.72112,0.30564,0.56807,0.32443,0.36942,-0.05210,
1553529039174460928,1.56531,-0.85955,0.21832,-0.25991,0.71820,0.31402,0.56393,0.34374,0.42352,-0.03749,
1553529039294440960,1.60798,-0.80303,0.21599,-0.26865,0.71312,0.31713,0.56455,0.35734,0.50209,0.01196,
1553529039374420992,1.63785,-0.75985,0.21788,-0.27458,0.70867,0.31673,0.56752,0.36176,0.55074,0.05972,
1553529039494391040,1.67922,-0.69034,0.22580,-0.28530,0.70457,0.31755,0.56687,0.31170,0.56308,0.07795,
1553529039574380800,1.70341,-0.64542,0.23119,-0.29461,0.70016,0.31876,0.56690,0.27339,0.52474,0.06195,
1553529039694350848,1.73145,-0.58613,0.23560,-0.30763,0.69226,0.33375,0.56103,0.20096,0.44573,0.02526,
1553529039774330880,1.74677,-0.54944,0.23653,-0.31654,0.68830,0.34398,0.55473,0.18239,0.43901,0.00519,
1553529039894310912,1.76788,-0.49484,0.23661,-0.33341,0.67909,0.36687,0.54137,0.17145,0.42107,0.00118,
1553529039974290944,1.78218,-0.45877,0.23660,-0.34623,0.67123,0.38233,0.53236,0.17499,0.42866,0.00041,
1553529040094260992,1.80501,-0.40432,0.23541,-0.37219,0.64898,0.41081,0.52109,0.19064,0.41725,-0.01390,
1553529040174250752,1.82139,-0.36980,0.23544,-0.39072,0.63059,0.43250,0.51248,0.20771,0.39650,0.01657,
1553529040294220800,1.84716,-0.32003,0.24128,-0.41296,0.60786,0.46587,0.49289,0.22093,0.37166,0.08026,
1553529040374200832,1.86342,-0.28888,0.24789,-0.42726,0.59145,0.48514,0.48195,0.19200,0.34814,0.08675,
1553529040494180864,1.88182,-0.25071,0.25681,-0.44699,0.56227,0.51117,0.47196,0.14053,0.28880,0.05360,
1553529040574160896,1.89005,-0.23062,0.25932,-0.45696,0.54859,0.52607,0.46205,0.09002,0.25885,0.01420,
1553529040694130944,1.89278,-0.20398,0.26000,-0.46871,0.53404,0.54910,0.44001,-0.01320,0.22540,0.00117,
1553529040774110720,1.88841,-0.18553,0.25888,-0.47922,0.52258,0.56165,0.42639,-0.08400,0.21412,-0.02214,
1553529040894091008,1.87447,-0.15925,0.25427,-0.49719,0.50498,0.57978,0.40205,-0.14584,0.22132,-0.05559,
1553529040974070784,1.86172,-0.14102,0.24965,0.50742,-0.49234,-0.59192,-0.38699,-0.17636,0.22925,-0.05703,
1553529041094040832,1.83779,-0.11345,0.24418,0.52050,-0.46865,-0.61210,-0.36711,-0.20344,0.23740,-0.04241,
1553529041174030848,1.82200,-0.09681,0.24046,0.53046,-0.45148,-0.62499,-0.35238,-0.19327,0.21853,-0.04903,
1553529041294000896,1.80039,-0.07559,0.23510,0.53908,-0.42639,-0.64549,-0.33307,-0.16986,0.15634,-0.00923,
1553529041373980672,1.78685,-0.06467,0.23591,0.54942,-0.41237,-0.65193,-0.32106,-0.15052,0.13391,0.01779,
1553529041493950720,1.77016,-0.05421,0.23853,0.56418,-0.38508,-0.66666,-0.29830,-0.10268,0.06376,0.02199,
1553529041573940736,1.76161,-0.04899,0.24036,0.57332,-0.36826,-0.67552,-0.28173,-0.07072,0.05889,0.01975,
1553529041693910784,1.75444,-0.04217,0.24191,0.58763,-0.33809,-0.69175,-0.24872,0.00285,0.03228,0.00875,
1553529041773891072,1.75359,-0.03921,0.24254,0.59590,-0.31236,-0.70415,-0.22694,0.04588,0.01087,0.01699,
1553529041893870848,1.76091,-0.03801,0.24524,0.60949,-0.26168,-0.72385,-0.18995,0.10889,-0.01768,0.03280,
1553529041973850880,1.76911,-0.03914,0.24696,0.61712,-0.22274,-0.73504,-0.17108,0.13986,-0.03362,0.02067,
1553529042093820928,1.78377,-0.04629,0.24563,0.62288,-0.17684,-0.74968,-0.13682,0.12498,-0.09977,-0.02539,
1553529042173810944,1.79218,-0.05646,0.24308,0.62044,-0.15030,-0.76099,-0.11559,0.09196,-0.14763,-0.01841,
1553529042293780736,1.80026,-0.07564,0.24127,0.61952,-0.12263,-0.77065,-0.08518,0.02723,-0.16529,-0.00207,
1553529042373761024,1.80025,-0.08975,0.24029,0.62100,-0.10598,-0.77363,-0.06803,-0.03147,-0.18235,-0.01097,
1553529042493740800,1.79201,-0.11296,0.23911,0.62281,-0.08646,-0.77613,-0.04746,-0.13446,-0.20589,-0.00131,
1553529042573720832,1.78128,-0.12992,0.24048,0.62457,-0.07149,-0.77693,-0.03436,-0.16548,-0.22178,0.02458,
1553529042693690880,1.76199,-0.15711,0.24465,0.62978,-0.05295,-0.77472,-0.01973,-0.22100,-0.24545,0.03744,
1553529042773670912,1.74656,-0.17783,0.24764,0.63325,-0.04262,-0.77270,-0.01029,-0.20936,-0.26098,0.02930,
1553529042893650688,1.72569,-0.21200,0.25090,0.63724,-0.03138,-0.77003,0.00194,-0.18652,-0.29273,0.01121,
1553529042973630976,1.71213,-0.23697,0.25163,0.63976,-0.02184,-0.76817,0.01233,-0.16952,-0.30569,0.00804,
1553529043093600768,1.69281,-0.27652,0.25088,0.64073,-0.00089,-0.76705,0.03311,-0.13649,-0.30264,-0.02375,
1553529043173590784,1.68070,-0.30245,0.24942,0.63617,0.01588,-0.77005,0.04537,-0.13487,-0.28790,-0.02094,
1553529043293560832,1.65885,-0.33898,0.24654,0.63073,0.04649,-0.77168,0.06733,-0.17243,-0.28610,-0.02931,
1553529043373540864,1.64099,-0.36336,0.24417,0.62533,0.06555,-0.77316,0.08300,-0.20968,-0.29109,-0.03810,
1553529043493520640,1.60804,-0.40046,0.24085,0.61778,0.09531,-0.77330,0.10616,-0.28565,-0.28266,-0.02040,
1553529043573500928,1.58261,-0.42418,0.24033,0.61572,0.11491,-0.76980,0.12289,-0.33587,-0.27800,0.00408,
1553529043693470720,1.53826,-0.45974,0.24434,0.61470,0.14403,-0.76155,0.14643,-0.37218,-0.29076,0.05916,
1553529043773450752,1.50918,-0.48392,0.25094,0.61195,0.16033,-0.75677,0.16465,-0.37832,-0.28508,0.08988,
1553529043893430784,1.46365,-0.51642,0.25977,0.61239,0.18233,-0.74710,0.18323,-0.38793,-0.25050,0.03977,
1553529043973410816,1.43529,-0.53689,0.26181,0.61155,0.19971,-0.74114,0.19193,-0.34799,-0.24027,0.00807,
1553529044093380608,1.39818,-0.56317,0.26001,0.60258,0.21928,-0.73925,0.20571,-0.30000,-0.22412,-0.03713,
1553529044173370880,1.37393,-0.58075,0.25650,0.59327,0.22810,-0.74354,0.20773,-0.30957,-0.23996,-0.04633,
1553529044293340672,1.33445,-0.61310,0.25061,0.58573,0.23959,-0.74584,0.20795,-0.33850,-0.29207,-0.05462,
1553529044373320704,1.30479,-0.63817,0.24678,0.58341,0.24253,-0.74683,0.20751,-0.37064,-0.32963,-0.05000,
1553529044493300736,1.25367,-0.68242,0.24202,0.58521,0.23453,-0.74945,0.20213,-0.42173,-0.40801,-0.01384,
1553529044573280768,1.21909,-0.71650,0.24298,0.59084,0.22201,-0.75020,0.19703,-0.43722,-0.43499,0.04003,
1553529044693250816,1.16029,-0.77081,0.24978,0.60161,0.19655,-0.75309,0.17968,-0.47120,-0.46164,0.08914,
1553529044773230848,1.12123,-0.80764,0.25730,0.60575,0.18166,-0.75476,0.17437,-0.44256,-0.44316,0.08940,
1553529044893210880,1.06826,-0.85505,0.26626,0.61748,0.15989,-0.75285,0.16239,-0.41454,-0.37783,0.04024,
1553529044973200896,1.03450,-0.87993,0.26688,0.61616,0.15650,-0.75575,0.15714,-0.38717,-0.32108,-0.00462,
1553529045093160960,0.98728,-0.91151,0.26393,0.61283,0.15144,-0.76159,0.14656,-0.41610,-0.26820,-0.03465,
1553529045173150720,0.95198,-0.93234,0.25968,0.60913,0.15082,-0.76608,0.13902,-0.46160,-0.24665,-0.05639,
1553529045293120768,0.89344,-0.95789,0.25367,0.60999,0.14538,-0.76694,0.13631,-0.53990,-0.23593,-0.02232,
1553529045373100800,0.84827,-0.97604,0.25353,0.61750,0.14266,-0.76167,0.13491,-0.59026,-0.21230,0.01556,
1553529045493080832,0.77422,-1.00009,0.25962,0.62200,0.13230,-0.76024,0.13282,-0.59163,-0.20184,0.09213,
1553529045573060864,0.72515,-1.01605,0.26707,0.62485,0.12180,-0.76025,0.12944,-0.57147,-0.14738,0.08375,
1553529045693030912,0.65530,-1.03748,0.27389,0.63326,0.11400,-0.75621,0.11891,-0.51555,-0.10063,0.03156,
1553529045773010688,0.61563,-1.04431,0.27523,0.63298,0.10665,-0.75845,0.11272,-0.47058,-0.08605,0.01472,
1553529045892990720,0.55943,-1.05425,0.27392,0.63060,0.09541,-0.76383,0.09899,-0.46664,-0.08399,-0.03289,
1553529045972970752,0.52387,-1.05888,0.27023,0.62944,0.08731,-0.76692,0.08955,-0.47135,-0.08038,-0.05718,
1553529046092940800,0.46737,-1.06597,0.26258,0.62874,0.07024,-0.77145,0.06796,-0.50852,-0.08970,-0.05541,
1553529046172930816,0.42329,-1.07295,0.25940,0.62875,0.05174,-0.77396,0.05459,-0.54156,-0.10964,-0.03057,
1553529046292900864,0.35008,-1.09187,0.26022,0.63404,0.01672,-0.77246,0.03199,-0.56769,-0.17545,0.03606,
1553529046372880640,0.30191,-1.10544,0.26469,0.63555,-0.00125,-0.77180,0.01987,-0.55948,-0.16641,0.05903,
1553529046492860672,0.23819,-1.12001,0.27218,0.63444,-0.03399,-0.77222,0.00007,-0.51004,-0.10170,0.05150,
1553529046572840704,0.19843,-1.12410,0.27476,0.63561,-0.05235,-0.77014,-0.01241,-0.47281,-0.05190,0.01620,
1553529046692810752,0.14573,-1.12286,0.27310,0.63354,-0.07630,-0.76940,-0.02870,-0.42251,0.05123,-0.03601,
1553529046772790784,0.11357,-1.11631,0.26925,0.62834,-0.08894,-0.77152,-0.04496,-0.42428,0.10015,-0.05164,
1553529046892770816,0.06152,-1.10284,0.26232,0.62170,-0.10221,-0.77398,-0.06324,-0.43725,0.13317,-0.05446,
1553529046972750592,0.02416,-1.09267,0.25821,0.62410,-0.10967,-0.77064,-0.06773,-0.47700,0.13701,-0.04780,
1553529047092720640,-0.03694,-1.07618,0.25555,0.62785,-0.11980,-0.76553,-0.07355,-0.51165,0.16337,0.01958,
1553529047172710656,-0.08031,-1.06272,0.25900,0.63221,-0.12798,-0.76015,-0.07814,-0.56246,0.17895,0.06011,
1553529047292680704,-0.14598,-1.03728,0.26749,0.63444,-0.14482,-0.75376,-0.09147,-0.50918,0.25496,0.06862,
1553529047372660736,-0.18382,-1.01941,0.27193,0.63698,-0.15513,-0.74802,-0.10325,-0.46337,0.25584,0.04096,
1553529047492640768,-0.23343,-0.98947,0.27346,0.63100,-0.17181,-0.74880,-0.10780,-0.38341,0.23709,-0.01084,
1553529047572620544,-0.26309,-0.96767,0.27117,0.62371,-0.18194,-0.75106,-0.11740,-0.38839,0.24782,-0.04278,
1553529047692590592,-0.31120,-0.93180,0.26414,0.60987,-0.19808,-0.75517,-0.13617,-0.44033,0.30624,-0.06345,
1553529047772580608,-0.34682,-0.90138,0.25990,0.60705,-0.21447,-0.75090,-0.14709,-0.45466,0.32101,-0.04184,
1553529047892550656,-0.40029,-0.85857,0.25921,0.60584,-0.24339,-0.73635,-0.17748,-0.43016,0.32853,0.02862,
1553529047972530688,-0.43489,-0.83219,0.26244,0.60935,-0.25889,-0.72441,-0.19207,-0.41557,0.30079,0.03031,
1553529048092510720,-0.47988,-0.79578,0.26452,0.60015,-0.27852,-0.71978,-0.21015,-0.30875,0.32493,-0.00065,
1553529048172490496,-0.50499,-0.76947,0.26340,0.59384,-0.28871,-0.71780,-0.22082,-0.29942,0.31994,-0.03250,
1553529048292460800,-0.53390,-0.72315,0.25696,0.58448,-0.30573,-0.71614,-0.22818,-0.25111,0.39620,-0.05110,
1553529048372450560,-0.54961,-0.68888,0.25176,0.57904,-0.31798,-0.71341,-0.23376,-0.26103,0.45600,-0.05538,
1553529048492420608,-0.57733,-0.62952,0.24507,0.57485,-0.32870,-0.71145,-0.23526,-0.30006,0.54149,-0.03403,
1553529048572400640,-0.60005,-0.58371,0.24379,0.57865,-0.32961,-0.70799,-0.23509,-0.30308,0.60541,0.01369,
1553529048692370688,-0.63920,-0.50746,0.25083,0.59471,-0.32594,-0.69697,-0.23306,-0.31296,0.65024,0.08927,
1553529048772360448,-0.66335,-0.45375,0.25702,0.59661,-0.32796,-0.69385,-0.23466,-0.27214,0.69240,0.06904,
1553529048892330752,-0.69732,-0.37111,0.26284,0.58734,-0.34160,-0.69071,-0.24751,-0.21060,0.64306,0.02583,
1553529048972310784,-0.71092,-0.32059,0.26373,0.57868,-0.35034,-0.68854,-0.26136,-0.14012,0.61581,-0.00476,
1553529049092280576,-0.72171,-0.25300,0.26288,0.56182,-0.37313,-0.68180,-0.28334,-0.06262,0.54731,-0.01210,
1553529049172270848,-0.72451,-0.21282,0.26094,0.54945,-0.39119,-0.67400,-0.30133,-0.06942,0.48616,-0.01661,
1553529049292240640,-0.73179,-0.16125,0.25744,0.54348,-0.41163,-0.65966,-0.31627,-0.11575,0.43593,-0.02972,
1553529049372220672,-0.74448,-0.12102,0.25592,0.54193,-0.42039,-0.65044,-0.32634,-0.14541,0.45884,-0.03505,
1553529049492200704,-0.76141,-0.06735,0.25120,0.53025,-0.43550,-0.63901,-0.34762,-0.17517,0.49757,-0.04884,
1553529049572180736,-0.77672,-0.02236,0.24877,0.52268,-0.44977,-0.62599,-0.36421,-0.16976,0.53178,-0.02989,
1553529049692150528,-0.79598,0.04248,0.24746,0.50889,-0.47697,-0.60381,-0.38592,-0.15374,0.48966,0.00332,
1553529049772140800,-0.80572,0.08254,0.24794,0.50630,-0.49681,-0.58294,-0.39625,-0.08994,0.47555,-0.00998,
1553529049892110592,-0.80658,0.13390,0.24572,-0.49088,0.51869,0.57027,0.40594,-0.00332,0.42072,-0.03442,
1553529049972090624,-0.80198,0.16616,0.24301,-0.47481,0.53077,0.56617,0.41508,0.04604,0.42353,-0.04445,
1553529050092060672,-0.79010,0.22118,0.23598,-0.45351,0.54974,0.55665,0.42691,0.13077,0.48656,-0.07033,
1553529050172050688,-0.77773,0.25745,0.22989,-0.44188,0.56321,0.54754,0.43328,0.16416,0.50969,-0.06206,
1553529050292020480,-0.75754,0.31903,0.22585,-0.42913,0.57509,0.53119,0.45050,0.17858,0.56900,0.00382,
1553529050372000768,-0.74267,0.36507,0.22841,-0.42462,0.57531,0.51863,0.46876,0.20558,0.60749,0.03836,
1553529050491980544,-0.71995,0.44057,0.23430,-0.41729,0.57902,0.50417,0.48623,0.17818,0.62124,0.04165,
1553529050571960576,-0.70561,0.48961,0.23723,-0.41249,0.58187,0.49751,0.49371,0.19648,0.57571,0.03610,
1553529050691930624,-0.68518,0.55337,0.24025,-0.40415,0.58361,0.49528,0.50075,0.15111,0.48928,0.02871,
1553529050771920640,-0.67353,0.59432,0.24209,-0.39951,0.59120,0.49100,0.49978,0.12793,0.45924,0.02074,
1553529050891890432,-0.65759,0.65117,0.24337,-0.39879,0.59778,0.48515,0.49826,0.12076,0.46946,-0.02269,
1553529050971870720,-0.64765,0.68959,0.24045,-0.39399,0.60339,0.48401,0.49641,0.12247,0.50792,-0.04377,
1553529051091850496,-0.63307,0.75823,0.23554,-0.38890,0.61185,0.47947,0.49447,0.12709,0.61014,-0.04307,
1553529051171830528,-0.62271,0.81021,0.23373,-0.38516,0.61642,0.47260,0.49832,0.13089,0.68020,-0.00628,
1553529051291800576,-0.60852,0.90170,0.23667,-0.38304,0.62178,0.45371,0.51070,0.10958,0.75849,0.05979,
1553529051371780608,-0.60111,0.96455,0.24356,-0.38312,0.62557,0.44375,0.51476,0.10947,0.75088,0.08658,
1553529051491760384,-0.58971,1.05209,0.25205,-0.37710,0.63156,0.43434,0.51987,0.11294,0.66785,0.06106,
1553529051571740672,-0.58077,1.10566,0.25505,-0.37648,0.63406,0.42884,0.52185,0.13898,0.60160,0.03052,
1553529051691710720,-0.56218,1.17440,0.25475,-0.37172,0.64231,0.42287,0.52005,0.21083,0.55255,-0.03903,
1553529051771700736,-0.54480,1.21859,0.24964,-0.36515,0.64702,0.42249,0.51917,0.24015,0.56793,-0.06800,
1553529051891670784,-0.51580,1.28760,0.24182,-0.36430,0.64990,0.41971,0.51842,0.27162,0.60812,-0.04644,
1553529051971650560,-0.49453,1.33779,0.23945,-0.36732,0.64410,0.41908,0.52401,0.28293,0.63744,-0.00759,
1553529052091630592,-0.45937,1.41938,0.24238,-0.37625,0.63483,0.42256,0.52618,0.31730,0.64267,0.03061,
1553529052171610624,-0.43390,1.47228,0.24648,-0.37431,0.63552,0.42680,0.52330,0.33052,0.62011,0.06088,
1553529052291580672,-0.39722,1.54540,0.25250,-0.38154,0.62549,0.42873,0.52856,0.27958,0.54517,0.03471,
1553529052371560448,-0.37618,1.58772,0.25367,-0.38029,0.62757,0.43430,0.52242,0.25101,0.50922,0.00012,
1553529052491540736,-0.34684,1.64670,0.25193,-0.38056,0.62933,0.43945,0.51576,0.23227,0.50809,-0.03816,
1553529052571520512,-0.32842,1.68765,0.24799,-0.38452,0.62881,0.44185,0.51138,0.23440,0.52775,-0.06202,
1553529052691490560,-0.29745,1.75348,0.24203,-0.38327,0.63003,0.44105,0.51151,0.25658,0.58151,-0.04183,
1553529052771480576,-0.27642,1.80033,0.24090,-0.38295,0.62794,0.43723,0.51756,0.27831,0.59885,0.00935,
1553529052891450624,-0.23907,1.88001,0.24731,-0.37475,0.63077,0.43066,0.52557,0.28067,0.61245,0.08797,
1553529052971430656,-0.21390,1.93153,0.25439,-0.36916,0.63485,0.42388,0.53010,0.29910,0.56321,0.06742,
1553529053091410688,-0.17777,1.99561,0.26193,-0.37276,0.63575,0.41159,0.53616,0.29018,0.44708,0.02488,
1553529053171390464,-0.15252,2.02909,0.26242,-0.36750,0.64300,0.40677,0.53482,0.31702,0.34383,-0.00196,
1553529053291360512,-0.11027,2.06880,0.26038,-0.35685,0.65510,0.39713,0.53459,0.34817,0.28558,-0.02910,
1553529053371350528,-0.07929,2.09095,0.25705,-0.35261,0.65936,0.39278,0.53538,0.37609,0.24737,-0.04784,
1553529053491320576,-0.03056,2.11838,0.24922,-0.35428,0.65918,0.39256,0.53466,0.41622,0.22135,-0.06768,
1553529053571300608,0.00245,2.13558,0.24541,-0.35664,0.65557,0.39950,0.53239,0.41325,0.23526,-0.01750,
1553529053691270656,0.04997,2.16527,0.24874,-0.36712,0.64198,0.42229,0.52417,0.35758,0.20578,0.09417,
1553529053771260416,0.07748,2.18139,0.25734,-0.37669,0.63423,0.42916,0.52123,0.30726,0.19319,0.11076,
1553529053891230464,0.10661,2.20378,0.26579,-0.39172,0.60950,0.45216,0.52020,0.14634,0.17796,0.03150,
1553529053971210496,0.11331,2.21737,0.26622,-0.40631,0.60001,0.46818,0.50568,0.03499,0.17858,-0.00346,
1553529054091190528,0.10950,2.23678,0.26272,-0.43031,0.58375,0.49350,0.48013,-0.07709,0.16817,-0.03141,
1553529054171170560,0.10158,2.24919,0.26089,-0.44502,0.57108,0.51083,0.46355,-0.13862,0.18210,-0.01681,
1553529054291140608,0.08047,2.26983,0.25909,-0.46625,0.54701,0.53787,0.44055,-0.20542,0.19660,-0.01886,
1553529054371120384,0.06425,2.28529,0.25835,-0.47692,0.53187,0.55530,0.42579,-0.22668,0.21694,-0.00618,
1553529054491100672,0.03739,2.31272,0.26016,-0.49143,0.50415,0.57715,0.41380,-0.25159,0.23798,0.03377,
1553529054571080448,0.01691,2.33107,0.26478,0.50617,-0.48040,-0.58957,-0.40671,-0.27644,0.22679,0.06561,
1553529054691050496,-0.01765,2.35718,0.27304,0.53019,-0.44727,-0.60446,-0.39175,-0.30912,0.20643,0.05148,
1553529054771040512,-0.04292,2.37142,0.27592,0.54539,-0.42985,-0.61441,-0.37454,-0.32094,0.15541,0.02217,
1553529054891010560,-0.08393,2.38620,0.27526,0.56367,-0.40757,-0.62924,-0.34673,-0.30800,0.08961,-0.02603,
1553529054970990336,-0.10950,2.39206,0.27338,0.57266,-0.39264,-0.64004,-0.32899,-0.28219,0.03956,-0.02199,
1553529055090970624,-0.14217,2.39454,0.27264,0.58559,-0.36665,-0.65730,-0.30102,-0.23261,0.00661,0.00565,
1553529055170950400,-0.16115,2.39510,0.27360,0.59525,-0.34651,-0.66733,-0.28335,-0.20881,-0.00885,0.00982,
1553529055290920448,-0.18339,2.39243,0.27529,0.60812,-0.31663,-0.68248,-0.25330,-0.14789,-0.03008,0.01322,
1553529055370910464,-0.19347,2.38957,0.27693,0.61801,-0.29483,-0.69090,-0.23194,-0.10902,-0.02575,0.01240,
1553529055490880512,-0.20328,2.38464,0.27791,0.63094,-0.25543,-0.70614,-0.19504,-0.04671,-0.02645,0.00851,
1553529055570860544,-0.20388,2.38020,0.27810,0.63798,-0.22457,-0.71661,-0.17039,-0.00125,-0.01726,0.00416,
1553529055690830592,-0.19937,2.37494,0.27807,0.64345,-0.17851,-0.73235,-0.13331,0.02329,-0.03042,-0.00467,
1553529055770820608,-0.19282,2.36737,0.27772,0.64577,-0.14688,-0.74149,-0.10770,0.04365,-0.06430,-0.00444,
1553529055890790400,-0.18321,2.35136,0.27607,0.64841,-0.09896,-0.75167,-0.06898,0.05443,-0.12693,-0.02618,
1553529055970770688,-0.17832,2.33617,0.27412,0.64950,-0.06797,-0.75619,-0.04135,0.03994,-0.18273,-0.03327,
1553529056090750464,-0.17597,2.30726,0.27018,0.64431,-0.02189,-0.76445,0.00062,-0.00144,-0.26257,-0.02346,
1553529056170730496,-0.17762,2.28188,0.26883,0.64194,0.00568,-0.76622,0.02816,-0.03215,-0.31490,-0.00586,
1553529056290700544,-0.18414,2.24052,0.26659,0.64044,0.04483,-0.76420,0.06187,-0.09063,-0.34905,-0.02322,
1553529056370690560,-0.19122,2.20834,0.26456,0.63843,0.07067,-0.76222,0.08028,-0.11816,-0.40528,-0.01825,
1553529056490660352,-0.20505,2.15454,0.26374,0.63448,0.10786,-0.75732,0.11072,-0.13891,-0.44648,0.00586,
1553529056570640640,-0.21607,2.11662,0.26457,0.63344,0.12881,-0.75236,0.12700,-0.15655,-0.47261,0.01812,
1553529056690610432,-0.23419,2.05848,0.26844,0.63047,0.15137,-0.74622,0.15085,-0.13700,-0.48030,0.03712,
1553529056770600448,-0.24350,2.01829,0.27133,0.62875,0.16596,-0.74104,0.16729,-0.10713,-0.48548,0.02467,
1553529056890570496,-0.25393,1.96013,0.27365,0.62424,0.19133,-0.73224,0.19373,-0.07301,-0.45233,0.00660,
1553529056970550528,-0.25924,1.92308,0.27391,0.61567,0.21341,-0.72804,0.21300,-0.05571,-0.42112,-0.00308,
1553529057090530304,-0.26864,1.86997,0.27082,0.59993,0.24928,-0.72089,0.24135,-0.08370,-0.41271,-0.03781,
1553529057170510592,-0.27735,1.83416,0.26729,0.58767,0.27373,-0.71525,0.26100,-0.11906,-0.41484,-0.03940,
1553529057290480384,-0.29824,1.78194,0.26359,0.57244,0.30954,-0.70157,0.29035,-0.20222,-0.42166,-0.01847,
1553529057370470400,-0.31630,1.74551,0.26335,0.56416,0.33395,-0.68830,0.31056,-0.23703,-0.41670,0.01714,
1553529057490440448,-0.34608,1.69329,0.26809,0.55152,0.37435,-0.66406,0.33868,-0.25314,-0.41212,0.05632,
1553529057570420480,-0.36643,1.65965,0.27436,0.53959,0.39587,-0.65240,0.35567,-0.26125,-0.39345,0.08490,
1553529057690400256,-0.39439,1.61521,0.28188,0.52812,0.41977,-0.63248,0.38060,-0.21034,-0.35504,0.03024,
1553529057770380544,-0.40763,1.58846,0.28271,0.51714,0.43332,-0.62278,0.39617,-0.15319,-0.33024,-0.00574,
1553529057890350336,-0.41932,1.55143,0.27903,-0.49473,-0.45752,0.61351,-0.41173,-0.08615,-0.33673,-0.05002,
1553529057970330368,-0.42449,1.52529,0.27375,-0.48142,-0.47320,0.60847,-0.41722,-0.07237,-0.36863,-0.07770,
1553529058090310400,-0.43174,1.47672,0.26227,-0.46311,-0.49379,0.60246,-0.42278,-0.05686,-0.45808,-0.09426,
1553529058170290432,-0.43836,1.43605,0.25450,-0.45693,-0.50116,0.60003,-0.42429,-0.07479,-0.55088,-0.08516,
1553529058290260480,-0.45283,1.35983,0.25018,-0.46306,-0.49863,0.59626,-0.42594,-0.10790,-0.68320,0.01490,
1553529058370250496,-0.46332,1.30303,0.25439,-0.47496,-0.48967,0.59471,-0.42539,-0.13857,-0.72707,0.08899,
1553529058490220544,-0.48087,1.21772,0.26610,-0.48589,-0.47468,0.60137,-0.42065,-0.10980,-0.64579,0.09925,
1553529058570200320,-0.49050,1.16810,0.27199,-0.48953,-0.46493,0.60620,-0.42039,-0.08950,-0.58456,0.05054,
1553529058690180608,-0.50214,1.10555,0.27489,-0.48743,-0.46356,0.61023,-0.41851,-0.06376,-0.48069,0.00034,
1553529058770160384,-0.50654,1.06889,0.27218,-0.48322,-0.46334,0.61087,-0.42267,-0.04062,-0.48945,-0.05608,
1553529058890130432,-0.51093,1.01066,0.26188,-0.46905,-0.47771,0.60827,-0.42637,-0.04626,-0.50713,-0.08840,
1553529058970110464,-0.51444,0.96843,0.25606,-0.46027,-0.48977,0.60137,-0.43201,-0.05826,-0.55801,-0.05465,
1553529059090090496,-0.52393,0.89762,0.25401,-0.44987,-0.50521,0.58273,-0.45033,-0.11894,-0.60922,0.03063,
1553529059170070528,-0.53355,0.84455,0.25945,-0.44250,-0.51423,0.56794,-0.46605,-0.11611,-0.65433,0.09984,
1553529059290040576,-0.55201,0.76220,0.27644,-0.42799,-0.52670,0.55547,-0.48048,-0.21663,-0.64069,0.15557,
1553529059370030336,-0.56928,0.70387,0.28681,-0.43212,-0.52543,0.54483,-0.49026,-0.21124,-0.57416,0.09141,
1553529059490000384,-0.58965,0.64156,0.28994,-0.42179,-0.53433,0.53695,-0.49826,-0.09691,-0.45063,-0.01685,
1553529059569980416,-0.59483,0.61093,0.28813,0.40713,0.54448,-0.53870,0.49758,-0.06575,-0.42251,-0.02381,
1553529059689960448,-0.59865,0.56184,0.28244,0.39056,0.55256,-0.54046,0.50004,-0.02915,-0.44870,-0.06804,
1553529059769940480,-0.59810,0.52864,0.27682,0.38133,0.55581,-0.54115,0.50281,0.01092,-0.47587,-0.07167,
1553529059889910528,-0.59493,0.46759,0.27139,0.37570,0.56087,-0.53326,0.50981,0.03759,-0.53798,-0.01471,
1553529059969890304,-0.58972,0.42215,0.27222,0.37923,0.56328,-0.52383,0.51430,0.04788,-0.57498,0.03376,
1553529060089870336,-0.58617,0.35002,0.27809,0.37816,0.56488,-0.51710,0.52011,0.00573,-0.58005,0.05572,
1553529060169850368,-0.58926,0.30190,0.28221,0.37873,0.56087,-0.51929,0.52185,-0.04049,-0.56267,0.04447,
1553529060289820416,-0.59483,0.23776,0.28434,0.38480,0.55862,-0.51537,0.52371,-0.05970,-0.46388,-0.00221,
1553529060369810432,-0.60340,0.20245,0.28286,0.38447,0.56419,-0.51337,0.51993,-0.06403,-0.42458,-0.03078,
1553529060489780480,-0.61055,0.15019,0.27736,0.38068,0.57184,-0.51372,0.51398,-0.04771,-0.47911,-0.04263,
1553529060569760256,-0.61408,0.10973,0.27429,0.37506,0.57894,-0.50944,0.51442,-0.05188,-0.53107,-0.02239,
1553529060689740544,-0.61788,0.04144,0.27283,0.37205,0.58798,-0.49166,0.52358,-0.06084,-0.62410,-0.00381,
1553529060769720320,-0.62330,-0.00987,0.27431,0.37160,0.59861,-0.47434,0.52781,-0.06692,-0.66268,0.03488,
1553529060889690368,-0.63053,-0.08955,0.28102,0.35757,0.62208,-0.44669,0.53444,-0.08799,-0.63676,0.07862,
1553529060969670400,-0.63457,-0.14203,0.28572,0.35154,0.63127,-0.43590,0.53657,-0.09415,-0.58320,0.04359,
1553529061089650432,-0.63877,-0.20798,0.28667,0.33706,0.64453,-0.42297,0.54043,0.00072,-0.48011,-0.00084,
1553529061169630208,-0.63658,-0.24614,0.28644,0.32220,0.65013,-0.42115,0.54419,0.05572,-0.48211,-0.01218,
1553529061289600256,-0.62316,-0.30492,0.28264,0.30786,0.65878,-0.41231,0.54884,0.15029,-0.47819,-0.04107,
1553529061369590272,-0.60990,-0.34480,0.28011,0.30058,0.66168,-0.40692,0.55340,0.21957,-0.50398,-0.04362,
1553529061489560320,-0.57902,-0.40802,0.27709,0.29721,0.66218,-0.39781,0.56119,0.31873,-0.55110,-0.00914,
1553529061569540352,-0.55160,-0.45351,0.27725,0.29857,0.66093,-0.38950,0.56773,0.36162,-0.57629,0.02274,
1553529061689520384,-0.50691,-0.51872,0.28403,0.29709,0.66082,-0.37876,0.57584,0.38554,-0.56793,0.07920,
1553529061769500160,-0.47619,-0.56326,0.29100,0.29464,0.65735,-0.38201,0.57891,0.38520,-0.54593,0.08506,
1553529061889470464,-0.42943,-0.62523,0.29889,0.29001,0.65750,-0.37387,0.58636,0.35125,-0.45791,0.04131,
1553529061969460224,-0.40091,-0.66454,0.30109,0.28226,0.66245,-0.36748,0.58860,0.32680,-0.40802,0.01490,
1553529062089430272,-0.35949,-0.71073,0.29971,0.27137,0.67441,-0.35429,0.58822,0.35489,-0.36499,-0.03225,
1553529062169410304,-0.33005,-0.73809,0.29785,0.25926,0.68305,-0.34189,0.59105,0.38418,-0.35518,-0.03236,
1553529062289380352,-0.28038,-0.77643,0.29258,0.23818,0.69679,-0.31318,0.59973,0.44674,-0.33720,-0.04844,
1553529062369370112,-0.24072,-0.79707,0.28855,0.22536,0.70779,-0.28890,0.60398,0.45501,-0.34833,-0.04848,
1553529062489340416,-0.18501,-0.83519,0.28735,0.20710,0.71706,-0.25923,0.61297,0.41743,-0.33569,0.00832,
1553529062569320448,-0.14837,-0.85852,0.28903,0.18865,0.72419,-0.24119,0.61789,0.38160,-0.31820,0.02803,
1553529062689300224,-0.09877,-0.89342,0.29201,0.15865,0.73123,-0.21341,0.62816,0.34735,-0.25120,0.01891,
1553529062769280512,-0.06885,-0.91053,0.29309,0.14279,0.74153,-0.19324,0.62642,0.34684,-0.21174,0.02826,
1553529062889250304,-0.02533,-0.93281,0.29429,0.11900,0.74903,-0.18101,0.62612,0.39821,-0.20668,-0.00628,
1553529062969230336,0.00677,-0.94487,0.29179,0.10437,0.75239,-0.17474,0.62648,0.43974,-0.18657,-0.03810,
1553529063089210368,0.06540,-0.96574,0.28585,0.09067,0.75211,-0.17136,0.62988,0.53402,-0.18867,-0.06935,
1553529063169190400,0.11288,-0.98028,0.28081,0.08641,0.75197,-0.16689,0.63184,0.60857,-0.17531,-0.05641,
1553529063289160192,0.19529,-1.00180,0.27700,0.08273,0.74763,-0.16007,0.63921,0.69613,-0.18084,-0.00727,
1553529063369150464,0.25239,-1.01437,0.27791,0.07966,0.74439,-0.15552,0.64448,0.73479,-0.14119,0.02202,
1553529063489120256,0.34093,-1.03044,0.28232,0.07019,0.74926,-0.14748,0.64182,0.69815,-0.08593,0.04409,
1553529063569100288,0.39516,-1.03652,0.28566,0.06195,0.75158,-0.13656,0.64237,0.65896,-0.07120,0.04688,
1553529063689080320,0.47094,-1.04422,0.29014,0.04453,0.75653,-0.12194,0.64094,0.62405,-0.03203,0.02129,
1553529063769060352,0.52073,-1.04674,0.29018,0.03020,0.75892,-0.10736,0.64156,0.63662,-0.00259,-0.00889,
1553529063889030144,0.59742,-1.04644,0.28536,0.00216,0.75970,-0.08116,0.64519,0.67190,0.01125,-0.07342,
1553529063969020416,0.65254,-1.04440,0.28100,-0.01866,0.75968,-0.05789,0.64744,0.70868,0.03333,-0.04378,
1553529064088990208,0.73992,-1.04140,0.28031,-0.04902,0.75922,-0.02210,0.64860,0.71924,0.01601,0.04002,
1553529064168970240,0.79907,-1.03872,0.28568,-0.06984,0.76023,-0.00004,0.64589,0.74194,0.02352,0.07261,
1553529064288940288,0.88766,-1.03480,0.29708,-0.08588,0.75681,0.02836,0.64735,0.66332,0.04541,0.08531,
1553529064368930304,0.94363,-1.02652,0.30265,-0.10100,0.75554,0.04911,0.64540,0.61129,0.09523,0.04193,
1553529064488900096,1.01342,-1.00931,0.30486,-0.12156,0.75441,0.06993,0.64125,0.57965,0.16547,-0.02587,
1553529064568880384,1.05680,-0.99379,0.30157,-0.13349,0.75350,0.08535,0.63807,0.58072,0.19781,-0.07748,
1553529064688860160,1.12733,-0.96437,0.29069,-0.14867,0.75272,0.10259,0.63307,0.61852,0.27584,-0.09802,
1553529064768840192,1.17636,-0.93845,0.28470,-0.15817,0.75261,0.11561,0.62864,0.65486,0.32398,-0.05073,
1553529064888810240,1.25937,-0.89452,0.28689,-0.17142,0.74761,0.12906,0.62852,0.71092,0.37804,0.06633,
1553529064968800256,1.31443,-0.86327,0.29450,-0.17923,0.74421,0.13649,0.62880,0.66489,0.37500,0.09983,
1553529065088770048,1.38764,-0.81938,0.30763,-0.19289,0.73697,0.14739,0.63083,0.57180,0.34347,0.09387,
1553529065168750336,1.43110,-0.79062,0.31385,-0.20471,0.73423,0.15641,0.62812,0.51417,0.34997,0.05366,
1553529065288720384,1.48616,-0.74625,0.31601,-0.22237,0.72877,0.17641,0.62316,0.47639,0.39048,-0.01953,
1553529065368710400,1.52182,-0.71313,0.31359,-0.23780,0.72397,0.19120,0.61867,0.47779,0.41342,-0.05198,
1553529065488680448,1.57748,-0.65960,0.30656,-0.26555,0.71318,0.21884,0.61071,0.46154,0.43838,-0.05438,
1553529065568660224,1.61404,-0.62364,0.30396,-0.28341,0.70362,0.24150,0.60521,0.47461,0.40978,-0.00189,
1553529065688640256,1.67077,-0.57095,0.30768,-0.30650,0.69828,0.26777,0.58887,0.45439,0.40679,0.06898,
1553529065768620288,1.70458,-0.53767,0.31382,-0.32062,0.68822,0.28468,0.58524,0.37824,0.36655,0.07970,
1553529065888590336,1.74600,-0.49341,0.32021,-0.33526,0.67834,0.30791,0.57675,0.31477,0.33618,0.03108,
1553529065968580352,1.76784,-0.46503,0.32097,-0.34416,0.67366,0.32219,0.56914,0.27467,0.35021,-0.00566,
1553529066088550400,1.79585,-0.42283,0.31704,-0.35737,0.66729,0.33862,0.55889,0.24003,0.37987,-0.05944,
1553529066168530176,1.81438,-0.39081,0.31100,-0.36313,0.66445,0.34769,0.55295,0.25490,0.41130,-0.09282,
1553529066288500224,1.84467,-0.33621,0.30121,-0.37082,0.65828,0.36072,0.54684,0.24596,0.47897,-0.06822,
1553529066368490240,1.86510,-0.29487,0.29781,-0.37503,0.65134,0.37319,0.54391,0.24340,0.51693,-0.01519,
1553529066488460288,1.89121,-0.22994,0.30021,-0.38736,0.63942,0.39501,0.53391,0.18997,0.52056,0.04841,
1553529066568440320,1.90670,-0.18999,0.30403,-0.39704,0.63172,0.40457,0.52878,0.15650,0.49670,0.05346,
1553529066688420352,1.92078,-0.13347,0.31099,-0.41908,0.61420,0.42004,0.52029,0.08689,0.40800,0.05650,
1553529066768400128,1.92578,-0.10406,0.31390,-0.43225,0.60543,0.43291,0.50912,0.05904,0.34376,0.02204,
1553529066888370176,1.92990,-0.06231,0.31513,-0.45190,0.59411,0.45422,0.48633,0.01093,0.34792,-0.00027,
1553529066968360192,1.92983,-0.03378,0.31538,-0.46969,0.58032,0.47216,0.46870,0.00286,0.32405,-0.00950,
1553529067088330240,1.93048,0.00597,0.31494,-0.49843,0.55303,0.50250,0.43956,0.02171,0.31072,-0.00278,
1553529067168310272,1.93316,0.03050,0.31645,0.51685,-0.52716,-0.52612,-0.42209,0.05253,0.27327,0.02884,
1553529067288290304,1.94027,0.06155,0.31990,0.54084,-0.48461,-0.56633,-0.38976,0.09098,0.20514,0.03195,
1553529067368270080,1.94714,0.07866,0.32348,0.55204,-0.46478,-0.58835,-0.36479,0.09197,0.18264,0.04862,
1553529067488240128,1.95730,0.09815,0.32754,0.56819,-0.43222,-0.61248,-0.33943,0.06125,0.11937,0.01118,
1553529067568220160,1.95997,0.10546,0.32767,0.57908,-0.40957,-0.62838,-0.31947,0.01288,0.04514,0.00155,
1553529067688200192,1.95677,0.10276,0.32718,0.59638,-0.37987,-0.64878,-0.28126,-0.06163,-0.06456,-0.01081,
1553529067768180224,1.95011,0.09492,0.32589,0.60606,-0.36313,-0.66133,-0.25193,-0.11481,-0.11800,-0.02488,
1553529067888150272,1.93194,0.07689,0.32159,0.61734,-0.33147,-0.68272,-0.20714,-0.16490,-0.20348,-0.04684,
1553529067968140032,1.91822,0.05849,0.31809,0.62134,-0.30692,-0.69764,-0.18177,-0.17384,-0.26092,-0.04110,
1553529068088110336,1.89620,0.02145,0.31430,0.62552,-0.26922,-0.71756,-0.14613,-0.19677,-0.34477,-0.01721,
1553529068168090112,1.88019,-0.00915,0.31302,0.62866,-0.24543,-0.72745,-0.12400,-0.21336,-0.39617,-0.00503,
1553529068288070144,1.85561,-0.06188,0.31270,0.63222,-0.20953,-0.73939,-0.09844,-0.21207,-0.44951,0.00054,
1553529068368050176,1.83736,-0.09957,0.31270,0.63453,-0.18775,-0.74478,-0.08618,-0.23537,-0.46581,0.00029,
1553529068488020224,1.80713,-0.16045,0.31293,0.63882,-0.15916,-0.74928,-0.07183,-0.25454,-0.51476,0.00238,
1553529068568000000,1.78580,-0.20565,0.31304,0.64034,-0.14471,-0.75178,-0.06201,-0.26877,-0.53526,-0.00797,
1553529068687980288,1.75174,-0.27687,0.31244,0.64253,-0.12459,-0.75493,-0.04149,-0.27716,-0.57144,-0.00786,
1553529068767960064,1.72844,-0.32743,0.31208,0.64700,-0.10584,-0.75477,-0.02238,-0.27217,-0.59570,-0.02132,
1553529068887930112,1.69879,-0.40224,0.30939,0.64728,-0.06572,-0.75925,0.01576,-0.21231,-0.55189,-0.03838,
1553529068967920128,1.68161,-0.44809,0.30560,0.64167,-0.03593,-0.76532,0.03536,-0.23330,-0.51589,-0.06865,
1553529069087890176,1.64999,-0.51019,0.29656,0.63205,0.00261,-0.77209,0.06623,-0.29510,-0.46122,-0.08580,
1553529069167869952,1.62426,-0.54834,0.29067,0.62584,0.02520,-0.77466,0.08713,-0.35465,-0.43034,-0.07845,
1553529069287850240,1.57473,-0.60049,0.28261,0.61785,0.05600,-0.77595,0.11415,-0.48629,-0.39389,-0.04385,
1553529069367830272,1.53134,-0.63030,0.28226,0.62140,0.07233,-0.77029,0.12362,-0.56011,-0.33564,0.03752,
1553529069487800064,1.46011,-0.67013,0.29194,0.62716,0.08264,-0.76278,0.13420,-0.61344,-0.30230,0.10457,
1553529069567780352,1.41034,-0.69350,0.30291,0.62971,0.08203,-0.76032,0.13653,-0.61485,-0.26063,0.13075,
1553529069687760128,1.34129,-0.72342,0.31463,0.64049,0.08507,-0.74985,0.14234,-0.50949,-0.23281,0.03319,
1553529069767740160,1.30257,-0.73911,0.31561,0.63501,0.08698,-0.75405,0.14354,-0.46247,-0.18559,-0.00795,
1553529069887710208,1.24803,-0.75488,0.31349,0.62999,0.08495,-0.75972,0.13682,-0.48474,-0.16995,-0.03636,
1553529069967700224,1.20757,-0.76837,0.30913,0.62728,0.07793,-0.76439,0.12711,-0.53268,-0.15546,-0.07283,
1553529070087670016,1.13552,-0.78182,0.30059,0.62498,0.05004,-0.77150,0.10809,-0.63929,-0.14030,-0.06164,
1553529070167650304,1.07809,-0.78797,0.29728,0.62896,0.02313,-0.77190,0.08965,-0.70810,-0.11814,-0.02036,
1553529070287630080,0.98659,-0.79571,0.29883,0.64182,-0.02822,-0.76473,0.04953,-0.74323,-0.06378,0.04041,
1553529070367610112,0.92112,-0.79751,0.30280,0.63887,-0.06205,-0.76646,0.02306,-0.67292,-0.01523,0.07301,
1553529070487580160,0.84431,-0.78482,0.31188,0.63952,-0.11823,-0.75934,-0.02112,-0.51520,0.12448,0.07564,
1553529070567560192,0.80433,-0.76733,0.31704,0.63808,-0.14773,-0.75415,-0.04782,-0.41833,0.20723,0.05153,
1553529070687539968,0.75959,-0.72962,0.32044,0.63294,-0.18811,-0.74468,-0.09725,-0.34096,0.30699,0.00037,
1553529070767520256,0.74071,-0.69604,0.31918,0.62916,-0.21312,-0.73744,-0.12214,-0.29312,0.36909,-0.02683,
1553529070887490048,0.70876,-0.64331,0.31735,0.62491,-0.25439,-0.72062,-0.15963,-0.28916,0.43792,-0.01130,
1553529070967480064,0.68367,-0.60423,0.31751,0.62310,-0.27941,-0.70726,-0.18289,-0.29643,0.49247,0.02006,
1553529071087450112,0.64305,-0.54226,0.32275,0.62136,-0.32119,-0.68386,-0.20758,-0.33955,0.50613,0.06803,
1553529071167430144,0.61547,-0.50119,0.32833,0.61613,-0.34220,-0.67392,-0.22163,-0.32377,0.48030,0.08436,
1553529071287409920,0.58181,-0.44274,0.33762,0.61312,-0.36294,-0.65855,-0.24221,-0.25738,0.42170,0.07109,
1553529071367390208,0.56957,-0.40781,0.34251,0.60568,-0.36746,-0.65613,-0.26004,-0.17764,0.39007,0.06170,
1553529071487360000,0.55791,-0.35270,0.34630,0.59208,-0.38860,-0.64433,-0.28859,-0.09673,0.42471,-0.01029,
1553529071567350272,0.55342,-0.31556,0.34354,0.57906,-0.40688,-0.63660,-0.30640,-0.07836,0.42199,-0.04040,
1553529071687320064,0.54381,-0.26070,0.33691,0.56289,-0.43632,-0.62156,-0.32626,-0.09032,0.44947,-0.05059,
1553529071767300096,0.53598,-0.22211,0.33160,0.55504,-0.45362,-0.60887,-0.33975,-0.10948,0.47136,-0.05510,
1553529071887270144,0.52137,-0.16404,0.32574,0.54066,-0.47593,-0.58886,-0.36663,-0.12922,0.45313,-0.02551,
1553529071967260160,0.50864,-0.12762,0.32435,0.52783,-0.48766,-0.58031,-0.38317,-0.16863,0.42434,0.00682,
1553529072087230208,0.48865,-0.08261,0.32581,0.51386,-0.50064,-0.57308,-0.39609,-0.14692,0.33017,0.03221,
1553529072167209984,0.47792,-0.06064,0.32858,0.51454,-0.50839,-0.56655,-0.39472,-0.14859,0.24782,0.04945,
1553529072287190272,0.46469,-0.03917,0.33349,0.52222,-0.50820,-0.56179,-0.39168,-0.10285,0.15008,0.03056,
1553529072367170048,0.45826,-0.02941,0.33555,0.53280,-0.50294,-0.56090,-0.38545,-0.05281,0.08164,0.00998,
1553529072487140096,0.45213,-0.02478,0.33625,0.54545,-0.49278,-0.56003,-0.38212,-0.08402,0.07911,-0.00338,
1553529072567130112,0.44234,-0.01898,0.33481,0.54694,-0.48154,-0.57099,-0.37809,-0.10744,0.07860,-0.01437,
1553529072687100160,0.42261,-0.01201,0.33466,0.55069,-0.47384,-0.58249,-0.36458,-0.18800,0.13465,0.00674,
1553529072767080192,0.40263,-0.00306,0.33495,0.55523,-0.46624,-0.58881,-0.35727,-0.21247,0.18792,-0.00847,
1553529072887060224,0.36700,0.01695,0.33456,0.56791,-0.45602,-0.59111,-0.34656,-0.31497,0.25182,-0.00575,
1553529072967040000,0.33127,0.03409,0.33421,0.57415,-0.44548,-0.59560,-0.34230,-0.43276,0.32703,0.00233,
1553529073087010048,0.26243,0.07380,0.33249,0.58361,-0.42614,-0.60283,-0.33823,-0.61348,0.42819,-0.05377,
1553529073166990080,0.20629,0.10420,0.32936,0.59057,-0.41620,-0.60143,-0.34100,-0.70759,0.44625,-0.03893,
1553529073286970112,0.11652,0.15170,0.33358,0.60813,-0.39674,-0.59928,-0.33712,-0.75991,0.36451,0.06259,
1553529073366950144,0.05869,0.17840,0.34013,0.61159,-0.39120,-0.60069,-0.33480,-0.68007,0.33874,0.06158,
1553529073486920192,-0.01951,0.21598,0.34578,0.61381,-0.39737,-0.59928,-0.32587,-0.59188,0.25115,0.03146,
1553529073566909952,-0.06534,0.23412,0.34598,0.61302,-0.39843,-0.60275,-0.31960,-0.51562,0.19826,-0.02986,
1553529073686880000,-0.12205,0.25418,0.34071,0.61597,-0.40000,-0.60846,-0.30061,-0.39245,0.09839,-0.03261,
1553529073766860032,-0.15206,0.26055,0.34021,0.61673,-0.39234,-0.61631,-0.29304,-0.31898,0.01597,0.02892,
1553529073886830080,-0.19174,0.25721,0.34985,0.63353,-0.37503,-0.61737,-0.27721,-0.25580,-0.09187,0.11302,
1553529073966820096,-0.21360,0.25322,0.35892,0.64192,-0.36306,-0.62031,-0.26710,-0.17683,-0.08185,0.10790,
1553529074086790144,-0.22971,0.24448,0.37225,0.65560,-0.35231,-0.62087,-0.24613,-0.02949,-0.12062,0.07273,
1553529074166769920,-0.23340,0.23521,0.37471,0.67216,-0.32936,-0.62215,-0.22946,0.00473,-0.14814,-0.00092,
1553529074286749952,-0.23210,0.21919,0.36219,0.69106,-0.31195,-0.61888,-0.20522,-0.02674,-0.10959,-0.21324,
1553529074366729984,-0.22770,0.20962,0.34170,0.69832,-0.30644,-0.61849,-0.18950,-0.01621,-0.10854,-0.30005,
1553529074486700032,-0.22449,0.19206,0.30209,0.70079,-0.30892,-0.61172,-0.19813,-0.06728,-0.13890,-0.34591,
1553529074566690048,-0.22136,0.17904,0.27355,0.69386,-0.30568,-0.61711,-0.21047,-0.04873,-0.15349,-0.35829,
1553529074686660096,-0.22684,0.16163,0.23222,0.66516,-0.32084,-0.64050,-0.21067,-0.05044,-0.12780,-0.34724,
1553529074766639872,-0.22114,0.15080,0.20947,0.65144,-0.32594,-0.64730,-0.22449,0.03496,-0.09451,-0.25907,
1553529074886609920,-0.21493,0.13638,0.18466,0.63911,-0.33104,-0.64624,-0.25362,0.04980,-0.15586,-0.13631,
1553529074966599936,-0.20741,0.12379,0.17790,0.64011,-0.33807,-0.63463,-0.27058,0.02420,-0.14617,-0.08258,
1553529075086569984,-0.20218,0.10990,0.16859,0.62914,-0.34430,-0.63915,-0.27772,-0.01794,-0.13406,-0.07990,
1553529075166550016,-0.19683,0.10079,0.16317,0.62944,-0.33709,-0.64303,-0.27693,-0.01939,-0.12001,-0.05818,
1553529075286530048,-0.19637,0.09325,0.15804,0.62962,-0.33876,-0.63929,-0.28307,-0.04296,-0.07071,-0.04870,
1553529075366509824,-0.19912,0.08628,0.15482,0.64590,-0.33322,-0.62851,-0.27704,-0.04700,-0.07895,-0.05897,
1553529075486479872,-0.20354,0.07861,0.14683,0.65526,-0.31656,-0.62586,-0.28058,0.01641,-0.04808,-0.07628,
1553529075566469888,-0.19842,0.08287,0.14081,0.65982,-0.31169,-0.62347,-0.28068,0.02922,0.01824,-0.10074,
1553529075686439936,-0.19054,0.08755,0.13111,0.65014,-0.31349,-0.63756,-0.26936,0.04296,0.01493,-0.08857,
1553529075766419968,-0.18890,0.08827,0.12434,0.64436,-0.31248,-0.64686,-0.26215,0.04292,0.01085,-0.07615,
1553529075886400000,-0.18257,0.08574,0.11993,0.64169,-0.29917,-0.66255,-0.24445,0.10036,-0.04630,-0.02742,
1553529075966379776,-0.17412,0.08036,0.12154,0.66094,-0.28276,-0.65585,-0.23038,0.06186,-0.02059,-0.01450,
1553529076086350080,-0.17000,0.08005,0.12154,0.66517,-0.28986,-0.64718,-0.23386,0.02598,0.01923,0.02472,
1553529076166330112,-0.16894,0.07598,0.12387,0.66697,-0.30096,-0.63582,-0.24557,0.01959,-0.07075,0.05255,
1553529076286309888,-0.16673,0.06443,0.13011,0.68558,-0.29566,-0.61786,-0.24662,0.00595,-0.07238,0.06846,
1553529076366290176,-0.16533,0.05783,0.13614,0.69511,-0.29219,-0.60889,-0.24635,-0.00911,-0.06816,0.06387,
1553529076486259968,-0.16817,0.05297,0.14202,0.69154,-0.29953,-0.60757,-0.25081,-0.04465,-0.05024,0.05679,
1553529076566249984,-0.16912,0.04986,0.14516,0.69182,-0.29621,-0.60830,-0.25223,-0.04309,-0.03847,0.05816,
1553529076686220032,-0.17321,0.04490,0.15200,0.68338,-0.30221,-0.60947,-0.26499,0.00840,-0.05875,0.04863,
1553529076766200064,-0.17280,0.04257,0.15473,0.68747,-0.30149,-0.60298,-0.27000,-0.01586,0.00541,0.01584,
1553529076886179840,-0.17250,0.04815,0.15557,0.67978,-0.30648,-0.60514,-0.27888,-0.02212,0.05970,-0.01735,
1553529076966160128,-0.17593,0.05348,0.15449,0.68087,-0.30813,-0.60286,-0.27933,-0.06335,0.06697,-0.02949,
1553529077086129920,-0.18099,0.06034,0.15216,0.68632,-0.29823,-0.60299,-0.27647,-0.05285,0.05202,-0.04348,
1553529077166109952,-0.18416,0.06505,0.14781,0.68771,-0.29307,-0.60546,-0.27310,-0.00769,0.07251,-0.05418,
1553529077286089984,-0.18123,0.07254,0.13952,0.69493,-0.28201,-0.60682,-0.26329,0.00042,0.06620,-0.06577,
1553529077366070016,-0.18167,0.07808,0.13373,0.68931,-0.28400,-0.61317,-0.26119,-0.02723,0.06262,-0.05374,
1553529077486039808,-0.18231,0.08086,0.12838,0.68191,-0.28137,-0.62482,-0.25577,-0.00309,0.01425,-0.02829,
1553529077566030080,-0.18198,0.08096,0.12766,0.68014,-0.28065,-0.62516,-0.26041,0.00774,0.00419,-0.00926,
1553529077685999872,-0.17824,0.07931,0.12924,0.68318,-0.26988,-0.62338,-0.26802,0.02815,-0.01536,0.02972,
1553529077765979904,-0.17704,0.07929,0.13196,0.68180,-0.26702,-0.62267,-0.27592,0.00311,0.00545,0.03327,
1553529077885959936,-0.17493,0.07980,0.13478,0.68048,-0.26449,-0.62410,-0.27837,0.00412,0.02437,0.02595,
1553529077965939968,-0.17599,0.08062,0.13729,0.68316,-0.25965,-0.62302,-0.27877,-0.00797,0.02304,0.03756,
1553529078085909760,-0.17989,0.08357,0.14027,0.67727,-0.25475,-0.63036,-0.28118,-0.02830,0.01862,0.01937,
1553529078165890048,-0.18046,0.08369,0.14144,0.67955,-0.25123,-0.63026,-0.27905,-0.00653,-0.00710,0.00890,
1553529078285869824,-0.18069,0.08241,0.14180,0.68468,-0.24632,-0.62808,-0.27576,-0.01207,0.00272,-0.01008,
1553529078365849856,-0.18014,0.08076,0.14083,0.68455,-0.24632,-0.62881,-0.27442,-0.00685,0.00907,-0.02255,
1553529078485819904,-0.18042,0.08270,0.13806,0.68286,-0.24993,-0.62971,-0.27333,0.00868,0.00515,-0.01734,
1553529078565809920,-0.17872,0.08345,0.13785,0.68197,-0.25288,-0.62895,-0.27456,0.00532,0.00053,0.00437,
1553529078685779712,-0.17765,0.08337,0.13705,0.68319,-0.25196,-0.62751,-0.27568,0.00070,0.01707,-0.01812,
1553529078765760000,-0.17749,0.08417,0.13572,0.68307,-0.25084,-0.62857,-0.27459,0.00056,0.02272,-0.01856,
