1403636861751666432,0.07386,0.02167,0.28639,-0.48802,0.48290,0.65371,0.31829,
1403636861951666688,0.06124,0.01634,0.17093,-0.47219,0.49016,0.66927,0.29809,
1403636862051666432,0.05466,0.01106,0.11458,-0.46194,0.49751,0.67761,0.28274,
1403636862151666432,0.04894,0.00609,0.06848,-0.45745,0.50158,0.68237,0.27115,
1403636862351666432,0.04822,0.00175,0.04539,-0.44074,0.50067,0.69437,0.27006,
1403636862551666432,0.05040,0.00923,0.13640,-0.44784,0.49380,0.69333,0.27368,
1403636862651666432,0.05271,0.01639,0.20261,-0.45370,0.48793,0.68853,0.28636,
1403636862751666432,0.05539,0.02356,0.27007,-0.46128,0.48799,0.68051,0.29324,
1403636862951666688,0.05932,0.03084,0.39407,-0.46977,0.49994,0.66330,0.29902,
1403636863551666432,0.04949,0.02536,0.17546,-0.45710,0.49788,0.66484,0.31807,
1403636863651666432,0.04838,0.01660,0.11055,-0.45445,0.50393,0.67049,0.29996,
1403636863751666432,0.04697,0.01244,0.06012,-0.44904,0.51166,0.67436,0.28602,
1403636863951666688,0.05049,0.00869,0.05073,-0.43696,0.51667,0.68364,0.27342,
1403636864051666432,0.05398,0.00937,0.09788,-0.43997,0.51302,0.68411,0.27426,
1403636864151666432,0.05969,0.01111,0.16582,-0.44119,0.50699,0.68341,0.28507,
1403636864251666432,0.06265,0.01479,0.23914,-0.44223,0.50510,0.68000,0.29480,
1403636864451666688,0.06235,0.02039,0.36276,-0.45505,0.50472,0.66822,0.30275,
1403636864551666432,0.05973,0.02297,0.40385,-0.47203,0.50441,0.65310,0.31020,
1403636865051666432,0.05248,0.02308,0.22856,-0.45099,0.50425,0.66315,0.32028,
1403636865251666432,0.04909,0.02015,0.11978,-0.45327,0.52017,0.66337,0.28966,
1403636865551666432,0.04592,0.01975,0.07589,-0.43822,0.51985,0.67613,0.28385,
1403636865751666432,0.03957,0.02146,0.16681,-0.44175,0.51541,0.67830,0.28127,
1403636865851666432,0.03923,0.02423,0.23256,-0.45445,0.51144,0.67053,0.28687,
1403636865951666688,0.04074,0.02682,0.30172,-0.47068,0.50678,0.65876,0.29609,
1403636866051666432,0.04249,0.02796,0.36842,-0.48909,0.50075,0.64358,0.30958,
1403636866151666432,0.04379,0.02742,0.42246,0.50123,-0.49403,-0.63139,-0.32564,
1403636866551666432,0.04190,0.02413,0.36103,-0.47377,0.49931,0.64276,0.33629,
1403636866751666432,0.04917,0.02321,0.25540,-0.45316,0.50807,0.65369,0.33047,
1403636866951666688,0.05411,0.01078,0.18650,-0.45033,0.51219,0.66675,0.30052,
1403636867151666432,0.05768,-0.00308,0.15649,-0.43794,0.52024,0.67563,0.28475,
1403636867351666432,0.06081,-0.02261,0.15503,-0.44018,0.51475,0.68586,0.26622,
1403636867551666432,0.06410,-0.03685,0.16481,-0.41521,0.52075,0.70007,0.25754,
1403636867651666432,0.06643,-0.04650,0.16287,-0.38134,0.53352,0.71669,0.23726,
1403636867751666432,0.06888,-0.05774,0.15710,-0.33223,0.55706,0.73225,0.20763,
1403636867851666432,0.07170,-0.06557,0.15250,-0.28804,0.57953,0.73961,0.18481,
1403636868651666432,0.05405,-0.10538,0.17591,-0.31005,0.58625,0.72188,0.19766,
1403636869151666432,0.03829,-0.12794,0.18259,-0.31323,0.57638,0.72946,0.19381,
1403636869751666432,0.07195,-0.10607,0.17603,-0.30700,0.57781,0.73167,0.19120,
1403636869851666432,0.10085,-0.08975,0.17562,-0.30604,0.58226,0.72767,0.19444,
1403636869951666688,0.13633,-0.06921,0.17557,-0.30874,0.58747,0.72050,0.20108,
1403636870051666432,0.17711,-0.04593,0.17454,-0.30816,0.59372,0.71450,0.20498,
1403636870151666432,0.22189,-0.02136,0.17315,-0.30048,0.60120,0.71108,0.20651,
1403636870251666432,0.26803,0.00367,0.17335,-0.29404,0.60494,0.70983,0.20915,
1403636870351666432,0.31333,0.02804,0.17413,-0.29558,0.60795,0.70457,0.21589,
1403636870451666688,0.35736,0.05134,0.17296,-0.29517,0.60925,0.70062,0.22544,
1403636870551666432,0.39381,0.06802,0.16885,-0.29236,0.61729,0.69558,0.22282,
1403636870651666432,0.42595,0.08074,0.16472,-0.28029,0.62311,0.69436,0.22588,
1403636870851666432,0.46304,0.09928,0.15830,-0.28984,0.62658,0.68386,0.23606,
1403636871451666688,0.42498,0.08056,0.15602,-0.28364,0.63103,0.68225,0.23641,
1403636871551666432,0.39080,0.06811,0.15854,-0.28520,0.62918,0.68380,0.23497,
1403636871651666432,0.34833,0.05194,0.16180,-0.28596,0.62822,0.68582,0.23070,
1403636871751666432,0.29904,0.03451,0.16527,-0.29082,0.62582,0.68865,0.22257,
1403636871851666432,0.24721,0.01706,0.16736,-0.29332,0.62090,0.69304,0.21942,
1403636871951666688,0.19179,0.00074,0.16788,-0.29983,0.61549,0.69577,0.21720,
1403636872051666432,0.13375,-0.01464,0.16647,-0.31153,0.60940,0.69717,0.21337,
1403636872151666432,0.07898,-0.02927,0.16331,-0.31871,0.60289,0.70034,0.21087,
1403636872251666432,0.02968,-0.04427,0.15870,-0.31915,0.59804,0.70578,0.20581,
1403636872351666432,-0.01230,-0.05919,0.15317,-0.31644,0.59353,0.71326,0.19711,
1403636872451666688,-0.04301,-0.06952,0.14887,-0.31476,0.59027,0.71833,0.19107,
1403636872951666688,-0.00350,-0.05586,0.15263,-0.31472,0.58797,0.71838,0.19795,
1403636873051666432,0.03982,-0.03894,0.15059,-0.31146,0.59235,0.71502,0.20217,
1403636873151666432,0.08999,-0.01913,0.14887,-0.30882,0.59738,0.71131,0.20447,
1403636873251666432,0.14490,0.00274,0.14786,-0.30484,0.60414,0.70667,0.20667,
1403636873351666432,0.20224,0.02485,0.14714,-0.30098,0.61073,0.70179,0.20954,
1403636873451666688,0.25866,0.04563,0.14502,-0.29787,0.61669,0.69737,0.21131,
1403636873551666432,0.31207,0.06323,0.14186,-0.29135,0.62237,0.69435,0.21367,
1403636873651666432,0.35893,0.07695,0.13722,-0.28346,0.62815,0.69139,0.21691,
1403636873751666432,0.39595,0.08695,0.13142,-0.27947,0.63273,0.68908,0.21613,
1403636873951666688,0.43233,0.09426,0.12435,-0.27804,0.63565,0.68658,0.21738,
1403636874351666432,0.38974,0.08078,0.12636,-0.27576,0.63337,0.69069,0.21387,
1403636874451666688,0.34990,0.07153,0.12767,-0.27943,0.62926,0.69453,0.20874,
1403636874551666432,0.30176,0.06024,0.12955,-0.28423,0.62433,0.69688,0.20925,
1403636874651666432,0.24608,0.04500,0.13032,-0.28989,0.61863,0.70005,0.20781,
1403636874751666432,0.18702,0.02849,0.12891,-0.29486,0.61289,0.70400,0.20446,
1403636874851666432,0.13016,0.01321,0.12467,-0.29905,0.60941,0.70701,0.19830,
1403636874951666688,0.07948,-0.00003,0.11981,-0.30239,0.60676,0.70988,0.19098,
1403636875051666432,0.03978,-0.00855,0.11674,-0.30871,0.60457,0.70837,0.19342,
1403636875251666432,-0.01316,-0.01653,0.11098,-0.32367,0.62017,0.67818,0.22519,
1403636875551666432,-0.04522,-0.07344,0.10170,-0.32116,0.67012,0.63181,0.22049,
1403636875751666432,-0.00841,-0.14008,0.10086,-0.31361,0.68922,0.61376,0.22344,
1403636875851666432,0.02401,-0.17294,0.09909,-0.30499,0.70041,0.60228,0.23166,
1403636875951666688,0.06336,-0.20226,0.09974,-0.29305,0.71488,0.58822,0.23888,
1403636876051666432,0.11008,-0.22402,0.10384,-0.28179,0.72902,0.57014,0.25311,
1403636876151666432,0.16147,-0.23415,0.10953,-0.27243,0.74092,0.55042,0.27177,
1403636876251666432,0.21270,-0.23065,0.11237,-0.26388,0.75156,0.53353,0.28437,
1403636876351666432,0.26479,-0.21029,0.11236,-0.25403,0.76128,0.52269,0.28759,
1403636876451666688,0.31709,-0.17607,0.11103,-0.24331,0.76792,0.51599,0.29129,
1403636876551666432,0.36547,-0.13536,0.11248,-0.23813,0.76610,0.51401,0.30360,
1403636876651666432,0.40410,-0.07851,0.11605,-0.24126,0.75651,0.51906,0.31633,
1403636876751666432,0.42490,-0.01313,0.11951,-0.25034,0.74407,0.53014,0.32039,
1403636876851666432,0.42547,0.04857,0.12278,-0.25944,0.72747,0.54803,0.32114,
1403636876951666688,0.40551,0.10596,0.12306,-0.27398,0.70713,0.56845,0.31901,
1403636877051666432,0.36620,0.15558,0.12106,-0.29256,0.68314,0.59246,0.31100,
1403636877151666432,0.31122,0.19459,0.11825,-0.31145,0.65542,0.62046,0.29743,
1403636877251666432,0.24458,0.21948,0.11582,-0.32943,0.62810,0.64743,0.27893,
1403636877351666432,0.17382,0.22677,0.11422,-0.34387,0.60133,0.67225,0.26122,
1403636877451666688,0.10270,0.21516,0.11301,-0.35441,0.57631,0.69514,0.24297,
1403636877551666432,0.03959,0.18892,0.10920,-0.36058,0.55879,0.71289,0.22252,
1403636877651666432,-0.01274,0.14814,0.10494,-0.36098,0.54925,0.72565,0.20360,
1403636877751666432,-0.04748,0.10157,0.10089,-0.36028,0.54776,0.73146,0.18739,
1403636877851666432,-0.06701,0.04587,0.09864,-0.35508,0.55413,0.73124,0.17928,
1403636877951666688,-0.07132,-0.00751,0.09345,-0.34449,0.56597,0.72760,0.17776,
1403636878051666432,-0.06008,-0.05904,0.08831,-0.33228,0.58098,0.72005,0.18322,
1403636878151666432,-0.03497,-0.10143,0.08282,-0.32189,0.60023,0.70570,0.19519,
1403636878251666432,0.00306,-0.13433,0.07830,-0.31500,0.61899,0.68861,0.20843,
1403636878351666432,0.05138,-0.15792,0.07452,-0.31182,0.63868,0.66880,0.21811,
1403636878451666688,0.10735,-0.16900,0.07256,-0.30487,0.65811,0.64906,0.22951,
1403636878551666432,0.16934,-0.16766,0.07633,-0.29503,0.67493,0.63104,0.24334,
1403636878651666432,0.22880,-0.15052,0.08395,-0.28484,0.68819,0.61511,0.25863,
1403636878751666432,0.28496,-0.12113,0.09333,-0.27565,0.69584,0.60314,0.27574,
1403636878851666432,0.33512,-0.08418,0.10184,-0.27227,0.70008,0.59414,0.28766,
1403636878951666688,0.37594,-0.04324,0.10769,-0.27116,0.70307,0.59007,0.28979,
1403636879051666432,0.40646,-0.00129,0.11316,-0.27095,0.70429,0.58943,0.28832,
1403636879151666432,0.42099,0.04794,0.11995,-0.27931,0.70054,0.58842,0.29153,
1403636879251666432,0.42112,0.09744,0.12783,-0.29093,0.69104,0.58997,0.29960,
1403636879351666432,0.40508,0.13965,0.13569,-0.30327,0.67719,0.59740,0.30423,
1403636879451666688,0.37422,0.17228,0.14215,-0.31647,0.65878,0.61227,0.30162,
1403636879551666432,0.33212,0.19247,0.14689,-0.32812,0.63833,0.63202,0.29226,
1403636879651666432,0.27948,0.19847,0.15249,-0.33974,0.62175,0.64865,0.27797,
1403636879751666432,0.22158,0.19003,0.15860,-0.35046,0.60831,0.66239,0.26148,
1403636879851666432,0.16572,0.16748,0.16166,-0.35528,0.59763,0.67547,0.24569,
1403636879951666688,0.12015,0.13369,0.16207,-0.35390,0.59174,0.68582,0.23293,
1403636880051666432,0.09106,0.09081,0.16259,-0.35089,0.58881,0.69287,0.22384,
1403636880351666432,0.12145,-0.03993,0.16959,-0.33639,0.61104,0.67265,0.24702,
1403636880451666688,0.15027,-0.08114,0.17477,-0.32708,0.62617,0.65573,0.26635,
1403636880551666432,0.17168,-0.12619,0.18294,-0.31684,0.64018,0.64063,0.28174,
1403636880651666432,0.17923,-0.17273,0.19093,-0.30568,0.65161,0.63186,0.28760,
1403636880851666432,0.14968,-0.25622,0.20120,-0.29705,0.66181,0.63038,0.27638,
1403636880951666688,0.11739,-0.27949,0.20307,-0.30619,0.65504,0.63524,0.27135,
1403636881051666432,0.08046,-0.28691,0.20451,-0.31957,0.64207,0.64122,0.27287,
1403636881151666432,0.04141,-0.28110,0.20511,-0.33524,0.62465,0.65085,0.27171,
1403636881251666432,0.00496,-0.26334,0.20581,-0.35175,0.60576,0.66363,0.26254,
1403636881351666432,-0.02191,-0.23503,0.20828,-0.36232,0.58766,0.67712,0.25474,
1403636881451666688,-0.03626,-0.19453,0.21056,-0.36684,0.57321,0.68751,0.25336,
1403636881551666432,-0.03633,-0.14431,0.21170,-0.36954,0.56044,0.69438,0.25921,
1403636881851666432,0.03999,0.02371,0.20038,-0.36295,0.54601,0.70434,0.27210,
1403636881951666688,0.08186,0.06732,0.19290,-0.35857,0.55526,0.69898,0.27301,
1403636882051666432,0.12647,0.10068,0.18214,-0.35666,0.56522,0.69101,0.27536,
1403636882151666432,0.17138,0.11910,0.16738,-0.35543,0.57320,0.68312,0.28009,
1403636882251666432,0.20764,0.11672,0.15469,-0.35402,0.57879,0.67547,0.28882,
1403636882651666432,0.21232,0.06412,0.09851,-0.38722,0.56209,0.67316,0.28455,
1403636882751666432,0.18973,0.07271,0.08746,-0.41528,0.54290,0.67101,0.28731,
1403636882851666432,0.16748,0.08792,0.07118,-0.44598,0.51712,0.67057,0.28988,
1403636882951666688,0.14562,0.10525,0.05004,-0.46785,0.49498,0.67421,0.28558,
1403636883051666432,0.12521,0.11978,0.02576,-0.47831,0.47798,0.68439,0.27271,
1403636883251666432,0.09238,0.14569,-0.01906,-0.49024,0.44862,0.69568,0.27284,
1403636883551666432,0.06715,0.16711,-0.05724,0.51269,-0.42575,-0.69457,-0.27102,
1403636883951666688,0.06045,0.17842,-0.07418,0.52772,-0.40582,-0.69861,-0.26222,
1403636897751666432,0.12640,0.13983,-0.06558,-0.48786,0.40940,0.72079,0.27359,
1403636898251666432,0.16014,0.14322,0.01234,-0.49512,0.39703,0.72186,0.27594,
1403636898651666432,0.14417,0.17281,0.08851,-0.49767,0.38876,0.72722,0.26895,
1403636899051666432,0.12202,0.22057,0.15311,0.50361,-0.39497,-0.72498,-0.25453,
1403636899251666432,0.11225,0.26310,0.17671,0.50628,-0.41035,-0.70762,-0.27307,
1403636899351666432,0.11335,0.28555,0.18546,0.50637,-0.42275,-0.69349,-0.28972,
1403636899451666688,0.11670,0.30893,0.19506,0.50177,-0.43873,-0.68014,-0.30521,
1403636899651666432,0.13145,0.34498,0.20691,-0.48670,0.47302,0.66700,0.30737,
1403636899951666688,0.16532,0.41859,0.22071,-0.47133,0.48358,0.66278,0.32361,
1403636900251666432,0.20810,0.49470,0.23700,-0.47882,0.47372,0.65688,0.33888,
1403636900851666432,0.30582,0.62751,0.33965,-0.46461,0.47861,0.67703,0.31095,
1403636901451666688,0.44836,0.84123,0.33770,-0.47609,0.47617,0.66918,0.31432,
1403636901851666432,0.58354,1.02875,0.34389,-0.47575,0.47178,0.66826,0.32329,
1403636902451666688,0.79867,1.28832,0.28230,-0.47511,0.47346,0.66742,0.32352,
1403636902751666432,0.90791,1.41228,0.20581,-0.46780,0.47242,0.66679,0.33670,
1403636903551666432,1.14977,1.68254,0.28535,-0.46911,0.46614,0.67361,0.32999,
1403636904251666432,1.32739,1.92837,0.36531,-0.47950,0.47764,0.66657,0.31243,
1403636904651666432,1.46344,2.10681,0.44486,-0.47462,0.47494,0.66689,0.32315,
1403636904951666688,1.57763,2.24312,0.47285,-0.46687,0.47339,0.66885,0.33252,
1403636905351666432,1.71606,2.41299,0.49458,-0.45953,0.47651,0.66821,0.33951,
1403636906151666432,1.83691,2.74532,0.52116,-0.45718,0.46420,0.68753,0.32063,
1403636906451666688,1.83739,2.88822,0.52352,-0.47916,0.46391,0.67362,0.31850,
1403636907051666432,1.86361,3.17973,0.52563,-0.46986,0.45830,0.68202,0.32255,
1403636907651666432,1.86060,3.49732,0.54008,-0.47183,0.46884,0.68429,0.29885,
1403636907951666688,1.86738,3.70249,0.58855,-0.47697,0.46668,0.68115,0.30123,
1403636908151666432,1.87870,3.85279,0.58591,-0.47813,0.45461,0.68284,0.31377,
1403636908551666432,1.90549,4.14703,0.58092,-0.47932,0.44742,0.68810,0.31077,
1403636909051666432,1.92205,4.51567,0.61976,-0.47501,0.45152,0.69493,0.29592,
1403636909451666688,1.92342,4.85980,0.65803,-0.47599,0.45251,0.69220,0.29922,
1403636909751666432,1.92904,5.14120,0.63322,-0.48577,0.45232,0.68284,0.30523,
1403636909951666688,1.93790,5.32301,0.58826,-0.47999,0.43499,0.68571,0.33195,
1403636910351666432,1.93062,5.63278,0.50391,-0.47943,0.44471,0.68759,0.31561,
1403636910851666432,1.89156,5.97112,0.47624,-0.47883,0.44418,0.69106,0.30961,
1403636911151666432,1.86671,6.17000,0.43720,-0.49771,0.44087,0.67848,0.31239,
1403636911951666688,1.83074,6.61592,0.47478,-0.48415,0.45565,0.68541,0.29698,
1403636912951666688,1.86307,7.22955,0.38611,-0.48882,0.45780,0.67780,0.30342,
1403636913651666432,2.01142,7.64392,0.30261,-0.48375,0.45389,0.68087,0.31046,
1403636914251666432,2.18158,7.97591,0.28982,-0.48520,0.45376,0.67892,0.31265,
1403636914651666432,2.30458,8.18624,0.29878,-0.48073,0.44887,0.68127,0.32138,
1403636915251666432,2.46206,8.44740,0.33029,-0.46817,0.45632,0.68660,0.31806,
1403636915851666432,2.56009,8.73806,0.31192,-0.48893,0.46201,0.67285,0.30784,
1403636916151666432,2.63085,8.88549,0.36052,-0.47963,0.45021,0.68053,0.32272,
1403636916551666432,2.72757,9.06464,0.41153,-0.47132,0.45691,0.67677,0.33327,
1403636916751666432,2.76834,9.15203,0.41777,-0.46206,0.47369,0.66458,0.34706,
1403636917051666432,2.81270,9.26356,0.39014,-0.45632,0.48673,0.65446,0.35573,
1403636917351666432,2.84235,9.35613,0.32033,-0.45187,0.50464,0.63953,0.36354,
1403636917551666432,2.86208,9.41332,0.25373,-0.43758,0.52862,0.61869,0.38249,
1403636917751666432,2.87636,9.46278,0.20623,-0.43051,0.54445,0.60306,0.39314,
1403636918151666432,2.88817,9.52730,0.17647,-0.41600,0.55610,0.59444,0.40539,
1403636918951666688,2.79162,9.65752,0.29899,-0.43314,0.56794,0.58677,0.38149,
1403636919351666432,2.78368,9.74946,0.46757,-0.43510,0.58102,0.56518,0.39200,
1403636919651666432,2.83575,9.79211,0.55480,-0.41479,0.57490,0.56912,0.41659,
1403636920751666432,3.08468,9.69303,0.50904,-0.40307,0.57550,0.58024,0.41189,
1403636921751666432,3.23711,9.46847,0.53349,-0.40492,0.59485,0.57489,0.38947,
1403636922151666432,3.31695,9.39590,0.45408,-0.40011,0.58603,0.56879,0.41589,
1403636922451666688,3.36986,9.35048,0.42754,-0.38109,0.59965,0.56823,0.41510,
1403636922751666432,3.40894,9.33054,0.38395,-0.37457,0.61058,0.54610,0.43435,
1403636923151666432,3.44095,9.30484,0.35070,-0.39147,0.62384,0.51287,0.44106,
1403636923351666432,3.46979,9.27212,0.31953,-0.36497,0.63848,0.51030,0.44580,
1403636923551666432,3.49493,9.24146,0.27359,-0.34151,0.65499,0.51249,0.43786,
1403636924651666432,3.63727,9.50388,0.24517,-0.36817,0.65404,0.49484,0.43797,
1403636925151666432,3.78958,9.70512,0.19696,-0.36397,0.65459,0.48218,0.45447,
1403636925351666432,3.86924,9.75805,0.13550,-0.33369,0.66137,0.49293,0.45636,
1403636925551666432,3.94572,9.82259,0.07132,-0.31528,0.67357,0.49880,0.44508,
1403636926051666432,4.11626,10.11966,0.04993,-0.32794,0.66109,0.48727,0.46689,
1403636926251666432,4.17198,10.26682,0.04599,-0.35266,0.65477,0.47155,0.47386,
1403636926951666688,4.37907,10.61168,-0.03798,-0.34645,0.67484,0.46266,0.45881,
1403636927151666432,4.46099,10.68274,-0.04257,-0.32968,0.69317,0.43515,0.47061,
1403636927251666432,4.50567,10.71207,-0.05649,-0.31712,0.70285,0.41884,0.47959,
1403636927351666432,4.55197,10.73594,-0.07594,-0.30178,0.71177,0.40614,0.48720,
1403636927551666432,4.64643,10.78623,-0.12499,-0.26724,0.73230,0.40081,0.48133,
1403636927851666432,4.80151,10.90134,-0.16161,-0.25126,0.74344,0.39429,0.47823,
1403636928251666432,5.04094,11.13830,-0.19171,-0.26796,0.72895,0.38445,0.49902,
1403636928551666432,5.22275,11.32833,-0.24862,-0.27969,0.71693,0.38063,0.51274,
1403636929151666432,5.54986,11.68039,-0.19983,-0.28799,0.71665,0.37771,0.51070,
1403636929851666432,5.91489,11.97611,-0.10819,-0.27765,0.71270,0.39104,0.51191,
1403636930651666432,6.25867,12.16629,-0.00669,-0.28250,0.71404,0.38767,0.50995,
1403636931151666432,6.46367,12.18795,-0.02696,-0.29035,0.72596,0.35624,0.51163,
1403636931351666432,6.55659,12.16184,-0.02263,-0.27312,0.71916,0.35286,0.53263,
1403636931551666432,6.63272,12.11430,0.00508,-0.25169,0.71648,0.35946,0.54230,
1403636932151666432,6.72370,11.93749,0.01924,-0.25701,0.72966,0.34990,0.52832,
1403636932451666688,6.71914,11.83263,0.00804,-0.24073,0.71820,0.35401,0.54856,
1403636932651666432,6.68228,11.75195,0.03717,-0.23243,0.73070,0.33424,0.54803,
1403636932851666432,6.62239,11.66042,0.09350,-0.22392,0.74203,0.30963,0.55080,
1403636933151666432,6.50246,11.51696,0.13422,-0.20466,0.75788,0.28712,0.54890,
1403636933351666432,6.41098,11.42657,0.11144,-0.18917,0.78156,0.28321,0.52266,
1403636933951666688,6.19932,11.22791,0.07903,-0.20247,0.76507,0.27315,0.54687,
1403636934151666432,6.13194,11.16182,0.08665,-0.18888,0.77293,0.24987,0.55179,
1403636934251666432,6.09891,11.12650,0.07174,-0.17480,0.77833,0.23209,0.55658,
1403636934351666432,6.06243,11.08848,0.04975,-0.16191,0.78384,0.20980,0.56158,
1403636934451666688,6.02517,11.04981,0.02869,-0.15261,0.79186,0.18261,0.56243,
1403636934551666432,5.98836,11.00809,0.01618,-0.13983,0.79784,0.15690,0.56505,
1403636934651666432,5.95254,10.96278,0.01188,-0.12448,0.80236,0.13412,0.56809,
1403636934751666432,5.91553,10.91372,0.01757,-0.10727,0.80853,0.12059,0.56588,
1403636934951666688,5.84217,10.81206,0.05249,-0.08242,0.81751,0.11115,0.55905,
1403636935351666432,5.72031,10.62833,0.18475,-0.09278,0.80755,0.10751,0.57245,
1403636935951666688,5.55370,10.33086,0.20020,-0.09665,0.82059,0.12166,0.54999,
1403636936551666432,5.53067,10.04580,0.12364,-0.09280,0.81146,0.12033,0.56431,
1403636937051666432,5.58135,9.84415,0.10759,-0.08057,0.81076,0.11886,0.56750,
1403636937751666432,5.64657,9.60848,0.10226,-0.07049,0.81061,0.11678,0.56948,
1403636938151666432,5.65736,9.51751,-0.01057,-0.06229,0.79256,0.11041,0.59647,
1403636938451666688,5.60269,9.46798,-0.08693,-0.09721,0.80212,0.06785,0.58528,
1403636938851666432,5.49473,9.31814,-0.10181,-0.08873,0.81431,0.06261,0.57019,
1403636939251666432,5.39730,9.08875,-0.10898,-0.06836,0.81425,0.07927,0.57100,
1403636939951666688,5.20778,8.66153,-0.12867,-0.07877,0.80132,0.08261,0.58725,
1403636940151666432,5.11690,8.52055,-0.15281,-0.07225,0.80720,0.06756,0.58193,
1403636940451666688,4.97548,8.29542,-0.21842,-0.06552,0.81010,0.05229,0.58027,
1403636940651666432,4.87494,8.13143,-0.25436,-0.05906,0.81740,0.04870,0.57096,
1403636940851666432,4.78104,7.96406,-0.25788,-0.04952,0.82449,0.05214,0.56129,
1403636941251666432,4.63408,7.64534,-0.18716,-0.04733,0.81802,0.05597,0.57050,
1403636941751666432,4.47195,7.27085,-0.14239,-0.05223,0.81298,0.06898,0.57582,
1403636942251666432,4.30035,6.92175,-0.08206,-0.06400,0.81502,0.06497,0.57221,
1403636942651666432,4.16708,6.63251,-0.08929,-0.06847,0.82009,0.05348,0.56560,
1403636942951666688,4.08167,6.39383,-0.11596,-0.05419,0.81860,0.05796,0.56885,
1403636943251666432,4.00813,6.15924,-0.08961,-0.05058,0.81312,0.05514,0.57727,
1403636943551666432,3.92785,5.93507,-0.09754,-0.04401,0.81125,0.05218,0.58070,
1403636943851666432,3.83149,5.72114,-0.15609,-0.04091,0.81064,0.05277,0.58172,
1403636944051666432,3.76212,5.59032,-0.22144,-0.05042,0.82631,0.06742,0.55689,
1403636944251666432,3.70586,5.46842,-0.27135,-0.05569,0.83682,0.08002,0.53873,
1403636944551666432,3.67681,5.31417,-0.28125,-0.05524,0.81711,0.09241,0.56634,
1403636945051666432,3.62790,5.14451,-0.20357,-0.07006,0.80558,0.10741,0.57844,
1403636945751666432,3.45224,5.01128,-0.20568,-0.06561,0.82232,0.10846,0.55473,
1403636946851666432,3.22907,5.04025,-0.55155,-0.08765,0.81579,0.06923,0.56746,
1403636947251666432,3.15239,5.00759,-0.68935,-0.07771,0.82868,0.07357,0.54940,
1403636947451666688,3.14270,4.96405,-0.72987,-0.05584,0.84076,0.08777,0.53132,
1403636947751666432,3.19323,4.91427,-0.72859,-0.05772,0.82806,0.08489,0.55115,
1403636948551666432,3.47055,4.93726,-0.85921,-0.03125,0.81936,0.11963,0.55979,
1403636948851666432,3.59334,5.06463,-0.90945,-0.04743,0.81041,0.11629,0.57224,
1403636949051666432,3.66063,5.18636,-0.91826,-0.08044,0.80646,0.09778,0.57758,
1403636949451666688,3.76230,5.40886,-0.98500,-0.08516,0.80475,0.10028,0.57885,
1403636949851666432,3.81902,5.58558,-1.04963,-0.08769,0.81663,0.09978,0.56167,
1403636950551666432,3.99264,5.82420,-1.07596,-0.06413,0.81385,0.11271,0.56642,
1403636950951666688,4.11594,5.98893,-1.08846,-0.07505,0.80757,0.10871,0.57478,
1403636951351666432,4.20361,6.15702,-1.03797,-0.08277,0.82198,0.10361,0.55386,
1403636951951666688,4.41793,6.40135,-1.04985,-0.06385,0.81487,0.11493,0.56454,
1403636952251666432,4.54909,6.55445,-1.05414,-0.07036,0.80901,0.11015,0.57308,
1403636952951666688,4.77221,6.90852,-1.17715,-0.07687,0.81539,0.10685,0.56376,
1403636953851666432,5.06993,7.27994,-1.30547,-0.06113,0.81782,0.12420,0.55857,
1403636954351666432,5.28549,7.56033,-1.24928,-0.07223,0.81942,0.11799,0.55624,
1403636954851666432,5.54671,7.91574,-1.22524,-0.06541,0.81492,0.10666,0.56590,
1403636955451666688,5.83873,8.37292,-1.32520,-0.04919,0.81238,0.08749,0.57443,
1403636955951666688,6.03931,8.79677,-1.37066,-0.05174,0.81499,0.07398,0.57240,
1403636956251666432,6.14193,9.03610,-1.33789,-0.07416,0.81601,0.05234,0.57087,
1403636956651666432,6.26257,9.29638,-1.36021,-0.06311,0.80675,0.07678,0.58247,
1403636956751666432,6.29037,9.35985,-1.37831,-0.08574,0.80556,0.08384,0.58025,
1403636956851666432,6.31072,9.41733,-1.39164,-0.10766,0.80561,0.09906,0.57410,
1403636956951666688,6.33269,9.47664,-1.39836,-0.12159,0.80356,0.12450,0.56922,
1403636957051666432,6.34900,9.52688,-1.39475,-0.13149,0.79836,0.15549,0.56670,
1403636957151666432,6.36423,9.57598,-1.38219,-0.14114,0.79262,0.18673,0.56300,
1403636957251666432,6.37413,9.62007,-1.36199,-0.15209,0.78721,0.21099,0.55915,
1403636957451666688,6.39244,9.70063,-1.33867,-0.17002,0.78116,0.23779,0.55167,
1403636957651666432,6.40755,9.77889,-1.34831,-0.18568,0.77708,0.25030,0.54683,
1403636957851666432,6.41864,9.85269,-1.38268,-0.21335,0.76885,0.27803,0.53484,
1403636957951666688,6.42281,9.88881,-1.40304,-0.23133,0.76042,0.30171,0.52651,
1403636958051666432,6.42629,9.92176,-1.41873,-0.25092,0.75026,0.32713,0.51685,
1403636958151666432,6.43183,9.95164,-1.42641,-0.26502,0.73950,0.35221,0.50878,
1403636958251666432,6.44336,9.98251,-1.42385,-0.27804,0.73052,0.37139,0.50110,
1403636958451666688,6.46237,10.02893,-1.39407,-0.29242,0.71374,0.40433,0.49151,
1403636960251666432,6.61102,10.51158,-1.52263,-0.27625,0.71025,0.40973,0.50136,
1403636960651666432,6.58378,10.66578,-1.55596,-0.27878,0.69209,0.42348,0.51376,
1403636960851666432,6.54236,10.74665,-1.59878,-0.30007,0.69455,0.42575,0.49629,
1403636960951666688,6.51475,10.78127,-1.62090,-0.31104,0.68887,0.43790,0.48677,
1403636961051666432,6.48519,10.81683,-1.63682,-0.32388,0.67667,0.45558,0.47923,
1403636961151666432,6.45307,10.85058,-1.64482,-0.33913,0.66370,0.47353,0.46931,
1403636961251666432,6.42024,10.88072,-1.64593,-0.35326,0.65034,0.49252,0.45791,
1403636961351666432,6.38885,10.90992,-1.63795,-0.36333,0.63631,0.50994,0.45063,
1403636961551666432,6.32869,10.96187,-1.60070,-0.37925,0.61828,0.53150,0.43750,
1403636961751666432,6.26393,11.00442,-1.53455,-0.39671,0.59838,0.55247,0.42349,
1403636961951666688,6.20258,11.04622,-1.47380,-0.41277,0.57396,0.57731,0.40854,
1403636962051666432,6.16961,11.06454,-1.45257,-0.42075,0.56151,0.59093,0.39810,
1403636962151666432,6.13645,11.08215,-1.43432,-0.42934,0.54743,0.60458,0.38791,
1403636962251666432,6.10251,11.09994,-1.41127,-0.43946,0.53135,0.61720,0.37894,
1403636962351666432,6.06877,11.11495,-1.38341,-0.44863,0.51526,0.63067,0.36810,
1403636962451666688,6.03310,11.12879,-1.34946,-0.45742,0.49769,0.64422,0.35785,
1403636962551666432,5.99659,11.14089,-1.30987,-0.46307,0.47728,0.65959,0.35030,
1403636962651666432,5.95830,11.15055,-1.27022,-0.46737,0.45645,0.67463,0.34364,
1403636962851666432,5.87604,11.15849,-1.20924,-0.47334,0.42725,0.69308,0.33622,
1403636963051666432,5.77981,11.15102,-1.17300,-0.49184,0.42285,0.68746,0.32664,
1403636964051666432,5.30129,10.92857,-1.06939,-0.48313,0.45009,0.67448,0.33028,
1403636964551666432,5.06785,10.72142,-0.94824,-0.48187,0.43981,0.67981,0.33501,
1403636964751666432,4.96681,10.61500,-0.93549,-0.48381,0.41659,0.69386,0.33308,
1403636964851666432,4.91097,10.55625,-0.93535,-0.49023,0.40214,0.70166,0.32500,
1403636964951666688,4.84881,10.49094,-0.92999,0.50226,-0.38542,-0.70801,-0.31289,
1403636965051666432,4.78260,10.41959,-0.91848,0.51334,-0.36900,-0.71564,-0.29695,
1403636965151666432,4.71495,10.34406,-0.90073,0.51694,-0.35578,-0.72529,-0.28310,
1403636965251666432,4.64768,10.26526,-0.87703,0.51275,-0.34816,-0.73697,-0.26969,
1403636965351666432,4.57826,10.18525,-0.84951,-0.49918,0.34720,0.75160,0.25567,
1403636965551666432,4.42724,10.03543,-0.76847,-0.48698,0.35429,0.76323,0.23413,
1403636965651666432,4.34285,9.97484,-0.70916,0.50730,-0.35588,-0.74958,-0.23265,
1403636965751666432,4.25440,9.91615,-0.64918,0.52510,-0.35874,-0.73623,-0.23138,
1403636966051666432,4.01653,9.74672,-0.52277,0.52583,-0.34675,-0.73225,-0.25898,
1403636966451666688,3.73338,9.49055,-0.45599,0.53590,-0.36014,-0.72141,-0.25036,
1403636967051666432,3.44695,9.08809,-0.46429,0.53388,-0.36661,-0.71684,-0.25827,
1403636967651666432,3.28273,8.64614,-0.47977,0.52776,-0.36221,-0.71811,-0.27311,
1403636968151666432,3.18622,8.20401,-0.60634,0.53094,-0.36341,-0.71567,-0.27174,
1403636968551666432,3.14145,7.79685,-0.69148,0.52810,-0.36598,-0.71775,-0.26833,
1403636969151666432,3.10037,7.10157,-0.67494,0.52345,-0.36768,-0.72052,-0.26770,
1403636969451666688,3.08147,6.73134,-0.60053,0.50417,-0.37608,-0.73327,-0.25824,
1403636970151666432,2.97943,6.00661,-0.53383,0.51425,-0.37287,-0.72494,-0.26641,
1403636970551666432,2.89990,5.62063,-0.55799,0.50313,-0.37675,-0.73376,-0.25789,
1403636970751666432,2.84898,5.44881,-0.54926,-0.49262,0.37905,0.74196,0.25130,
1403636970951666688,2.78199,5.28977,-0.52978,-0.48164,0.38236,0.74994,0.24373,
1403636971151666432,2.69568,5.15942,-0.52843,-0.49873,0.38885,0.73846,0.23398,
1403636971351666432,2.61119,5.06741,-0.55107,0.52276,-0.39713,-0.72094,-0.22192,
1403636971751666432,2.51333,4.98248,-0.64324,0.52669,-0.37556,-0.72053,-0.24977,
1403636972251666432,2.47607,4.89093,-0.74469,0.52557,-0.37620,-0.72239,-0.24575,
1403636973151666432,2.52758,4.80521,-0.67701,0.50573,-0.39349,-0.72000,-0.26647,
1403636973451666688,2.54642,4.78798,-0.72755,-0.49999,0.40833,0.71137,0.27791,
1403636974151666432,2.56055,4.74633,-0.83764,-0.49769,0.42448,0.69953,0.28770,
1403636974351666432,2.56927,4.73857,-0.85537,-0.47951,0.45515,0.68142,0.31396,
1403636974451666688,2.57445,4.73744,-0.87190,-0.47092,0.47356,0.66701,0.33025,
1403636974551666432,2.57923,4.73474,-0.89340,-0.46211,0.49287,0.65068,0.34662,
1403636974651666432,2.58330,4.73129,-0.91740,-0.45136,0.51285,0.63404,0.36228,
1403636974751666432,2.58768,4.72527,-0.93737,-0.43925,0.53433,0.61923,0.37163,
1403636974851666432,2.59180,4.71670,-0.94777,-0.42851,0.55652,0.60459,0.37567,
1403636974951666688,2.58977,4.71211,-0.95214,-0.41859,0.57826,0.59004,0.37717,
1403636975151666432,2.60142,4.70980,-0.94231,-0.40230,0.60238,0.56503,0.39502,
1403636975351666432,2.62253,4.71669,-0.94204,-0.39773,0.60247,0.55015,0.41973,
1403636976051666432,2.65263,4.77107,-0.94644,-0.37859,0.62243,0.53985,0.42167,
1403636976251666432,2.66531,4.80233,-0.95024,-0.38447,0.64899,0.49340,0.43308,
1403636976351666432,2.67823,4.81682,-0.96165,-0.37743,0.66345,0.47154,0.44161,
1403636976451666688,2.69682,4.82877,-0.97831,-0.36497,0.67686,0.45189,0.45216,
1403636976551666432,2.72033,4.83752,-0.99849,-0.34406,0.68584,0.44098,0.46559,
1403636976651666432,2.74536,4.84380,-1.02335,-0.32621,0.69060,0.43502,0.47688,
1403636976851666432,2.79483,4.85272,-1.09005,-0.30887,0.70163,0.42534,0.48105,
1403636977951666688,3.19159,4.92806,-1.29567,-0.31963,0.70408,0.41597,0.47862,
1403636978351666432,3.37650,4.92243,-1.33187,-0.30165,0.70556,0.42005,0.48451,
1403636978651666432,3.51612,4.92380,-1.31118,-0.28522,0.71836,0.42771,0.46869,
1403636979051666432,3.71552,5.00473,-1.34075,-0.29271,0.70748,0.42134,0.48608,
1403636979551666432,3.94430,5.16671,-1.43975,-0.28390,0.71633,0.42770,0.47259,
1403636979951666688,4.12097,5.36722,-1.41929,-0.28375,0.71211,0.42097,0.48494,
1403636980351666432,4.28763,5.61911,-1.43266,-0.28849,0.70881,0.41114,0.49530,
1403636981251666432,4.56808,6.16752,-1.54375,-0.30219,0.70915,0.40637,0.49056,
1403636981751666432,4.71022,6.42749,-1.61901,-0.27873,0.71245,0.41159,0.49529,
1403636982151666432,4.81184,6.64924,-1.60036,-0.26293,0.73409,0.41356,0.47006,
1403636982451666688,4.91281,6.87386,-1.60727,-0.28460,0.72946,0.39885,0.47730,
1403636982651666432,4.99906,7.03169,-1.59744,-0.29424,0.72025,0.39595,0.48773,
1403636983251666432,5.31533,7.51361,-1.60641,-0.28705,0.71082,0.40639,0.49717,
1403636983851666432,5.59789,7.98387,-1.66913,-0.27018,0.71951,0.40977,0.49133,
1403636984351666432,5.78844,8.42636,-1.60731,-0.26948,0.71962,0.40121,0.49856,
1403636984751666432,5.92342,8.81764,-1.63136,-0.27228,0.71564,0.39770,0.50553,
1403636985151666432,6.02366,9.18783,-1.60225,-0.27694,0.71832,0.39467,0.50156,
1403636985551666432,6.09914,9.55290,-1.64070,-0.27814,0.70815,0.41232,0.50115,
1403636985851666432,6.12327,9.83778,-1.62670,-0.28903,0.68932,0.42586,0.50984,
1403636985951666688,6.12643,9.94294,-1.61590,-0.30163,0.67609,0.42111,0.52401,
1403636986351666432,6.04602,10.26426,-1.64662,-0.29135,0.68797,0.43220,0.50499,
1403636986651666432,5.93566,10.47572,-1.68752,-0.30310,0.69875,0.42504,0.48911,
1403636986951666688,5.82282,10.67482,-1.65033,-0.31185,0.70092,0.41871,0.48594,
1403636987351666432,5.68986,10.89182,-1.54577,-0.30608,0.69707,0.41719,0.49635,
1403636987651666432,5.59016,11.03165,-1.51640,-0.31295,0.68324,0.42207,0.50705,
1403636987951666688,5.46335,11.12186,-1.49076,-0.32185,0.68377,0.42389,0.49920,
1403636988251666432,5.33273,11.17115,-1.45120,-0.33210,0.69718,0.41686,0.47946,
1403636988551666432,5.23230,11.17589,-1.41110,-0.34433,0.68644,0.40638,0.49507,
1403636989451666688,5.03550,10.70397,-1.31518,-0.32326,0.69114,0.41573,0.49498,
1403636989851666432,4.98312,10.32392,-1.24253,-0.30473,0.69484,0.42726,0.49171,
1403636990451666688,4.87278,9.74028,-1.16041,-0.30806,0.68933,0.42902,0.49584,
1403636991051666432,4.70569,9.15310,-1.13954,-0.30607,0.69009,0.43714,0.48888,
1403636991651666432,4.50982,8.63100,-1.12622,-0.30488,0.69734,0.43031,0.48539,
1403636992251666432,4.34516,8.15913,-0.99805,-0.30183,0.69875,0.41735,0.49644,
1403636992651666432,4.25468,7.85370,-0.98047,-0.28800,0.70683,0.41846,0.49228,
1403636993351666432,4.06336,7.42378,-0.91814,-0.31076,0.69405,0.42427,0.49164,
1403636993551666432,4.00220,7.31479,-0.87409,-0.33116,0.67577,0.45081,0.48004,
1403636993751666432,3.93931,7.19587,-0.82009,-0.34434,0.66227,0.47581,0.46522,
1403636994151666432,3.81913,6.96705,-0.77923,-0.35934,0.64044,0.48819,0.47158,
1403636994751666432,3.56810,6.52783,-0.79088,-0.36546,0.64993,0.48242,0.45968,
1403636995651666432,3.21469,5.68185,-0.66427,-0.35960,0.64851,0.48957,0.45873,
1403636996251666432,3.01239,5.06319,-0.57684,-0.35502,0.65578,0.49044,0.45099,
1403636996651666432,2.91971,4.68740,-0.45864,-0.36796,0.63370,0.51997,0.43893,
1403636996851666432,2.87381,4.50951,-0.42557,-0.38488,0.61194,0.54852,0.42014,
1403636996951666688,2.85403,4.42518,-0.42512,-0.39595,0.59977,0.56291,0.40820,
1403636997051666432,2.83149,4.34507,-0.42823,-0.40536,0.58626,0.57740,0.39825,
1403636997251666432,2.78175,4.19445,-0.45306,-0.41697,0.56806,0.59768,0.38238,
1403636998651666432,2.52298,3.62855,-0.13796,-0.41869,0.56425,0.59387,0.39196,
1403636998951666688,2.47548,3.59220,-0.02073,-0.42190,0.55322,0.58962,0.41024,
1403637000251666432,2.09953,3.15939,0.06111,-0.41764,0.55809,0.58951,0.40815,
1403637001051666432,1.76899,2.74470,0.12917,-0.42099,0.56009,0.58548,0.40778,
1403637001651666432,1.50805,2.36113,0.20141,-0.41878,0.56978,0.58387,0.39883,
1403637002351666432,1.25116,1.90190,0.18199,-0.41341,0.57093,0.58564,0.40020,
1403637003151666432,0.94434,1.42352,0.20752,-0.41099,0.57328,0.58256,0.40380,
1403637004051666432,0.59200,0.91088,0.21442,-0.40754,0.57624,0.58388,0.40117,
1403637004851666432,0.30877,0.51392,0.28993,-0.42712,0.58894,0.56419,0.39040,
1403637005651666432,0.18643,0.22030,0.14015,-0.40760,0.58177,0.57878,0.40053,
1403637006451666688,0.08998,0.04563,0.17729,-0.40405,0.59174,0.58365,0.38202,
1403637006751666432,0.07806,0.05458,0.17567,-0.42418,0.57190,0.58702,0.38525,
1403637006951666688,0.07570,0.07368,0.14942,-0.43916,0.54627,0.60924,0.37087,
1403637007151666432,0.09562,0.06424,0.13716,-0.45060,0.51633,0.63323,0.35970,
1403637007451666688,0.09547,0.05950,0.09960,-0.46272,0.49034,0.64407,0.36144,
1403637007651666432,0.09616,0.03505,0.07253,-0.45339,0.49536,0.65247,0.35120,
1403637008251666432,0.06225,-0.02045,0.01502,-0.44079,0.51252,0.65158,0.34419,
1403637008651666432,0.02288,-0.02162,0.02461,-0.45590,0.51205,0.63524,0.35558,
1403637009151666432,0.01031,0.00959,-0.01706,-0.45149,0.52281,0.63378,0.34808,
1403637009451666688,0.03409,0.04796,-0.05006,-0.45202,0.49935,0.64613,0.35896,
1403637009551666432,0.03850,0.05547,-0.05370,-0.48809,0.48778,0.63598,0.34549,
