1403637135738318848,0.04159,-0.00226,0.40536,-0.38672,0.61154,0.52394,0.44940,
1403637136238318848,0.04775,0.01707,0.29959,-0.39872,0.61243,0.54878,0.40595,
1403637136338319104,0.04404,0.01137,0.21529,-0.38581,0.62153,0.55992,0.38902,
1403637136438318848,0.03922,0.00533,0.14147,-0.37676,0.63074,0.56964,0.36840,
1403637136638319104,0.03742,-0.00892,0.08426,-0.37216,0.63999,0.57835,0.34267,
1403637136838319104,0.04420,-0.00939,0.19256,-0.37718,0.63391,0.57804,0.34894,
1403637136938318848,0.05073,-0.00885,0.28822,-0.38517,0.62714,0.56748,0.36920,
1403637137038319104,0.05785,-0.00469,0.38556,-0.39075,0.62339,0.55142,0.39324,
1403637137138319104,0.06084,-0.00198,0.46360,-0.40190,0.62145,0.53246,0.41080,
1403637137338319104,0.06321,0.00235,0.49746,-0.41725,0.61276,0.51826,0.42642,
1403637137638319104,0.06187,0.00277,0.28819,-0.38599,0.62079,0.54002,0.41715,
1403637137738318848,0.05620,0.00142,0.20027,-0.37006,0.63284,0.55000,0.40009,
1403637137838319104,0.05040,-0.00608,0.12822,-0.36535,0.63955,0.55769,0.38272,
1403637138038319104,0.05001,-0.02014,0.08281,-0.34952,0.64781,0.57376,0.35914,
1403637138238318848,0.06404,-0.01130,0.21514,-0.35660,0.63347,0.57573,0.37429,
1403637138338319104,0.07028,-0.00537,0.31519,-0.36814,0.62034,0.56395,0.40201,
1403637138438318848,0.07225,-0.00310,0.40751,-0.38130,0.61111,0.54469,0.42951,
1403637138538319104,0.07276,-0.00235,0.46993,-0.39098,0.60563,0.52919,0.44755,
1403637138938318848,0.07504,0.01052,0.32025,-0.38786,0.61781,0.53210,0.42981,
1403637139138319104,0.06636,0.01452,0.15128,-0.39705,0.62621,0.54081,0.39716,
1403637139438318848,0.05515,0.01852,0.02634,-0.40041,0.61981,0.55564,0.38310,
1403637139838319104,0.05343,0.02394,-0.00806,-0.41850,0.60318,0.55747,0.38762,
1403637140038319104,0.05983,0.01961,-0.00987,-0.43048,0.60348,0.53926,0.39962,
1403637149938318848,0.07935,-0.00328,0.00546,-0.41362,0.60762,0.55911,0.38357,
1403637150138319104,0.11374,-0.00363,0.00779,-0.37780,0.61310,0.58129,0.37879,
1403637150438318848,0.17071,0.06783,0.07951,-0.38261,0.60997,0.56620,0.40120,
1403637150838319104,0.24703,0.20530,0.17358,-0.38453,0.60931,0.55608,0.41431,
1403637151138319104,0.28986,0.27918,0.23298,-0.39792,0.59737,0.54937,0.42777,
1403637152738318848,0.54091,0.58153,0.48217,-0.39396,0.60636,0.55915,0.40556,
1403637153738318848,0.77921,0.76928,0.56733,-0.38579,0.60460,0.56212,0.41187,
1403637154638319104,0.97188,0.97310,0.51920,-0.38617,0.61228,0.55657,0.40769,
1403637154838319104,1.03499,1.02636,0.48686,-0.36360,0.62150,0.55858,0.41173,
1403637155038319104,1.10319,1.09880,0.47298,-0.35368,0.63598,0.54432,0.41732,
1403637155238318848,1.16312,1.18598,0.49165,-0.35279,0.64483,0.52017,0.43493,
1403637155438318848,1.22536,1.28806,0.52818,-0.35244,0.64977,0.50213,0.44884,
1403637155638319104,1.29110,1.39318,0.53748,-0.34758,0.66563,0.47654,0.45721,
1403637155838319104,1.36026,1.48604,0.51936,-0.34026,0.68477,0.45029,0.46104,
1403637155938318848,1.40064,1.52569,0.50738,-0.32589,0.69792,0.43614,0.46528,
1403637156038319104,1.45057,1.56052,0.49319,-0.31343,0.70912,0.41593,0.47530,
1403637156138319104,1.49929,1.59018,0.47771,-0.30485,0.71895,0.39341,0.48520,
1403637156238318848,1.55102,1.61624,0.46187,-0.29476,0.72949,0.36963,0.49430,
1403637156338319104,1.60651,1.63550,0.44740,-0.28228,0.74003,0.34591,0.50301,
1403637156438318848,1.66448,1.65122,0.43314,-0.26811,0.75022,0.32367,0.51042,
1403637156538319104,1.72573,1.66284,0.41726,-0.25505,0.75799,0.30198,0.51885,
1403637156638319104,1.78904,1.66989,0.39909,-0.24049,0.76484,0.28240,0.52673,
1403637156738318848,1.85558,1.67299,0.37537,-0.22530,0.77049,0.26504,0.53418,
1403637156838319104,1.92051,1.67333,0.34714,-0.20838,0.77661,0.25617,0.53650,
1403637157038319104,2.06877,1.66328,0.26981,-0.18681,0.78576,0.25181,0.53317,
1403637157938318848,2.84175,1.56923,0.15114,-0.21855,0.77846,0.25115,0.53212,
1403637158238318848,3.17094,1.47550,0.15711,-0.20758,0.77050,0.25942,0.54401,
1403637158438318848,3.38282,1.39463,0.18061,-0.19881,0.77553,0.24355,0.54746,
1403637158538319104,3.49164,1.35099,0.18892,-0.19440,0.77989,0.22594,0.55039,
1403637158638319104,3.59695,1.30312,0.18859,-0.18988,0.78621,0.20381,0.55162,
1403637158738318848,3.70120,1.24864,0.18247,-0.17900,0.79153,0.18272,0.55503,
1403637158838319104,3.80324,1.18782,0.17086,-0.16517,0.79778,0.16867,0.55482,
1403637159038319104,4.00436,1.05522,0.15487,-0.13958,0.80500,0.16034,0.55388,
1403637159338319104,4.30889,0.84373,0.14557,-0.14856,0.80718,0.14859,0.55165,
1403637159638319104,4.61665,0.60533,0.09291,-0.14174,0.80666,0.16255,0.55026,
1403637159938318848,4.94135,0.36101,0.06121,-0.12817,0.80626,0.16364,0.55383,
1403637160038319104,5.05111,0.27876,0.05233,-0.11941,0.80847,0.14845,0.55685,
1403637160138319104,5.16124,0.19799,0.04142,-0.11265,0.80808,0.12631,0.56423,
1403637160238318848,5.27198,0.11633,0.02743,-0.09868,0.80920,0.10379,0.56981,
1403637160338319104,5.38019,0.03368,0.00869,-0.08184,0.81126,0.07945,0.57346,
1403637160438318848,5.48507,-0.05157,-0.01328,-0.06194,0.81412,0.05298,0.57494,
1403637160538319104,5.58645,-0.13729,-0.03775,-0.03650,0.81777,0.02833,0.57368,
1403637160638319104,5.68543,-0.22091,-0.06391,-0.01233,0.82010,0.00363,0.57208,
1403637160738318848,5.78160,-0.30277,-0.09093,0.00459,0.82365,-0.01625,0.56684,
1403637160838319104,5.87945,-0.38049,-0.11204,0.01691,0.82587,-0.02860,0.56288,
1403637161038319104,6.08451,-0.52234,-0.12516,0.01961,0.83010,-0.04667,0.55531,
1403637161238318848,6.30798,-0.65913,-0.09218,-0.00349,0.82424,-0.06788,0.56215,
1403637161538319104,6.64478,-0.91626,0.00647,-0.00013,0.82110,-0.07447,0.56590,
1403637161738318848,6.86270,-1.12223,0.07342,0.02051,0.81493,-0.08847,0.57240,
1403637161838319104,6.96657,-1.23087,0.09973,0.03351,0.80384,-0.09134,0.58683,
1403637161938318848,7.06518,-1.33986,0.12153,0.04463,0.79135,-0.09459,0.60235,
1403637162038319104,7.15414,-1.44744,0.13734,0.05230,0.78110,-0.09683,0.61464,
1403637162438318848,7.38629,-1.86222,0.13089,0.02625,0.78745,-0.11884,0.60425,
1403637162638319104,7.43541,-2.08512,0.11660,0.03351,0.80091,-0.11099,0.58745,
1403637162738318848,7.44958,-2.20029,0.12169,0.03579,0.78808,-0.11382,0.60390,
1403637162838319104,7.45690,-2.32157,0.12370,0.04370,0.77831,-0.12465,0.61383,
1403637162938318848,7.45354,-2.44633,0.11879,0.06120,0.77316,-0.13894,0.61577,
1403637163038319104,7.43707,-2.57167,0.10911,0.08445,0.77015,-0.15670,0.61252,
1403637163138319104,7.40955,-2.69618,0.09482,0.11116,0.76560,-0.17946,0.60770,
1403637163238318848,7.36897,-2.81533,0.07653,0.13819,0.75883,-0.20581,0.60227,
1403637163338319104,7.31766,-2.92807,0.05538,0.16038,0.75048,-0.23337,0.59716,
1403637163438318848,7.25806,-3.03468,0.03143,0.17382,0.74297,-0.26277,0.59053,
1403637163538319104,7.19154,-3.13629,0.00452,0.17974,0.73900,-0.28998,0.58093,
1403637163638319104,7.11695,-3.23391,-0.01856,0.17835,0.74105,-0.31309,0.56658,
1403637163738318848,7.03604,-3.33148,-0.03178,0.17334,0.74321,-0.33074,0.55516,
1403637163938318848,6.85385,-3.53948,-0.02390,0.16363,0.74012,-0.34973,0.55058,
1403637164138319104,6.64406,-3.77706,0.01750,0.16666,0.73492,-0.34793,0.55772,
1403637164338319104,6.40113,-4.03753,0.08085,0.18107,0.73993,-0.33127,0.55675,
1403637164538319104,6.13602,-4.30460,0.13028,0.17234,0.74657,-0.32779,0.55271,
1403637164738318848,5.85588,-4.58437,0.14831,0.16757,0.75076,-0.32197,0.55192,
1403637164838319104,5.70892,-4.72976,0.14953,0.18260,0.74973,-0.31383,0.55324,
1403637164938318848,5.55881,-4.87575,0.14468,0.19689,0.74708,-0.31352,0.55209,
1403637165038319104,5.40595,-5.02126,0.13513,0.20805,0.74284,-0.32077,0.54956,
1403637165138319104,5.25267,-5.16666,0.12447,0.22116,0.73315,-0.33228,0.55061,
1403637165238318848,5.09779,-5.30807,0.11233,0.23705,0.72464,-0.34697,0.54618,
1403637165338319104,4.93968,-5.44218,0.10474,0.24951,0.72066,-0.36572,0.53352,
1403637165438318848,4.78180,-5.57033,0.10553,0.25633,0.72011,-0.38373,0.51816,
1403637165538319104,4.62555,-5.69514,0.11567,0.26335,0.71832,-0.39520,0.50841,
1403637165638319104,4.47259,-5.81822,0.13130,0.27412,0.71827,-0.40020,0.49879,
1403637165738318848,4.32343,-5.93992,0.14627,0.28831,0.71968,-0.39838,0.49014,
1403637165838319104,4.18078,-6.05995,0.15635,0.30182,0.72208,-0.39348,0.48237,
1403637166038319104,3.93124,-6.27807,0.15726,0.31239,0.73275,-0.37328,0.47556,
1403637166438318848,3.59069,-6.62680,0.04652,0.30798,0.71832,-0.33473,0.52642,
1403637166738318848,3.40658,-6.73392,-0.01435,0.28909,0.74263,-0.32609,0.50852,
1403637167038319104,3.31552,-6.74446,-0.07257,0.31999,0.75720,-0.28990,0.49011,
1403637167538319104,3.46734,-6.38072,-0.07455,0.29854,0.75360,-0.30601,0.49932,
1403637167638319104,3.54885,-6.26815,-0.07201,0.26898,0.74935,-0.32859,0.50808,
1403637167838319104,3.69934,-6.03074,-0.09608,0.23653,0.75505,-0.33564,0.51117,
1403637167938318848,3.77839,-5.91717,-0.11108,0.22825,0.76424,-0.32804,0.50619,
1403637168138319104,3.94404,-5.69145,-0.12686,0.22398,0.77369,-0.31008,0.50506,
1403637168338319104,4.12706,-5.47808,-0.18284,0.22143,0.76908,-0.30188,0.51803,
1403637168538319104,4.31860,-5.27073,-0.27966,0.22695,0.75584,-0.29380,0.53933,
1403637168738318848,4.51053,-5.05381,-0.37286,0.22108,0.76231,-0.29771,0.53044,
1403637168938318848,4.70060,-4.83527,-0.44105,0.22628,0.76708,-0.29633,0.52208,
1403637169138319104,4.89607,-4.61329,-0.51308,0.23654,0.76974,-0.28752,0.51853,
1403637169238318848,5.00236,-4.49632,-0.54305,0.23415,0.77124,-0.27609,0.52358,
1403637169338319104,5.11338,-4.37338,-0.56185,0.22344,0.77334,-0.26113,0.53276,
1403637169438318848,5.22532,-4.24180,-0.57613,0.20983,0.77775,-0.24098,0.54129,
1403637169538319104,5.34124,-4.10935,-0.57549,0.19578,0.78242,-0.21525,0.55060,
1403637169638319104,5.45888,-3.96614,-0.57258,0.18231,0.78669,-0.18301,0.56070,
1403637169738318848,5.57293,-3.81536,-0.56684,0.16286,0.79111,-0.15312,0.56937,
1403637169838319104,5.68284,-3.65686,-0.56775,0.14315,0.79561,-0.12555,0.57511,
1403637169938318848,5.78855,-3.49257,-0.57530,0.13027,0.79875,-0.09690,0.57935,
1403637170038319104,5.89022,-3.32031,-0.59216,0.11816,0.80070,-0.07092,0.58300,
1403637170138319104,5.98709,-3.14320,-0.60869,0.10319,0.80241,-0.04768,0.58585,
1403637170238318848,6.08122,-2.95244,-0.63619,0.08808,0.80211,-0.02442,0.59014,
1403637170338319104,6.16976,-2.75452,-0.66242,0.07181,0.80056,-0.00105,0.59494,
1403637170438318848,6.25242,-2.54621,-0.69401,0.03983,0.79604,0.01492,0.60375,
1403637170538319104,6.32719,-2.33295,-0.72673,0.00350,0.78736,0.03052,0.61573,
1403637170638319104,6.39235,-2.11692,-0.76551,-0.02884,0.77635,0.04928,0.62771,
1403637170738318848,6.44068,-1.90440,-0.80699,-0.05542,0.76604,0.07276,0.63626,
1403637170838319104,6.47026,-1.69641,-0.84817,-0.08086,0.76427,0.09883,0.63213,
1403637170938318848,6.48276,-1.49510,-0.88200,-0.10343,0.76448,0.12929,0.62303,
1403637171038319104,6.47922,-1.30225,-0.90697,-0.12613,0.76454,0.15830,0.61197,
1403637171138319104,6.46461,-1.11651,-0.92479,-0.14810,0.76435,0.18359,0.60011,
1403637171238318848,6.43921,-0.94172,-0.93222,-0.16578,0.76061,0.20142,0.59449,
1403637171338319104,6.40750,-0.77580,-0.93126,-0.17562,0.75396,0.21540,0.59523,
1403637171438318848,6.36742,-0.61817,-0.92278,-0.17270,0.74782,0.22968,0.59848,
1403637171638319104,6.25790,-0.31493,-0.89812,-0.16396,0.74485,0.24259,0.59955,
1403637171838319104,6.10514,-0.02280,-0.88975,-0.15176,0.74288,0.24107,0.60580,
1403637172038319104,5.90344,0.26408,-0.90111,-0.14261,0.74240,0.23313,0.61169,
1403637172238318848,5.63907,0.53143,-0.92390,-0.15304,0.75434,0.21674,0.60048,
1403637172338319104,5.49358,0.66322,-0.92743,-0.16550,0.76754,0.20436,0.58457,
1403637172538319104,5.18535,0.88601,-0.91075,-0.18423,0.78242,0.18367,0.56582,
1403637172738318848,4.87901,1.05880,-0.86192,-0.18959,0.78950,0.17250,0.55766,
1403637172938318848,4.59767,1.18426,-0.79942,-0.17405,0.81688,0.15831,0.52664,
1403637173038319104,4.47420,1.22952,-0.78029,-0.16466,0.83193,0.15033,0.50812,
1403637173238318848,4.26414,1.30055,-0.79215,-0.14647,0.84634,0.11903,0.49809,
1403637173338319104,4.18834,1.32490,-0.80300,-0.13399,0.84452,0.09645,0.50944,
1403637173438318848,4.12647,1.34138,-0.81613,-0.12162,0.84176,0.07291,0.52089,
1403637173538319104,4.07844,1.34974,-0.83442,-0.10928,0.83992,0.04936,0.52929,
1403637173638319104,4.04060,1.34928,-0.85865,-0.10328,0.83999,0.02231,0.53222,
1403637173738318848,4.01418,1.33805,-0.88852,-0.09960,0.84236,-0.00474,0.52962,
1403637173838319104,3.99842,1.31300,-0.92595,-0.09407,0.84831,-0.02902,0.52027,
1403637173938318848,3.99665,1.27186,-0.96207,-0.08009,0.85649,-0.04210,0.50817,
1403637174038319104,4.00945,1.21238,-0.98369,-0.05109,0.85518,-0.03638,0.51451,
1403637174138319104,4.03805,1.14263,-0.98436,-0.02690,0.83981,-0.02810,0.54149,
1403637174238318848,4.07588,1.06805,-0.97275,-0.01787,0.82043,-0.02581,0.57088,
1403637174338319104,4.11732,0.99143,-0.95440,-0.02059,0.81015,-0.02896,0.58514,
1403637174538319104,4.18422,0.82845,-0.90122,-0.04269,0.80283,-0.05139,0.59245,
1403637174638319104,4.20994,0.73173,-0.86665,-0.03509,0.80156,-0.06178,0.59368,
1403637174738318848,4.23096,0.62448,-0.83404,-0.01128,0.79692,-0.07185,0.59969,
1403637174838319104,4.24606,0.51044,-0.80820,0.01433,0.79438,-0.08657,0.60105,
1403637174938318848,4.25520,0.39277,-0.79062,0.02970,0.79874,-0.11164,0.59048,
1403637175038319104,4.25963,0.27264,-0.77622,0.04487,0.79966,-0.13414,0.58356,
1403637175138319104,4.26064,0.15082,-0.76407,0.05711,0.79264,-0.15083,0.58798,
1403637175238318848,4.25698,0.02645,-0.75557,0.06340,0.78056,-0.16533,0.59948,
1403637175338319104,4.24508,-0.10072,-0.75021,0.07182,0.76866,-0.17298,0.61163,
1403637175538319104,4.18373,-0.35723,-0.75697,0.06852,0.76746,-0.18606,0.60967,
1403637175738318848,4.07772,-0.62821,-0.77059,0.05717,0.78294,-0.19201,0.58896,
1403637175938318848,3.93794,-0.92492,-0.74865,0.07325,0.78751,-0.17689,0.58581,
1403637176138319104,3.77593,-1.23861,-0.69442,0.08142,0.77627,-0.16481,0.60301,
1403637176338319104,3.58519,-1.55148,-0.65133,0.08635,0.76980,-0.16230,0.61124,
1403637176538319104,3.35686,-1.85542,-0.63224,0.09741,0.77584,-0.16901,0.60002,
1403637176638319104,3.23196,-2.00098,-0.61992,0.10147,0.77854,-0.18151,0.59214,
1403637176738318848,3.10956,-2.15484,-0.63121,0.10504,0.78196,-0.19315,0.58326,
1403637176838319104,2.98135,-2.29472,-0.62938,0.10913,0.78454,-0.20172,0.57611,
1403637176938318848,2.85231,-2.44462,-0.64787,0.11152,0.79004,-0.20803,0.56579,
1403637177038319104,2.72419,-2.59149,-0.66277,0.11191,0.79835,-0.21262,0.55218,
1403637177138319104,2.60100,-2.74028,-0.68442,0.10937,0.81109,-0.21739,0.53190,
1403637177238318848,2.48298,-2.89227,-0.70913,0.10683,0.82026,-0.22159,0.51638,
1403637177438318848,2.27730,-3.21097,-0.77015,0.11124,0.82840,-0.22016,0.50291,
1403637177638319104,2.12545,-3.55033,-0.83102,0.14250,0.83055,-0.20631,0.49731,
1403637177838319104,2.04861,-3.88219,-0.87080,0.16402,0.82063,-0.20341,0.50821,
1403637177938318848,2.02338,-4.04583,-0.88170,0.16994,0.81507,-0.21782,0.50924,
1403637178038319104,2.01562,-4.20153,-0.90217,0.19058,0.81091,-0.22757,0.50430,
1403637178138319104,2.01850,-4.35056,-0.92688,0.21782,0.80604,-0.23427,0.49797,
1403637178238318848,2.03495,-4.49321,-0.95775,0.23874,0.80083,-0.24110,0.49350,
1403637178338319104,2.07303,-4.61637,-0.96384,0.25840,0.79314,-0.24132,0.49590,
1403637178538319104,2.19209,-4.81473,-0.96817,0.27870,0.78613,-0.24312,0.49519,
1403637178738318848,2.37669,-4.94896,-0.96164,0.26105,0.77440,-0.26071,0.51398,
1403637178938318848,2.60152,-5.04073,-0.97119,0.23698,0.75738,-0.27690,0.54180,
1403637179338319104,3.03679,-5.12463,-1.03528,0.22449,0.76368,-0.27885,0.53726,
1403637179638319104,3.35305,-5.11424,-0.98723,0.22393,0.76579,-0.27672,0.53558,
1403637180138319104,3.90121,-4.96726,-1.19716,0.24202,0.76379,-0.26826,0.53487,
1403637180338319104,4.13993,-4.84222,-1.28934,0.21832,0.76397,-0.28215,0.53766,
1403637180438318848,4.26395,-4.77614,-1.31989,0.20859,0.77162,-0.28822,0.52728,
1403637180538319104,4.37794,-4.70377,-1.34527,0.20148,0.78070,-0.29370,0.51346,
1403637180738318848,4.62187,-4.56595,-1.36513,0.22033,0.77600,-0.28283,0.51893,
1403637180938318848,4.88006,-4.41842,-1.35437,0.24520,0.76962,-0.27243,0.52283,
1403637181138319104,5.15020,-4.23728,-1.31475,0.25626,0.76667,-0.27356,0.52126,
1403637181238318848,5.28999,-4.13675,-1.28389,0.24381,0.76066,-0.28589,0.52936,
1403637181338319104,5.43515,-4.02746,-1.24427,0.23756,0.75320,-0.29346,0.53864,
1403637181438318848,5.57873,-3.91588,-1.19319,0.24203,0.74863,-0.29314,0.54318,
1403637181638319104,5.85297,-3.66660,-1.08739,0.24373,0.75351,-0.29868,0.53255,
1403637181838319104,6.12242,-3.39591,-0.96293,0.23725,0.74907,-0.30983,0.53536,
1403637182038319104,6.38633,-3.11546,-0.85885,0.23558,0.74538,-0.31294,0.53942,
1403637182138319104,6.51506,-2.97248,-0.81132,0.23579,0.74045,-0.31172,0.54677,
1403637182238318848,6.63718,-2.82879,-0.76899,0.22905,0.73434,-0.31353,0.55675,
1403637182338319104,6.75077,-2.68445,-0.73117,0.22128,0.72892,-0.31515,0.56603,
1403637182438318848,6.85680,-2.53736,-0.69639,0.21733,0.72379,-0.31426,0.57458,
1403637182638319104,7.03771,-2.23204,-0.61267,0.23113,0.72219,-0.30059,0.57850,
1403637182838319104,7.17355,-1.90271,-0.51684,0.22177,0.72128,-0.30623,0.58033,
1403637183038319104,7.26142,-1.55835,-0.44995,0.20750,0.71527,-0.31815,0.58661,
1403637183238318848,7.29582,-1.20819,-0.44574,0.19378,0.71109,-0.32803,0.59093,
1403637183538319104,7.22382,-0.70555,-0.49974,0.18391,0.71006,-0.33556,0.59110,
1403637183838319104,6.99966,-0.24735,-0.58035,0.16355,0.71152,-0.34883,0.58763,
1403637184038319104,6.76987,-0.00173,-0.61255,0.14456,0.71587,-0.36185,0.57939,
1403637184338319104,6.31155,0.27227,-0.61220,0.17112,0.73092,-0.34817,0.56147,
1403637184538319104,5.96511,0.41201,-0.65827,0.18878,0.75086,-0.33590,0.53642,
1403637184738318848,5.62155,0.53213,-0.72053,0.18512,0.76648,-0.33625,0.51496,
1403637184938318848,5.29392,0.61965,-0.76198,0.18433,0.77436,-0.33541,0.50388,
1403637185138319104,4.97935,0.67268,-0.77134,0.18169,0.77788,-0.33677,0.49847,
1403637185338319104,4.68402,0.68762,-0.74956,0.18354,0.78369,-0.33511,0.48973,
1403637185538319104,4.37739,0.68399,-0.71223,0.19145,0.79063,-0.32836,0.48003,
1403637185738318848,4.17880,0.60808,-0.62316,0.20202,0.77401,-0.32392,0.50515,
1403637185938318848,4.01263,0.51238,-0.55649,0.21537,0.76599,-0.31643,0.51648,
1403637186138319104,3.86602,0.41826,-0.50614,0.21838,0.75857,-0.31440,0.52729,
1403637186438318848,3.66966,0.28116,-0.38700,0.21779,0.75490,-0.31499,0.53243,
1403637186938318848,3.35405,0.07123,-0.15968,0.18060,0.74901,-0.34523,0.53590,
1403637187238318848,3.14137,-0.10263,-0.11946,0.18312,0.74387,-0.34863,0.53998,
1403637187438318848,2.98211,-0.25573,-0.12264,0.20268,0.75859,-0.34891,0.51159,
1403637187638319104,2.83407,-0.43000,-0.13430,0.20782,0.76313,-0.35403,0.49911,
1403637187938318848,2.64145,-0.72643,-0.16514,0.20803,0.76528,-0.35930,0.49191,
1403637188238318848,2.49709,-1.07950,-0.21463,0.23414,0.76071,-0.34237,0.49929,
1403637188438318848,2.43139,-1.32284,-0.26314,0.24241,0.75018,-0.33762,0.51428,
1403637188638319104,2.37857,-1.56374,-0.33363,0.24307,0.73630,-0.35154,0.52459,
1403637188838319104,2.31688,-1.78889,-0.40073,0.23729,0.71539,-0.39017,0.52885,
1403637189038319104,2.24666,-2.02166,-0.46811,0.24961,0.71156,-0.40946,0.51353,
1403637189238318848,2.14805,-2.25095,-0.52354,0.25414,0.72214,-0.41954,0.48776,
1403637189538319104,2.01892,-2.62976,-0.64868,0.26044,0.70689,-0.41666,0.50879,
1403637189838319104,1.88454,-2.99918,-0.71265,0.27081,0.71278,-0.40373,0.50558,
1403637190138319104,1.72904,-3.35197,-0.69578,0.27717,0.70864,-0.39947,0.51130,
1403637190438318848,1.57697,-3.66841,-0.62204,0.27721,0.70413,-0.40303,0.51471,
1403637191238318848,1.18361,-4.33991,-0.53982,0.25327,0.72090,-0.36572,0.53141,
1403637191638319104,0.96041,-4.57724,-0.57492,0.26490,0.72666,-0.35809,0.52303,
1403637191838319104,0.84605,-4.66208,-0.55025,0.26653,0.73722,-0.36144,0.50481,
1403637192138319104,0.72337,-4.76798,-0.46654,0.27577,0.74754,-0.36022,0.48515,
1403637192938318848,0.81501,-5.00524,-0.19251,0.25692,0.74524,-0.37577,0.48723,
1403637193238318848,0.95003,-5.12662,-0.07505,0.22260,0.73931,-0.39797,0.49547,
1403637193538319104,1.09741,-5.30009,-0.00541,0.25229,0.74044,-0.37791,0.49526,
1403637193938318848,1.33933,-5.56528,0.11107,0.26547,0.74364,-0.36687,0.49186,
1403637194138319104,1.48604,-5.69308,0.13732,0.26992,0.73589,-0.36448,0.50276,
1403637194638319104,1.90257,-5.97311,0.16475,0.26418,0.73966,-0.37076,0.49563,
1403637195038319104,2.30389,-6.19083,0.24203,0.26308,0.73710,-0.37554,0.49643,
1403637195238318848,2.51830,-6.30075,0.24623,0.27052,0.72713,-0.37110,0.51027,
1403637195538319104,2.84003,-6.43909,0.23262,0.26515,0.72761,-0.36379,0.51763,
1403637195738318848,3.04972,-6.51538,0.25164,0.25905,0.73199,-0.35210,0.52260,
1403637196138319104,3.46913,-6.59921,0.31255,0.29640,0.73950,-0.31304,0.51701,
1403637196338319104,3.69565,-6.57934,0.31773,0.32071,0.72788,-0.29404,0.52998,
1403637196638319104,4.06406,-6.42125,0.28230,0.32058,0.72242,-0.29826,0.53514,
1403637196838319104,4.32024,-6.22905,0.23308,0.31022,0.72084,-0.30894,0.53731,
1403637197038319104,4.57960,-5.97527,0.17372,0.29736,0.71641,-0.31745,0.54549,
1403637197138319104,4.70519,-5.82502,0.14732,0.28170,0.72007,-0.31802,0.54865,
1403637197238318848,4.82996,-5.66175,0.12720,0.26340,0.72829,-0.31104,0.55088,
1403637197338319104,4.95021,-5.48873,0.11604,0.24053,0.74091,-0.29816,0.55163,
1403637197438318848,5.06737,-5.30983,0.11379,0.21573,0.75358,-0.27698,0.55576,
1403637197538319104,5.17996,-5.12772,0.12028,0.19432,0.76966,-0.24499,0.55664,
1403637197638319104,5.28788,-4.94269,0.13340,0.17213,0.78486,-0.20658,0.55829,
1403637197738318848,5.39202,-4.75618,0.15222,0.14947,0.79466,-0.16776,0.56394,
1403637197838319104,5.48924,-4.56545,0.17809,0.13270,0.79961,-0.12644,0.57186,
1403637197938318848,5.58247,-4.36990,0.21023,0.11584,0.80351,-0.08952,0.57701,
1403637198038319104,5.66964,-4.16805,0.24896,0.09862,0.80559,-0.05804,0.58132,
1403637198138319104,5.74921,-3.95904,0.29504,0.08058,0.80648,-0.03083,0.58493,
1403637198238318848,5.82638,-3.74461,0.34842,0.06252,0.80839,-0.00616,0.58529,
1403637198338319104,5.90198,-3.52437,0.40719,0.04873,0.80662,0.02001,0.58872,
1403637198438318848,5.96805,-3.29582,0.46502,0.04150,0.80181,0.04470,0.59446,
1403637198538319104,6.03038,-3.05776,0.50787,0.03962,0.79747,0.06143,0.59892,
1403637198638319104,6.09733,-2.83603,0.53741,0.04138,0.79387,0.07243,0.60233,
1403637198838319104,6.21381,-2.32163,0.54732,0.03472,0.78805,0.07434,0.61013,
1403637198938318848,6.25027,-2.06246,0.54122,0.02530,0.78171,0.06689,0.61952,
1403637199038319104,6.27176,-1.78706,0.51734,0.00803,0.77651,0.05928,0.62726,
1403637199138319104,6.28279,-1.50946,0.50736,-0.00898,0.77888,0.05871,0.62436,
1403637199238318848,6.27754,-1.23042,0.50222,-0.02426,0.78208,0.06700,0.61909,
1403637199338319104,6.25794,-0.95457,0.50441,-0.03674,0.78055,0.08364,0.61838,
1403637199438318848,6.22598,-0.67968,0.51151,-0.05054,0.77720,0.10540,0.61830,
1403637199538319104,6.18285,-0.40611,0.52068,-0.06666,0.77341,0.12838,0.61718,
1403637199638319104,6.12664,-0.13395,0.52371,-0.08780,0.76802,0.14792,0.61689,
1403637199738318848,6.05926,0.13699,0.51854,-0.11491,0.76159,0.16495,0.61609,
1403637199838319104,5.98300,0.40429,0.49729,-0.15134,0.75373,0.18001,0.61367,
1403637199938318848,5.89784,0.66179,0.45254,-0.19315,0.74194,0.19494,0.61173,
1403637200038319104,5.80239,0.90194,0.39918,-0.23527,0.72380,0.21293,0.61272,
1403637200138319104,5.69653,1.11893,0.34202,-0.26732,0.70421,0.23944,0.61262,
1403637200238318848,5.58076,1.30763,0.27981,-0.28466,0.69474,0.27300,0.60147,
1403637200338319104,5.45661,1.47006,0.21476,-0.27839,0.69348,0.31255,0.58643,
1403637200438318848,5.32340,1.60906,0.15456,-0.27148,0.70072,0.34193,0.56425,
1403637200538319104,5.18247,1.73609,0.10368,-0.27048,0.70929,0.35714,0.54424,
1403637200838319104,4.75524,2.07126,0.01053,-0.28911,0.72160,0.34538,0.52576,
1403637201338319104,4.08291,2.43221,0.00596,-0.27799,0.74545,0.29946,0.52665,
1403637201538319104,3.84524,2.50309,0.00873,-0.28526,0.77190,0.25840,0.50599,
1403637202138319104,3.40253,2.41002,-0.00669,-0.27241,0.78772,0.23423,0.50042,
1403637202338319104,3.36952,2.27619,0.00640,-0.23594,0.79292,0.26573,0.49498,
1403637202738318848,3.42144,1.99222,0.03003,-0.22241,0.77361,0.28085,0.52267,
1403637203038319104,3.49850,1.79155,0.07732,-0.20210,0.76434,0.29485,0.53666,
1403637203638319104,3.62908,1.46370,0.05292,-0.19575,0.76229,0.29439,0.54215,
1403637204538319104,3.68093,1.17102,-0.05933,-0.20268,0.76150,0.28090,0.54785,
1403637205838319104,3.54471,0.99195,-0.02949,-0.20776,0.75799,0.30552,0.53753,
1403637208538319104,2.93840,0.79178,0.15739,-0.21548,0.76600,0.28121,0.53641,
1403637209338319104,2.78015,0.66891,0.10191,-0.21146,0.75664,0.31722,0.53117,
1403637209538319104,2.71815,0.66120,0.11193,-0.21743,0.76302,0.33791,0.50630,
1403637209738318848,2.66974,0.67894,0.14821,-0.21354,0.77342,0.35369,0.48075,
1403637210138319104,2.65652,0.83630,0.17613,-0.20288,0.79022,0.36155,0.45130,
1403637210638319104,2.87834,1.33555,0.04841,-0.20826,0.78578,0.35889,0.45867,
1403637210838319104,3.04104,1.62412,-0.00990,-0.22526,0.78009,0.34988,0.46723,
1403637211038319104,3.23021,1.93745,-0.08520,-0.24971,0.77210,0.33227,0.48073,
1403637211238318848,3.44440,2.25109,-0.17084,-0.25062,0.76232,0.32786,0.49856,
1403637211438318848,3.67404,2.55960,-0.26666,-0.24577,0.75144,0.32520,0.51883,
1403637211738318848,4.01972,2.99340,-0.41185,-0.24567,0.76148,0.32317,0.50532,
1403637212038319104,4.38648,3.39848,-0.48458,-0.24387,0.76727,0.32320,0.49736,
1403637212238318848,4.64960,3.65792,-0.49273,-0.24514,0.74975,0.32070,0.52433,
1403637212538319104,5.02564,4.01349,-0.46323,-0.24028,0.74869,0.31970,0.52870,
1403637212838319104,5.38112,4.33693,-0.40179,-0.22720,0.76000,0.32592,0.51435,
1403637213238318848,5.85071,4.78472,-0.30810,-0.22946,0.75908,0.33056,0.51174,
1403637213538319104,6.20161,5.12613,-0.28836,-0.23197,0.75354,0.33024,0.51896,
1403637213938318848,6.63385,5.58294,-0.33377,-0.20747,0.74660,0.34977,0.52651,
1403637214138319104,6.82229,5.83950,-0.35637,-0.22588,0.73784,0.34999,0.53110,
1403637214338319104,6.98620,6.10461,-0.35246,-0.25279,0.72117,0.36592,0.53114,
1403637214538319104,7.12055,6.35957,-0.32695,-0.26795,0.68834,0.41064,0.53457,
1403637214738318848,7.19972,6.59377,-0.27833,-0.27250,0.65569,0.45067,0.54103,
1403637214938318848,7.21048,6.81477,-0.21650,-0.28003,0.64299,0.46470,0.54056,
1403637215238318848,7.10038,7.11981,-0.15960,-0.29331,0.63762,0.45953,0.54429,
1403637215438318848,6.95052,7.30539,-0.14385,-0.32286,0.63062,0.45616,0.53851,
1403637215538319104,6.85447,7.38688,-0.13524,-0.34374,0.62001,0.45937,0.53517,
1403637215638319104,6.74520,7.45534,-0.12500,-0.35952,0.61058,0.47124,0.52522,
1403637215738318848,6.62436,7.50892,-0.10912,-0.36872,0.60209,0.49180,0.50958,
1403637215838319104,6.49556,7.54971,-0.08856,-0.37596,0.59684,0.51460,0.48746,
1403637215938318848,6.36098,7.57652,-0.05961,-0.38556,0.59095,0.53210,0.46796,
1403637216038319104,6.22365,7.59144,-0.02286,-0.39640,0.58565,0.54450,0.45100,
1403637216138319104,6.08505,7.60034,0.01605,-0.40757,0.57872,0.55532,0.43656,
1403637216238318848,5.94720,7.60165,0.04995,-0.41783,0.57278,0.56150,0.42668,
1403637216438318848,5.68264,7.58830,0.09929,-0.43425,0.56246,0.56149,0.42402,
1403637216638319104,5.43231,7.54468,0.12621,-0.44551,0.55784,0.55411,0.42813,
1403637216938318848,5.08381,7.40343,0.15181,-0.45484,0.55145,0.53855,0.44608,
1403637217138319104,4.86663,7.24152,0.19013,-0.45174,0.56886,0.53600,0.43016,
1403637217338319104,4.66983,7.03855,0.20747,-0.45786,0.58518,0.52585,0.41402,
1403637217738318848,4.41574,6.52640,0.16602,-0.45739,0.55679,0.54455,0.42924,
1403637217938318848,4.33031,6.21574,0.15231,-0.46093,0.51587,0.58444,0.42408,
1403637218038319104,4.28514,6.04291,0.15278,-0.46515,0.50501,0.59867,0.41256,
1403637218238318848,4.19004,5.67325,0.15846,-0.46893,0.49539,0.61624,0.39364,
1403637218738318848,3.96190,4.64892,0.12113,-0.46453,0.49465,0.62465,0.38645,
1403637219138319104,3.75926,3.75579,0.00502,-0.44399,0.49114,0.63349,0.40044,
1403637219438318848,3.55421,3.04451,-0.09614,-0.44257,0.49906,0.63245,0.39379,
1403637219638319104,3.38319,2.55861,-0.13127,-0.42765,0.51609,0.64121,0.37366,
1403637219838319104,3.20252,2.10489,-0.13442,-0.41951,0.52350,0.64486,0.36622,
1403637220138319104,2.91772,1.53324,-0.06427,-0.41614,0.52665,0.64594,0.36363,
1403637220438318848,2.64249,1.06026,0.08243,-0.43572,0.53480,0.63169,0.35370,
1403637220838319104,2.30536,0.45909,0.22737,-0.44190,0.53772,0.62571,0.35223,
1403637221238318848,2.03562,-0.06756,0.27746,-0.42044,0.55817,0.61821,0.35985,
1403637221438318848,1.91846,-0.31003,0.27384,-0.40988,0.57507,0.60225,0.37227,
1403637221738318848,1.77432,-0.59605,0.22820,-0.40104,0.59069,0.58992,0.37715,
1403637222038319104,1.66604,-0.79930,0.14259,-0.38887,0.61226,0.56993,0.38614,
1403637222238318848,1.64249,-0.85229,0.07105,-0.37004,0.63735,0.54071,0.40557,
1403637222438318848,1.60795,-0.92727,-0.00810,-0.36668,0.64475,0.51232,0.43287,
1403637222938318848,1.54741,-1.07929,-0.09822,-0.35130,0.65816,0.50497,0.43408,
1403637223538319104,1.54780,-1.11830,0.05968,-0.36055,0.64213,0.51278,0.44128,
1403637224338319104,1.56667,-1.05935,0.17747,-0.36384,0.63328,0.51287,0.45116,
1403637225738318848,1.45295,-1.08757,-0.00071,-0.36194,0.62950,0.51918,0.45076,
1403637226238318848,1.33243,-1.14112,0.11456,-0.36834,0.62474,0.51612,0.45569,
1403637226538319104,1.23964,-1.17715,0.14617,-0.35217,0.63540,0.52718,0.44082,
1403637227038319104,1.06060,-1.18417,0.12547,-0.36377,0.64434,0.51832,0.42876,
1403637228038319104,0.90492,-1.04967,0.09359,-0.36764,0.63620,0.50746,0.45009,
1403637229538319104,0.71133,-1.11679,0.05701,-0.34976,0.66514,0.48804,0.44393,
1403637229638319104,0.69334,-1.13704,0.03982,-0.34306,0.68812,0.46598,0.43780,
1403637229738318848,0.68171,-1.15564,0.02123,-0.33084,0.70711,0.44299,0.44079,
1403637229838319104,0.67967,-1.16565,0.00106,-0.30890,0.71419,0.42463,0.46282,
1403637229938318848,0.68265,-1.17821,-0.02051,-0.28632,0.71815,0.40554,0.48767,
1403637230138319104,0.69321,-1.19179,-0.06868,-0.25110,0.74079,0.36208,0.50704,
1403637230238318848,0.69813,-1.19729,-0.08415,-0.23673,0.75297,0.34455,0.50821,
1403637230438318848,0.70973,-1.19616,-0.08589,-0.22149,0.75756,0.32486,0.52107,
1403637230638319104,0.71791,-1.17662,-0.05902,-0.22073,0.74865,0.30582,0.54524,
1403637230938318848,0.71419,-1.17198,0.00167,-0.19311,0.78577,0.24860,0.53242,
1403637231138319104,0.72153,-1.18530,0.01954,-0.15395,0.81044,0.19246,0.53145,
1403637231238318848,0.73220,-1.19512,0.00983,-0.13478,0.81869,0.15615,0.53590,
1403637231338319104,0.74782,-1.20821,-0.01441,-0.11364,0.82449,0.11744,0.54177,
1403637231438318848,0.76749,-1.22551,-0.05250,-0.09058,0.82665,0.07692,0.55003,
1403637231538319104,0.79040,-1.24729,-0.10725,-0.06993,0.83059,0.03224,0.55153,
1403637231638319104,0.81665,-1.27326,-0.17444,-0.04501,0.83383,-0.00934,0.55011,
1403637231738318848,0.84855,-1.30476,-0.23912,-0.01770,0.83290,-0.04641,0.55118,
1403637231838319104,0.88743,-1.34133,-0.29661,0.00638,0.83013,-0.08018,0.55174,
1403637231938318848,0.93048,-1.38324,-0.34497,0.02552,0.82868,-0.11086,0.54804,
1403637232038319104,0.98074,-1.43182,-0.38151,0.04191,0.82091,-0.13916,0.55225,
1403637232138319104,1.03557,-1.48917,-0.40722,0.05718,0.80643,-0.16682,0.56442,
1403637232238318848,1.08521,-1.55318,-0.42615,0.07279,0.79552,-0.19127,0.57032,
1403637232338319104,1.13083,-1.62514,-0.43732,0.09352,0.78759,-0.21000,0.57172,
1403637232438318848,1.17291,-1.70235,-0.44085,0.11572,0.77964,-0.22749,0.57186,
1403637232538319104,1.20792,-1.78683,-0.44891,0.12549,0.77381,-0.25449,0.56631,
1403637232638319104,1.23666,-1.86435,-0.43591,0.13062,0.77098,-0.28588,0.55389,
1403637232738318848,1.25758,-1.95460,-0.42478,0.13673,0.76727,-0.31601,0.54105,
1403637232938318848,1.28436,-2.16776,-0.38826,0.15438,0.76800,-0.35438,0.51065,
1403637233138319104,1.31101,-2.43081,-0.33054,0.17267,0.77582,-0.36160,0.48737,
1403637233338319104,1.35637,-2.73245,-0.27916,0.17465,0.78725,-0.36106,0.46837,
1403637233538319104,1.42286,-3.09855,-0.27104,0.19080,0.79825,-0.34134,0.45813,
1403637233638319104,1.47475,-3.28764,-0.28213,0.22644,0.79738,-0.30967,0.46584,
1403637233738318848,1.54044,-3.47762,-0.31100,0.25950,0.79202,-0.28012,0.47634,
1403637233838319104,1.61947,-3.66181,-0.33879,0.28306,0.78635,-0.25944,0.48396,
1403637234038319104,1.83214,-3.98552,-0.41845,0.30638,0.78230,-0.23943,0.48663,
1403637234238318848,2.11353,-4.21683,-0.50659,0.32756,0.77567,-0.22333,0.49108,
1403637234438318848,2.45724,-4.36040,-0.61888,0.31045,0.76604,-0.23563,0.51115,
1403637234538319104,2.65084,-4.39917,-0.67378,0.29226,0.76207,-0.23904,0.52602,
1403637234638319104,2.85209,-4.41586,-0.73417,0.27081,0.75962,-0.23914,0.54079,
1403637234738318848,3.05075,-4.41009,-0.80023,0.24888,0.75930,-0.23485,0.55350,
1403637234838319104,3.25332,-4.39443,-0.86814,0.22335,0.76029,-0.22980,0.56503,
1403637234938318848,3.44768,-4.36300,-0.92906,0.19468,0.76234,-0.22417,0.57505,
1403637235038319104,3.63580,-4.32001,-0.98980,0.17682,0.76613,-0.21018,0.58103,
1403637235138319104,3.81500,-4.27077,-1.03996,0.16410,0.77147,-0.19058,0.58445,
1403637235238318848,3.98596,-4.21322,-1.08044,0.15202,0.77609,-0.17165,0.58746,
1403637235338319104,4.14555,-4.14700,-1.11609,0.14363,0.78433,-0.15735,0.58262,
1403637235438318848,4.29905,-4.07546,-1.14819,0.13217,0.79717,-0.15182,0.56922,
1403637235538319104,4.44811,-3.99734,-1.17430,0.12013,0.80871,-0.14531,0.55717,
1403637235638319104,4.59654,-3.91617,-1.19146,0.11262,0.81495,-0.13389,0.55249,
1403637235738318848,4.74715,-3.83471,-1.20118,0.10710,0.81405,-0.11859,0.55838,
1403637235838319104,4.89558,-3.74208,-1.19855,0.11251,0.80766,-0.09272,0.57134,
1403637235938318848,5.04403,-3.64367,-1.19069,0.11946,0.80301,-0.06370,0.58039,
1403637236038319104,5.18975,-3.53208,-1.17905,0.11874,0.80278,-0.03827,0.58308,
1403637236138319104,5.33118,-3.40486,-1.16067,0.11252,0.80383,-0.01617,0.58389,
1403637236238318848,5.46642,-3.26096,-1.13332,0.10377,0.80507,0.00479,0.58401,
1403637236338319104,5.59760,-3.10133,-1.09700,0.08885,0.80551,0.02229,0.58545,
1403637236438318848,5.72022,-2.92351,-1.05889,0.06999,0.80566,0.03619,0.58711,
1403637236538319104,5.84220,-2.73177,-1.01532,0.05161,0.80461,0.04480,0.58986,
1403637236638319104,5.95645,-2.53450,-0.96987,0.04026,0.80093,0.05060,0.59526,
1403637236738318848,6.06474,-2.32404,-0.93526,0.03156,0.79475,0.05707,0.60342,
1403637236838319104,6.16246,-2.10422,-0.89842,0.01843,0.78665,0.06492,0.61370,
1403637236938318848,6.24802,-1.87535,-0.85536,0.00003,0.77422,0.07353,0.62864,
1403637237038319104,6.31407,-1.64372,-0.80424,-0.01547,0.75851,0.08054,0.64648,
1403637237138319104,6.35946,-1.40972,-0.74744,-0.03340,0.74355,0.08548,0.66235,
1403637237238318848,6.38038,-1.17650,-0.68327,-0.05420,0.73680,0.09202,0.66762,
1403637237338319104,6.37328,-0.94861,-0.61264,-0.07044,0.73735,0.10245,0.66397,
1403637237438318848,6.34012,-0.72603,-0.53598,-0.08439,0.73839,0.10988,0.65999,
1403637237538319104,6.28315,-0.51106,-0.45415,-0.09411,0.73950,0.11570,0.65642,
1403637237738318848,6.10145,-0.11100,-0.27177,-0.11739,0.74115,0.11441,0.65102,
1403637238038319104,5.70352,0.39810,-0.03076,-0.12800,0.76787,0.07949,0.62264,
1403637238238318848,5.39306,0.66737,0.09595,-0.12640,0.79201,0.01865,0.59700,
1403637238438318848,5.06487,0.85038,0.20454,-0.11408,0.80123,-0.06180,0.58412,
1403637238538319104,4.89542,0.90326,0.25173,-0.09984,0.80105,-0.10081,0.58154,
1403637238638319104,4.72281,0.93086,0.29327,-0.08786,0.80430,-0.13658,0.57160,
1403637238738318848,4.55108,0.92907,0.33049,-0.08041,0.81701,-0.16310,0.54720,
1403637238838319104,4.38269,0.89607,0.36429,-0.07617,0.83266,-0.18291,0.51713,
1403637238938318848,4.22530,0.82831,0.39599,-0.07290,0.84847,-0.19601,0.48617,
1403637239038319104,4.08451,0.72540,0.42967,-0.06270,0.86041,-0.19958,0.46469,
1403637239138319104,3.96300,0.58840,0.46782,-0.03885,0.86430,-0.19170,0.46339,
1403637239238318848,3.85955,0.42082,0.50932,-0.00913,0.85802,-0.18249,0.48001,
1403637239338319104,3.77550,0.23149,0.54748,0.01260,0.84959,-0.18339,0.49438,
1403637239438318848,3.70919,0.02636,0.57722,0.02750,0.84201,-0.19687,0.50151,
1403637239538319104,3.65382,-0.19152,0.59281,0.04479,0.83364,-0.21519,0.50670,
1403637239638319104,3.60615,-0.42077,0.58929,0.06475,0.82463,-0.23561,0.51018,
1403637239738318848,3.56573,-0.66062,0.56966,0.08942,0.81151,-0.25472,0.51823,
1403637239838319104,3.53108,-0.90891,0.53748,0.12243,0.79326,-0.26861,0.53254,
1403637239938318848,3.49715,-1.16044,0.49304,0.15318,0.77516,-0.28413,0.54307,
1403637240038319104,3.46342,-1.41185,0.44238,0.18224,0.75929,-0.30168,0.54704,
1403637240138319104,3.42695,-1.65961,0.38483,0.20430,0.74625,-0.32434,0.54422,
1403637240238318848,3.38651,-1.90254,0.32424,0.22234,0.73639,-0.34814,0.53581,
1403637240338319104,3.34652,-2.14083,0.25969,0.23381,0.73505,-0.36994,0.51785,
1403637240438318848,3.30717,-2.37560,0.19879,0.24344,0.73989,-0.38444,0.49549,
1403637240538319104,3.26637,-2.60862,0.14110,0.25120,0.74442,-0.39207,0.47856,
1403637240738318848,3.22395,-3.08542,0.06647,0.26050,0.74328,-0.39484,0.47305,
1403637240838319104,3.21367,-3.32524,0.03959,0.27096,0.73890,-0.38671,0.48069,
1403637240938318848,3.21033,-3.56312,0.01834,0.28147,0.73052,-0.37664,0.49523,
1403637241138319104,3.21659,-4.01942,-0.02851,0.27801,0.73048,-0.37183,0.50085,
1403637241338319104,3.24281,-4.44843,-0.10453,0.28221,0.73620,-0.36084,0.49816,
1403637241538319104,3.28927,-4.84485,-0.19090,0.29820,0.73931,-0.34274,0.49702,
1403637241738318848,3.36880,-5.19530,-0.25293,0.30858,0.73308,-0.32923,0.50890,
1403637241938318848,3.47276,-5.48008,-0.28699,0.30110,0.71653,-0.33094,0.53516,
1403637242338319104,3.69268,-5.83763,-0.28724,0.31392,0.71615,-0.32697,0.53073,
1403637242738318848,3.93624,-5.90650,-0.29085,0.31358,0.71985,-0.30172,0.54079,
1403637242838319104,4.00243,-5.87000,-0.28310,0.29421,0.72123,-0.29614,0.55279,
1403637242938318848,4.07145,-5.82323,-0.26905,0.28237,0.72117,-0.28857,0.56294,
1403637243138319104,4.19981,-5.68397,-0.23595,0.27886,0.72932,-0.27298,0.56197,
1403637243338319104,4.32092,-5.49024,-0.23068,0.26237,0.74180,-0.27914,0.55043,
1403637243538319104,4.43496,-5.25323,-0.23814,0.25244,0.74379,-0.28631,0.54870,
1403637243738318848,4.54676,-4.98336,-0.22487,0.23328,0.75007,-0.30276,0.53973,
1403637243938318848,4.64987,-4.71079,-0.17574,0.20477,0.75280,-0.32706,0.53328,
1403637244238318848,4.78880,-4.33608,-0.03639,0.20876,0.75011,-0.33252,0.53216,
1403637244538319104,4.90436,-4.01316,0.15014,0.20569,0.76145,-0.32427,0.52224,
1403637244738318848,4.98270,-3.82679,0.27044,0.20521,0.77886,-0.29187,0.51584,
1403637244938318848,5.07416,-3.65270,0.36619,0.19408,0.78841,-0.27300,0.51596,
1403637245138319104,5.18511,-3.49351,0.43656,0.16260,0.79587,-0.28334,0.50978,
1403637245438318848,5.38998,-3.30810,0.50554,0.17742,0.79672,-0.26846,0.51156,
1403637245638319104,5.55617,-3.20825,0.52943,0.17277,0.80175,-0.24948,0.51489,
1403637245738318848,5.64982,-3.16080,0.53072,0.16418,0.80518,-0.23541,0.51895,
1403637245838319104,5.75184,-3.11310,0.52922,0.15385,0.80270,-0.21411,0.53494,
1403637245938318848,5.85546,-3.06614,0.52364,0.13920,0.80128,-0.18800,0.55067,
1403637246038319104,5.95638,-3.01747,0.51296,0.12112,0.80304,-0.15659,0.56208,
1403637246138319104,6.05860,-2.96666,0.49764,0.09790,0.80586,-0.12121,0.57124,
1403637246238318848,6.15763,-2.91348,0.47734,0.07079,0.80871,-0.08297,0.57801,
1403637246338319104,6.25524,-2.85398,0.45168,0.04369,0.81078,-0.04082,0.58229,
1403637246438318848,6.34844,-2.79227,0.42345,0.02155,0.81039,0.00592,0.58547,
1403637246538319104,6.44152,-2.73208,0.38875,-0.00055,0.80494,0.05005,0.59124,
1403637246638319104,6.52020,-2.66282,0.35115,-0.02289,0.79610,0.09000,0.59800,
1403637246738318848,6.59214,-2.58802,0.31145,-0.04625,0.78551,0.12562,0.60419,
1403637246838319104,6.65633,-2.51350,0.27682,-0.07009,0.77714,0.15842,0.60502,
1403637246938318848,6.68807,-2.42891,0.24436,-0.09185,0.77446,0.18788,0.59706,
1403637247038319104,6.73336,-2.33438,0.22470,-0.10788,0.77785,0.21040,0.58228,
1403637247138319104,6.76083,-2.24293,0.20428,-0.12069,0.78400,0.22241,0.56684,
1403637247338319104,6.80841,-2.04558,0.15733,-0.13698,0.78541,0.22778,0.55900,
1403637247438318848,6.81602,-1.94821,0.11809,-0.14403,0.76927,0.22418,0.58070,
1403637247738318848,6.81962,-1.64662,0.01818,-0.14415,0.75596,0.24107,0.59129,
1403637247938318848,6.76071,-1.43879,-0.04055,-0.15676,0.74427,0.26678,0.59187,
1403637248038319104,6.70967,-1.33207,-0.05821,-0.17499,0.74210,0.27464,0.58587,
1403637248138319104,6.64615,-1.22942,-0.07007,-0.18580,0.74597,0.28848,0.57077,
1403637248238318848,6.57559,-1.12908,-0.07980,-0.19219,0.74986,0.30140,0.55672,
1403637248338319104,6.50003,-1.02877,-0.09524,-0.19901,0.75121,0.30884,0.54835,
1403637248538319104,6.34068,-0.82942,-0.14134,-0.20996,0.74496,0.31133,0.55139,
1403637248738318848,6.16360,-0.63903,-0.17236,-0.20565,0.74638,0.31241,0.55048,
1403637248938318848,5.96856,-0.45167,-0.16978,-0.19875,0.75628,0.30833,0.54173,
1403637249238318848,5.66892,-0.16660,-0.11154,-0.19410,0.75966,0.30098,0.54282,
1403637249438318848,5.46390,0.03377,-0.05908,-0.19413,0.75961,0.29700,0.54506,
1403637249638319104,5.24893,0.24342,-0.07152,-0.19536,0.75931,0.29576,0.54572,
1403637249838319104,5.02401,0.45375,-0.11123,-0.20294,0.74887,0.29583,0.55722,
1403637249938318848,4.90279,0.55755,-0.12323,-0.20914,0.74486,0.30249,0.55672,
1403637250038319104,4.77686,0.65958,-0.12955,-0.22067,0.74594,0.30881,0.54728,
1403637250138319104,4.64965,0.75830,-0.12765,-0.23151,0.74806,0.31484,0.53636,
1403637250238318848,4.52187,0.85413,-0.12432,-0.24267,0.74649,0.32211,0.52925,
1403637250338319104,4.39742,0.94550,-0.12432,-0.25489,0.74503,0.32628,0.52298,
1403637250538319104,4.15720,1.11360,-0.14618,-0.26953,0.74734,0.33027,0.50966,
1403637250738318848,3.93962,1.25917,-0.15743,-0.27239,0.74738,0.33945,0.50200,
1403637251038319104,3.66630,1.44977,-0.11794,-0.27911,0.74432,0.34353,0.50007,
1403637251238318848,3.51704,1.55825,-0.05774,-0.29104,0.74545,0.34973,0.48711,
1403637251438318848,3.40014,1.65060,0.03266,-0.29390,0.73148,0.36805,0.49305,
1403637251638319104,3.30579,1.73127,0.12057,-0.30335,0.71415,0.39236,0.49398,
1403637251838319104,3.23048,1.79917,0.17914,-0.31373,0.70508,0.40666,0.48894,
1403637252138319104,3.13773,1.86390,0.24289,-0.31514,0.68372,0.41739,0.50892,
1403637252638319104,2.96810,1.87699,0.22328,-0.31905,0.69893,0.41536,0.48701,
1403637252838319104,2.91147,1.85867,0.18650,-0.31719,0.71234,0.41569,0.46815,
1403637253838319104,2.76230,1.69900,0.16149,-0.30379,0.69360,0.41959,0.50056,
1403637254438318848,2.62771,1.52538,0.28834,-0.30996,0.68418,0.44607,0.48667,
1403637254938318848,2.46623,1.38286,0.34667,-0.32610,0.67252,0.45352,0.48548,
1403637255338319104,2.31256,1.25955,0.34142,-0.34350,0.65918,0.46767,0.47831,
1403637255538319104,2.22999,1.18813,0.35046,-0.35372,0.64901,0.48506,0.46732,
1403637255738318848,2.14658,1.11117,0.34131,-0.36403,0.63052,0.51251,0.45525,
1403637255938318848,2.05587,1.03534,0.34625,-0.37671,0.61032,0.54369,0.43588,
1403637256138319104,1.95540,0.95531,0.38472,-0.38688,0.59449,0.56279,0.42448,
1403637256438318848,1.78847,0.83505,0.42748,-0.39638,0.58148,0.56623,0.42912,
1403637256838319104,1.54904,0.66631,0.40324,-0.39802,0.60487,0.55740,0.40622,
1403637257138319104,1.37322,0.55286,0.37510,-0.40509,0.58587,0.56769,0.41277,
1403637257438318848,1.20828,0.42538,0.40587,-0.40556,0.57290,0.58457,0.40691,
1403637257738318848,1.03824,0.31582,0.41988,-0.40224,0.57380,0.59394,0.39522,
1403637257938318848,0.91355,0.25310,0.40186,-0.40535,0.57089,0.60469,0.37963,
1403637258138319104,0.79020,0.21213,0.37622,-0.42061,0.55260,0.62062,0.36409,
1403637258238318848,0.73099,0.19658,0.37488,-0.43122,0.53428,0.62966,0.36350,
1403637258438318848,0.60570,0.18430,0.36536,-0.44898,0.51200,0.63877,0.35811,
1403637258638319104,0.48465,0.17218,0.33346,-0.45834,0.51095,0.64143,0.34266,
1403637259138319104,0.23759,0.15534,0.26385,-0.46706,0.50893,0.63489,0.34606,
1403637259538319104,0.11454,0.14470,0.31660,-0.47624,0.51787,0.62427,0.33955,
1403637260438318848,0.08668,0.08998,0.23220,-0.45143,0.49840,0.64266,0.36715,
1403637260638319104,0.09031,0.06540,0.18862,-0.44086,0.50600,0.65085,0.35495,
1403637261038319104,0.06047,0.03919,0.10457,-0.45781,0.50045,0.64074,0.35975,
1403637261238318848,0.03985,0.02134,0.06262,-0.44457,0.50862,0.65025,0.34762,
1403637261638319104,-0.01667,0.01057,0.02968,-0.44559,0.51323,0.64908,0.34167,
1403637261938318848,-0.06015,0.02930,0.04643,-0.45458,0.50637,0.64194,0.35336,
1403637262438318848,-0.09287,0.04543,-0.00060,-0.46690,0.51687,0.61690,0.36645,
1403637262538319104,-0.08527,0.03610,-0.00672,-0.48232,0.53132,0.59294,0.36535,
