1403638132695097088,-0.01523,-0.03440,0.38115,-0.46133,0.56549,0.53808,0.42174,
1403638133395097088,0.06108,-0.03212,0.30223,-0.42770,0.58079,0.53831,0.43586,
1403638133495096832,0.10743,-0.04041,0.28332,-0.41092,0.59269,0.52948,0.44667,
1403638133595097088,0.15559,-0.05378,0.27158,-0.40558,0.60795,0.51599,0.44683,
1403638133795097088,0.23153,-0.08935,0.24152,-0.38742,0.63368,0.49588,0.44996,
1403638133995096832,0.26231,-0.09497,0.21483,-0.36702,0.64446,0.48651,0.46182,
1403638134595097088,0.08360,0.08588,0.22328,-0.40066,0.64144,0.48870,0.43497,
1403638134895097088,-0.03590,0.12469,0.24352,-0.39759,0.64018,0.51272,0.41135,
1403638135695097088,-0.02892,0.07774,0.20406,-0.37197,0.63762,0.53145,0.41550,
1403638135995096832,0.06863,0.02122,0.20301,-0.34911,0.64614,0.53408,0.41879,
1403638136195097088,0.14897,-0.01838,0.23422,-0.36025,0.64777,0.50807,0.43872,
1403638136495096832,0.24710,-0.07674,0.22366,-0.34057,0.65486,0.50390,0.44862,
1403638136795097088,0.19812,-0.07235,0.25392,-0.36952,0.65972,0.49708,0.42560,
1403638136895097088,0.15994,-0.06470,0.26212,-0.39518,0.65556,0.49025,0.41681,
1403638137095097088,0.07524,-0.04479,0.23449,-0.42329,0.64697,0.48543,0.40818,
1403638137295097088,0.01604,-0.03824,0.15784,-0.40575,0.63911,0.51713,0.39934,
1403638137495096832,-0.01648,-0.03793,0.07811,-0.38458,0.63715,0.53813,0.39567,
1403638137795097088,-0.03410,-0.04558,0.00269,-0.35676,0.63933,0.54822,0.40428,
1403638137995096832,-0.03806,-0.04946,-0.02279,-0.33211,0.64144,0.56634,0.39689,
1403638138395097088,-0.03925,-0.05111,-0.03299,-0.35152,0.63628,0.54906,0.41246,
1403638147995096832,-0.03983,-0.02933,-0.03840,-0.36996,0.62647,0.53310,0.43182,
1403638148995096832,-0.02360,0.08407,0.18238,-0.37104,0.61515,0.55189,0.42349,
1403638149495096832,-0.06464,0.19535,0.34439,-0.38240,0.60775,0.54636,0.43117,
1403638149995096832,-0.11480,0.30937,0.39092,-0.38780,0.59523,0.56045,0.42568,
1403638150495096832,-0.22079,0.44057,0.33867,-0.37487,0.59323,0.57879,0.41539,
1403638150795097088,-0.33221,0.54754,0.34521,-0.38531,0.58447,0.59181,0.39962,
1403638150995096832,-0.41331,0.63556,0.36836,-0.39818,0.56703,0.59973,0.40031,
1403638151195097088,-0.50341,0.73028,0.36745,-0.41224,0.54269,0.61768,0.39245,
1403638151295097088,-0.55387,0.77555,0.35889,-0.42089,0.52904,0.63106,0.38043,
1403638151395097088,-0.60944,0.82381,0.34842,-0.43033,0.51386,0.64465,0.36770,
1403638151495096832,-0.66717,0.87311,0.34285,-0.44049,0.49851,0.65699,0.35471,
1403638151595097088,-0.72623,0.92211,0.34602,-0.44804,0.48545,0.66712,0.34431,
1403638151795097088,-0.84481,1.00825,0.37072,-0.45653,0.46801,0.67978,0.33234,
1403638152295097088,-1.16734,1.21507,0.47990,-0.45652,0.45806,0.68791,0.32945,
1403638152895097088,-1.66183,1.45875,0.47267,-0.46919,0.44859,0.69191,0.31604,
1403638153095097088,-1.84252,1.53544,0.50960,-0.47855,0.42911,0.70587,0.29766,
1403638153295097088,-2.01976,1.60878,0.54764,-0.47923,0.41528,0.71886,0.28481,
1403638153495096832,-2.20059,1.68457,0.56791,-0.48236,0.39146,0.73417,0.27402,
1403638153695097088,-2.38668,1.76252,0.60253,-0.48750,0.35834,0.75219,0.26104,
1403638153795097088,-2.47743,1.79442,0.61910,-0.49650,0.34401,0.75667,0.25018,
1403638153995096832,-2.69389,1.87915,0.63594,0.51241,-0.32630,-0.75818,-0.23692,
1403638154295097088,-3.03742,2.00243,0.62390,0.52724,-0.31353,-0.75235,-0.24020,
1403638154695097088,-3.49775,2.11342,0.59049,0.53689,-0.31097,-0.74788,-0.23605,
1403638154895097088,-3.71262,2.12939,0.60745,0.52902,-0.29685,-0.76106,-0.22979,
1403638155095097088,-3.92542,2.12808,0.65299,0.53245,-0.27671,-0.76838,-0.22251,
1403638155295097088,-4.14196,2.10808,0.69647,0.54426,-0.25981,-0.76884,-0.21254,
1403638155495096832,-4.34553,2.06691,0.71349,0.55325,-0.23826,-0.77088,-0.20709,
1403638155595097088,-4.44732,2.03516,0.71209,0.56015,-0.22944,-0.77200,-0.19394,
1403638155695097088,-4.55171,1.99968,0.70646,0.57037,-0.21784,-0.77164,-0.17832,
1403638155795097088,-4.65135,1.95805,0.69543,0.57588,-0.20321,-0.77494,-0.16293,
1403638155895097088,-4.75209,1.91017,0.67935,0.57673,-0.18732,-0.78178,-0.14531,
1403638155995096832,-4.83786,1.85773,0.66575,0.57080,-0.16932,-0.79358,-0.12548,
1403638156095097088,-4.91898,1.80477,0.66024,0.56359,-0.14963,-0.80548,-0.10577,
1403638156195097088,-4.99964,1.75261,0.66379,0.56236,-0.13295,-0.81140,-0.08778,
1403638156295097088,-5.08289,1.70234,0.67390,0.55883,-0.11661,-0.81779,-0.07298,
1403638156495096832,-5.25019,1.60847,0.68715,0.55279,-0.09742,-0.82592,-0.05275,
1403638157095097088,-5.81383,1.40284,0.62684,0.54788,-0.09473,-0.82966,-0.05014,
1403638157595097088,-6.38845,1.30661,0.65331,0.55619,-0.07735,-0.82575,-0.05299,
1403638157795097088,-6.63099,1.27291,0.65283,0.56738,-0.04235,-0.82130,-0.04195,
1403638157895097088,-6.74675,1.25417,0.66394,0.57029,-0.02450,-0.82064,-0.02679,
1403638158095097088,-6.98674,1.20988,0.69771,0.56859,0.00108,-0.82262,0.00252,
1403638158295097088,-7.22107,1.16934,0.71389,0.56847,0.01224,-0.82236,0.02018,
1403638158895097088,-7.91771,1.04035,0.68984,0.56405,0.01459,-0.82540,0.01861,
1403638159495096832,-8.65080,0.93280,0.75627,0.57726,-0.00071,-0.81615,0.02573,
1403638159595097088,-8.78109,0.92643,0.77181,0.59347,-0.00922,-0.80391,0.03808,
1403638159895097088,-9.11890,0.95052,0.86121,0.60620,-0.00824,-0.79428,0.03970,
1403638160395097088,-9.49667,1.09710,1.16876,0.56272,0.01351,-0.82635,0.01758,
1403638160795097088,-9.76476,1.22104,1.43923,0.56478,0.00773,-0.82487,0.02351,
1403638160995096832,-9.90947,1.29483,1.54971,0.58817,-0.01704,-0.80830,0.02022,
1403638161195097088,-10.04822,1.38313,1.64710,0.58980,-0.04915,-0.80603,-0.00592,
1403638161295097088,-10.10480,1.43367,1.68936,0.58507,-0.06979,-0.80764,-0.02323,
1403638161395097088,-10.15048,1.48343,1.73143,0.57714,-0.08959,-0.81079,-0.03877,
1403638161595097088,-10.23007,1.58620,1.80650,0.56019,-0.11513,-0.81822,-0.05871,
1403638161895097088,-10.37449,1.75255,1.88070,0.56482,-0.13958,-0.81048,-0.06798,
1403638162095097088,-10.46158,1.87748,1.92191,0.56585,-0.15374,-0.80620,-0.07886,
1403638162595097088,-10.67441,2.24911,2.04842,0.56273,-0.16658,-0.80576,-0.07966,
1403638162995096832,-10.82637,2.62128,2.20683,0.56774,-0.17530,-0.79996,-0.08371,
1403638163195097088,-10.88513,2.83149,2.27465,0.57521,-0.18790,-0.79056,-0.09407,
1403638163395097088,-10.92620,3.05055,2.28899,0.56686,-0.20579,-0.78832,-0.12191,
1403638163595097088,-10.95485,3.27029,2.29886,0.56108,-0.22779,-0.78333,-0.14032,
1403638163795097088,-10.97514,3.48673,2.33932,0.55925,-0.23582,-0.78042,-0.15024,
1403638164195097088,-10.98902,3.91165,2.51433,0.56319,-0.24666,-0.77703,-0.13492,
1403638164595097088,-10.92961,4.36013,2.66112,0.57076,-0.24590,-0.77327,-0.12576,
1403638164795097088,-10.86537,4.59353,2.70537,0.56927,-0.24857,-0.77071,-0.14195,
1403638164895097088,-10.81839,4.71380,2.71785,0.56893,-0.24277,-0.76904,-0.16112,
1403638165095097088,-10.72991,4.93594,2.74072,0.57738,-0.25502,-0.75773,-0.16564,
1403638165295097088,-10.61993,5.14244,2.73508,0.55899,-0.27482,-0.76542,-0.16165,
1403638165495096832,-10.49385,5.35507,2.71752,0.55793,-0.28503,-0.76201,-0.16372,
1403638165695097088,-10.35392,5.56565,2.68469,0.57617,-0.27663,-0.74650,-0.18504,
1403638165895097088,-10.19114,5.76188,2.63317,0.56766,-0.27442,-0.75244,-0.19049,
1403638166095097088,-10.01110,5.94351,2.60277,0.54781,-0.27579,-0.76751,-0.18648,
1403638166295097088,-9.83483,6.11564,2.62878,0.54080,-0.26973,-0.77426,-0.18788,
1403638166595097088,-9.59405,6.34284,2.77197,0.53926,-0.26374,-0.77739,-0.18789,
1403638166895097088,-9.37838,6.55490,2.86104,0.53222,-0.28130,-0.78283,-0.15746,
1403638167095097088,-9.25461,6.70653,2.88909,0.51482,-0.28615,-0.79405,-0.15021,
1403638167295097088,-9.14920,6.89445,2.93895,0.51285,-0.27773,-0.79590,-0.16247,
1403638167495096832,-9.07170,7.10933,3.00477,0.51915,-0.27703,-0.79141,-0.16552,
1403638167695097088,-9.01310,7.33441,3.05016,0.53484,-0.28718,-0.77815,-0.16111,
1403638167895097088,-8.95795,7.57468,3.07012,0.53930,-0.31309,-0.76430,-0.16423,
1403638167995096832,-8.92441,7.70194,3.07461,0.53807,-0.32631,-0.75785,-0.17224,
1403638168095097088,-8.88842,7.83556,3.08191,0.53749,-0.33769,-0.75161,-0.17930,
1403638168195097088,-8.84490,7.96987,3.09633,0.53518,-0.34723,-0.74656,-0.18884,
1403638168295097088,-8.79522,8.10321,3.11688,0.52898,-0.35645,-0.74309,-0.20231,
1403638168395097088,-8.73973,8.24532,3.14530,0.52533,-0.36699,-0.73672,-0.21584,
1403638168495096832,-8.68277,8.38843,3.17621,0.51566,-0.37355,-0.73596,-0.23005,
1403638168595097088,-8.62632,8.53091,3.20045,0.50127,-0.37661,-0.74046,-0.24210,
1403638168795097088,-8.52883,8.81719,3.22745,-0.48437,0.37913,0.74593,0.25539,
1403638169095097088,-8.43497,9.25485,3.22809,-0.49008,0.37537,0.74337,0.25751,
1403638169295097088,-8.39860,9.55014,3.20398,0.51236,-0.38121,-0.72963,-0.24456,
1403638169495096832,-8.35768,9.85023,3.16562,0.53482,-0.40627,-0.70089,-0.24013,
1403638169595097088,-8.32431,10.00267,3.15351,0.53468,-0.41768,-0.69071,-0.25015,
1403638169695097088,-8.28068,10.14893,3.14660,0.52451,-0.42838,-0.68568,-0.26688,
1403638169795097088,-8.22721,10.28938,3.14693,0.51100,-0.43880,-0.68083,-0.28776,
1403638169895097088,-8.16725,10.42419,3.15601,-0.49471,0.44825,0.67592,0.31221,
1403638169995096832,-8.10886,10.55824,3.17394,-0.48598,0.45589,0.66431,0.33865,
1403638170095097088,-8.05318,10.68510,3.19386,-0.48321,0.46929,0.64782,0.35581,
1403638170195097088,-7.99794,10.80198,3.20644,-0.47854,0.48892,0.63185,0.36431,
1403638170295097088,-7.94205,10.91197,3.21097,-0.47300,0.51010,0.61601,0.36960,
1403638170395097088,-7.88475,11.01333,3.20816,-0.46328,0.53148,0.60242,0.37414,
1403638170495096832,-7.82481,11.11102,3.20188,-0.45434,0.55160,0.58833,0.37838,
1403638170595097088,-7.76117,11.20308,3.19970,-0.45271,0.56908,0.56956,0.38315,
1403638170695097088,-7.69148,11.29024,3.20640,-0.44968,0.58193,0.55152,0.39367,
1403638170795097088,-7.61461,11.36544,3.21916,-0.44206,0.59417,0.53750,0.40328,
1403638170895097088,-7.53105,11.43231,3.23375,-0.43173,0.60566,0.52543,0.41317,
1403638170995096832,-7.44156,11.48891,3.24207,-0.42116,0.61687,0.51279,0.42325,
1403638171095097088,-7.34882,11.53730,3.24458,-0.41406,0.62630,0.49942,0.43231,
1403638171295097088,-7.15516,11.60864,3.24213,-0.40706,0.63803,0.48074,0.44284,
1403638171495096832,-6.94633,11.64125,3.23163,-0.40525,0.64419,0.46772,0.44948,
1403638171695097088,-6.71771,11.63987,3.21528,-0.40632,0.65180,0.45090,0.45470,
1403638171895097088,-6.46705,11.58981,3.19725,-0.40580,0.66090,0.43070,0.46155,
1403638172095097088,-6.19008,11.48934,3.20283,-0.39655,0.66125,0.42385,0.47523,
1403638172295097088,-5.89874,11.33797,3.20109,-0.38977,0.66300,0.42400,0.47826,
1403638172595097088,-5.44622,11.04013,3.12154,-0.39624,0.65902,0.42193,0.48027,
1403638172895097088,-4.96991,10.64935,2.97598,-0.40533,0.65720,0.42385,0.47345,
1403638173095097088,-4.62836,10.32696,2.85827,-0.40993,0.66328,0.42855,0.45647,
1403638173295097088,-4.26970,9.96696,2.71657,-0.39979,0.66380,0.44063,0.45319,
1403638173495096832,-3.88980,9.58299,2.54897,-0.37582,0.65700,0.45907,0.46514,
1403638173695097088,-3.51937,9.19509,2.35486,-0.36613,0.65387,0.46474,0.47161,
1403638173895097088,-3.14637,8.79907,2.15766,-0.36350,0.65637,0.46517,0.46975,
1403638174095097088,-2.79290,8.39073,1.98563,-0.36439,0.65728,0.46397,0.46897,
1403638174295097088,-2.45326,7.97353,1.82073,-0.35567,0.66313,0.47085,0.46049,
1403638174495096832,-2.12688,7.56869,1.64118,-0.35029,0.66726,0.47620,0.45310,
1403638174695097088,-1.80210,7.18344,1.47660,-0.33950,0.67014,0.48488,0.44782,
1403638174895097088,-1.48588,6.82303,1.33871,-0.33142,0.67278,0.49091,0.44333,
1403638175095097088,-1.17411,6.49690,1.22470,-0.33030,0.67319,0.49057,0.44392,
1403638175295097088,-0.86179,6.19369,1.13121,-0.32461,0.67404,0.49213,0.44509,
1403638175495096832,-0.55980,5.92408,1.06383,-0.30791,0.68058,0.50171,0.43622,
1403638175695097088,-0.27056,5.71014,1.02957,-0.29251,0.69091,0.51199,0.41827,
1403638175895097088,0.00816,5.56039,0.99831,-0.28533,0.69328,0.51815,0.41167,
1403638176095097088,0.28025,5.48001,0.93949,-0.28705,0.67612,0.52140,0.43429,
1403638176195097088,0.41357,5.45940,0.91666,-0.30356,0.66332,0.51227,0.45326,
1403638176395097088,0.64890,5.44285,0.88712,-0.32448,0.65195,0.49819,0.47062,
1403638176795097088,1.01786,5.45173,0.89361,-0.32064,0.65400,0.49939,0.46913,
1403638177395097088,1.37567,5.55890,0.91815,-0.31540,0.65472,0.50234,0.46853,
1403638177895097088,1.54245,5.71923,0.80724,-0.35457,0.67088,0.46559,0.45543,
1403638178195097088,1.65810,5.80328,0.76486,-0.34950,0.67017,0.44890,0.47667,
1403638178395097088,1.74936,5.82852,0.77673,-0.33460,0.68552,0.41971,0.49189,
1403638178495096832,1.79561,5.83040,0.78432,-0.32243,0.69939,0.40196,0.49529,
1403638178595097088,1.84280,5.82583,0.78576,-0.30794,0.71587,0.38419,0.49507,
1403638178695097088,1.89092,5.81658,0.78203,-0.29548,0.72959,0.36525,0.49697,
1403638178795097088,1.94071,5.80177,0.77489,-0.28294,0.73994,0.34699,0.50203,
1403638178895097088,1.99235,5.78354,0.76335,-0.26858,0.75020,0.33404,0.50347,
1403638179095097088,2.09962,5.74159,0.72857,-0.24401,0.76591,0.32321,0.49937,
1403638179295097088,2.22471,5.70042,0.67788,-0.21950,0.77574,0.31642,0.49992,
1403638179495096832,2.36762,5.67205,0.62065,-0.20651,0.77971,0.28684,0.51685,
1403638179595097088,2.44723,5.66181,0.58897,-0.19971,0.78157,0.26579,0.52784,
1403638179695097088,2.52716,5.65040,0.55858,-0.18975,0.78530,0.24510,0.53594,
1403638179795097088,2.60538,5.63651,0.53552,-0.17668,0.79030,0.22502,0.54182,
1403638179895097088,2.68373,5.62012,0.52056,-0.16299,0.79550,0.20569,0.54617,
1403638179995096832,2.76134,5.60101,0.50995,-0.15029,0.80375,0.19116,0.54301,
1403638180195097088,2.92185,5.56650,0.49815,-0.13704,0.81278,0.17206,0.53945,
1403638180595097088,3.27527,5.49333,0.43840,-0.12462,0.81496,0.17141,0.53938,
1403638181295097088,4.03247,5.41332,0.36565,-0.14694,0.81018,0.17397,0.54014,
1403638181495096832,4.28351,5.38333,0.31790,-0.14863,0.80684,0.14113,0.55408,
1403638181595097088,4.41115,5.35629,0.29425,-0.14375,0.80084,0.11788,0.56929,
1403638181695097088,4.53154,5.31990,0.27371,-0.12610,0.80145,0.10134,0.57577,
1403638181795097088,4.64460,5.27835,0.26017,-0.10456,0.80568,0.08670,0.57656,
1403638181895097088,4.75490,5.23051,0.25662,-0.08053,0.81153,0.07428,0.57395,
1403638181995096832,4.86937,5.18065,0.25759,-0.06510,0.81754,0.06084,0.56893,
1403638182195097088,5.09199,5.07976,0.27655,-0.04984,0.82831,0.04179,0.55648,
1403638182495096832,5.42709,4.92126,0.30215,-0.04726,0.83734,0.03195,0.54370,
1403638182695097088,5.67240,4.80877,0.34876,-0.03445,0.83902,0.04546,0.54111,
1403638182895097088,5.92515,4.70258,0.40344,-0.03938,0.83581,0.04820,0.54547,
1403638183095097088,6.19490,4.60060,0.43816,-0.04315,0.82564,0.05111,0.56021,
1403638183395097088,6.60181,4.45615,0.45275,-0.03660,0.83105,0.05953,0.55179,
1403638183695097088,7.02263,4.33652,0.44112,-0.03107,0.83324,0.06406,0.54831,
1403638183895097088,7.32065,4.27943,0.45359,-0.03049,0.81919,0.06447,0.56907,
1403638184195097088,7.73667,4.22354,0.51442,-0.03073,0.82867,0.06197,0.55545,
1403638184495096832,8.15635,4.20143,0.55191,-0.02896,0.82592,0.06121,0.55970,
1403638184795097088,8.58251,4.21578,0.57631,-0.03072,0.82304,0.05876,0.56410,
1403638185195097088,9.12887,4.27026,0.61696,-0.02719,0.82280,0.06052,0.56444,
1403638185495096832,9.52841,4.35530,0.65748,-0.02135,0.81608,0.07731,0.57234,
1403638185695097088,9.78554,4.43681,0.68749,-0.03596,0.80900,0.09994,0.57813,
1403638185895097088,10.02191,4.53982,0.71312,-0.07509,0.81394,0.09530,0.56813,
1403638186295097088,10.47014,4.72509,0.72489,-0.07609,0.81912,0.10644,0.55851,
1403638186895097088,11.13770,5.00964,0.77275,-0.05603,0.81487,0.13182,0.56167,
1403638187095097088,11.35235,5.14640,0.77562,-0.08616,0.80816,0.15944,0.56039,
1403638187195097088,11.46216,5.22551,0.79100,-0.11082,0.79955,0.17703,0.56311,
1403638187295097088,11.56627,5.30497,0.81276,-0.13416,0.78856,0.19720,0.56681,
1403638187395097088,11.66642,5.38274,0.84112,-0.15239,0.77830,0.21557,0.56969,
1403638187595097088,11.83752,5.52192,0.90372,-0.17064,0.77147,0.24125,0.56348,
1403638188095097088,12.17878,5.85130,1.00199,-0.15418,0.76433,0.26342,0.56801,
1403638188395097088,12.29901,6.06028,1.01450,-0.17222,0.74523,0.24477,0.59587,
1403638188795097088,12.28344,6.28224,1.01279,-0.19153,0.74212,0.24567,0.59349,
1403638189095097088,12.13685,6.37043,1.09091,-0.20116,0.74794,0.26553,0.57412,
1403638189295097088,12.00391,6.40750,1.14941,-0.22246,0.74306,0.28955,0.56083,
1403638189395097088,11.92603,6.41177,1.16822,-0.22836,0.74507,0.30720,0.54622,
1403638189495096832,11.84975,6.41563,1.18556,-0.23039,0.74950,0.32332,0.52974,
1403638189695097088,11.70117,6.42293,1.24246,-0.23640,0.75445,0.33958,0.50951,
1403638189895097088,11.56926,6.43573,1.28830,-0.23531,0.76277,0.34632,0.49283,
1403638190295097088,11.36591,6.49546,1.30601,-0.23615,0.73817,0.34585,0.52890,
1403638190595097088,11.20349,6.56612,1.26447,-0.23424,0.71603,0.37230,0.54206,
1403638190795097088,11.05357,6.61875,1.23107,-0.24736,0.71667,0.37446,0.53384,
1403638190995096832,10.88138,6.67169,1.22404,-0.26068,0.72098,0.37067,0.52425,
1403638191295097088,10.60749,6.72180,1.26639,-0.25871,0.72982,0.37296,0.51121,
1403638191795097088,10.15564,6.80301,1.33347,-0.24046,0.73322,0.38088,0.50941,
1403638192195097088,9.80724,6.95792,1.35120,-0.24048,0.73248,0.37981,0.51126,
1403638192395097088,9.64999,7.08886,1.41727,-0.25112,0.72698,0.37299,0.51896,
1403638192695097088,9.36705,7.24559,1.54318,-0.26258,0.71661,0.36486,0.53330,
1403638192895097088,9.16955,7.34092,1.61442,-0.27866,0.70675,0.35269,0.54632,
1403638193095097088,8.96040,7.39833,1.67401,-0.30601,0.69880,0.33964,0.55016,
1403638193295097088,8.74276,7.39940,1.75042,-0.29985,0.70200,0.36316,0.53422,
1403638193595097088,8.40651,7.31914,1.90418,-0.29309,0.69539,0.38277,0.53294,
1403638193795097088,8.17388,7.22425,1.97472,-0.28629,0.70827,0.39089,0.51342,
1403638194295097088,7.58494,6.95127,2.04976,-0.28736,0.70572,0.38716,0.51913,
1403638194595097088,7.22228,6.76846,2.07403,-0.28030,0.71851,0.38996,0.50309,
1403638194895097088,6.87631,6.57773,2.11269,-0.26740,0.73010,0.39605,0.48846,
1403638195295097088,6.47434,6.38725,2.09836,-0.25726,0.74408,0.40174,0.46772,
1403638195595097088,6.23859,6.31763,2.04764,-0.26999,0.73029,0.39318,0.48908,
1403638195995096832,5.98951,6.28266,1.99587,-0.26477,0.73734,0.39801,0.47729,
1403638196395097088,5.77668,6.31048,2.05243,-0.27322,0.72649,0.39279,0.49323,
1403638196795097088,5.62825,6.39862,2.05324,-0.26451,0.74012,0.39569,0.47506,
1403638197195097088,5.55306,6.54836,2.03411,-0.27118,0.72766,0.39075,0.49425,
1403638197595097088,5.49623,6.72371,2.11685,-0.26559,0.71237,0.39494,0.51576,
1403638197995096832,5.38148,6.89958,2.23367,-0.28251,0.70451,0.38457,0.52532,
1403638198495096832,5.15869,7.05893,2.11412,-0.26986,0.71114,0.39390,0.51604,
1403638198795097088,4.98560,7.13739,1.98539,-0.23685,0.68882,0.41692,0.54369,
1403638199095097088,4.70031,7.23434,1.92355,-0.23775,0.69137,0.41638,0.54047,
1403638199395097088,4.29667,7.36128,1.94794,-0.24402,0.68902,0.41047,0.54519,
1403638199595097088,3.98268,7.44784,2.00497,-0.23439,0.69006,0.41859,0.54191,
1403638199695097088,3.80688,7.49777,2.04305,-0.24179,0.68902,0.42316,0.53639,
1403638199795097088,3.62484,7.54727,2.08299,-0.25664,0.69317,0.42283,0.52428,
1403638199895097088,3.43581,7.59845,2.11902,-0.26808,0.69667,0.42256,0.51402,
1403638200095097088,3.04313,7.70710,2.17343,-0.27943,0.69302,0.43175,0.50520,
1403638200195097088,2.84860,7.75740,2.19757,-0.28351,0.68127,0.44388,0.50840,
1403638200295097088,2.64985,7.80503,2.22631,-0.29538,0.66775,0.45380,0.51081,
1403638200395097088,2.44089,7.85254,2.26062,-0.30678,0.65524,0.46427,0.51089,
1403638200495096832,2.22877,7.89675,2.30125,-0.30759,0.64510,0.47857,0.51010,
1403638200595097088,2.01019,7.93828,2.34840,-0.30876,0.63682,0.49172,0.50729,
1403638200695097088,1.78316,7.97699,2.40111,-0.30901,0.62561,0.50669,0.50635,
1403638200795097088,1.54699,8.01293,2.45365,-0.31042,0.62047,0.51786,0.50047,
1403638200895097088,1.30284,8.04604,2.50144,-0.31426,0.61992,0.52333,0.49301,
1403638200995096832,1.05188,8.07943,2.54275,-0.32741,0.62382,0.51974,0.48324,
1403638201095097088,0.79766,8.10856,2.57633,-0.33787,0.62694,0.51535,0.47666,
1403638201295097088,0.28157,8.16666,2.62162,-0.34471,0.63094,0.50972,0.47252,
1403638201495096832,-0.23570,8.21663,2.63874,-0.34290,0.63149,0.50757,0.47541,
1403638201695097088,-0.75441,8.25785,2.62475,-0.34306,0.63057,0.50383,0.48046,
1403638201895097088,-1.27894,8.29007,2.58142,-0.34283,0.63192,0.50210,0.48066,
1403638202095097088,-1.81478,8.30120,2.53812,-0.35261,0.62903,0.50863,0.47041,
1403638202195097088,-2.08596,8.29868,2.52354,-0.35829,0.63164,0.51119,0.45972,
1403638202295097088,-2.35377,8.29369,2.51475,-0.35953,0.63448,0.51538,0.45007,
1403638202495096832,-2.86922,8.28944,2.50649,-0.36212,0.63427,0.51918,0.44388,
1403638202695097088,-3.35606,8.28905,2.46882,-0.36388,0.63741,0.51900,0.43812,
1403638202895097088,-3.83104,8.30198,2.42877,-0.36303,0.63555,0.51867,0.44188,
1403638203195097088,-4.50160,8.31263,2.36321,-0.36516,0.63274,0.51585,0.44743,
1403638203395097088,-4.92978,8.32401,2.35335,-0.36932,0.63017,0.51297,0.45095,
1403638203695097088,-5.54233,8.31591,2.31495,-0.37101,0.63392,0.51165,0.44576,
1403638203995096832,-6.12169,8.28296,2.32055,-0.37039,0.63257,0.51339,0.44621,
1403638204195097088,-6.47481,8.25739,2.36019,-0.37077,0.63807,0.51504,0.43603,
1403638204395097088,-6.79603,8.23852,2.42610,-0.37636,0.65409,0.50984,0.41302,
1403638204695097088,-7.22127,8.20884,2.49850,-0.38144,0.65217,0.51136,0.40950,
1403638204895097088,-7.46050,8.19047,2.50581,-0.38058,0.62147,0.54316,0.41703,
1403638204995096832,-7.56759,8.18071,2.49667,-0.38705,0.60060,0.56442,0.41341,
1403638205095097088,-7.66815,8.17329,2.48253,-0.39815,0.57557,0.58893,0.40418,
1403638205195097088,-7.77843,8.16902,2.47065,-0.41664,0.54816,0.61336,0.38695,
1403638205295097088,-7.89289,8.16159,2.46475,-0.43634,0.51629,0.63872,0.36755,
1403638205395097088,-8.00805,8.15626,2.46710,-0.45699,0.48170,0.66152,0.34859,
1403638205495096832,-8.12371,8.15268,2.47835,-0.47151,0.44706,0.68136,0.33699,
1403638205595097088,-8.24052,8.14461,2.49599,-0.47871,0.41718,0.69674,0.33369,
1403638205695097088,-8.35255,8.12746,2.51934,-0.48521,0.39254,0.70513,0.33656,
1403638205795097088,-8.46794,8.10282,2.54989,-0.49144,0.37491,0.71184,0.33348,
1403638205895097088,-8.58930,8.06639,2.58480,-0.49660,0.36018,0.72082,0.32261,
1403638205995096832,-8.71605,8.02072,2.62479,0.50509,-0.34629,-0.72932,-0.30506,
1403638206095097088,-8.84618,7.96576,2.67171,0.51309,-0.33010,-0.73781,-0.28879,
1403638206195097088,-8.97616,7.90214,2.72220,0.52204,-0.31279,-0.74454,-0.27440,
1403638206295097088,-9.10850,7.83164,2.76935,0.53162,-0.29734,-0.74938,-0.25961,
1403638206395097088,-9.23849,7.75472,2.81060,0.54189,-0.29023,-0.75099,-0.24111,
1403638206495096832,-9.36589,7.67419,2.84620,0.55020,-0.28566,-0.75039,-0.22933,
1403638206595097088,-9.49141,7.58918,2.87423,0.55535,-0.28239,-0.74971,-0.22310,
1403638206695097088,-9.61064,7.49996,2.89570,0.56007,-0.27863,-0.74937,-0.21709,
1403638206795097088,-9.72604,7.40684,2.90947,0.56169,-0.27201,-0.75263,-0.20990,
1403638206995096832,-9.94294,7.21367,2.91798,0.56899,-0.26224,-0.75278,-0.20201,
1403638207195097088,-10.12979,7.00833,2.89872,0.57528,-0.25754,-0.75058,-0.19835,
1403638207395097088,-10.28229,6.78399,2.85049,0.58425,-0.23999,-0.75219,-0.18779,
1403638207495096832,-10.34507,6.65881,2.82810,0.58974,-0.22392,-0.75531,-0.17770,
1403638207595097088,-10.39886,6.52960,2.81088,0.58870,-0.20931,-0.76316,-0.16498,
1403638207695097088,-10.44169,6.39816,2.79818,0.58252,-0.20179,-0.77311,-0.14915,
1403638207795097088,-10.47779,6.26747,2.79459,0.57848,-0.19717,-0.77954,-0.13710,
1403638207895097088,-10.50849,6.13776,2.79914,0.57137,-0.19570,-0.78666,-0.12807,
1403638208095097088,-10.56095,5.89322,2.82106,0.56843,-0.19351,-0.78979,-0.12521,
1403638208395097088,-10.61112,5.54886,2.81444,0.57189,-0.19643,-0.78598,-0.12878,
1403638208595097088,-10.62893,5.32463,2.79295,0.56653,-0.18849,-0.79285,-0.12209,
1403638208795097088,-10.63886,5.10484,2.79798,0.57067,-0.17191,-0.79585,-0.10680,
1403638208995096832,-10.63067,4.90905,2.80199,0.57447,-0.15847,-0.79660,-0.10149,
1403638209295097088,-10.60546,4.62453,2.76580,0.57522,-0.15426,-0.79768,-0.09499,
1403638209695097088,-10.53252,4.26900,2.60254,0.57867,-0.15760,-0.79474,-0.09322,
1403638210295097088,-10.33776,3.78526,2.04883,0.59725,-0.15171,-0.78033,-0.10656,
1403638210695097088,-10.06973,3.46563,1.68234,0.59918,-0.15469,-0.77842,-0.10537,
1403638210995096832,-9.80176,3.21110,1.42174,0.59086,-0.15836,-0.78460,-0.10106,
1403638211295097088,-9.48113,2.98107,1.23297,0.58149,-0.16178,-0.79142,-0.09670,
1403638211595097088,-9.13859,2.78044,1.06643,0.57688,-0.19291,-0.78551,-0.11391,
1403638211795097088,-8.89710,2.66266,0.94066,0.57227,-0.23698,-0.77342,-0.13479,
1403638211895097088,-8.76983,2.60728,0.87052,0.56816,-0.26351,-0.76594,-0.14524,
1403638211995096832,-8.63437,2.55849,0.81317,0.56301,-0.28727,-0.75829,-0.15964,
1403638212095097088,-8.49482,2.51600,0.76229,0.55768,-0.30817,-0.75046,-0.17561,
1403638212195097088,-8.35483,2.47965,0.72011,0.55160,-0.32617,-0.74264,-0.19451,
1403638212295097088,-8.20781,2.44151,0.68402,0.54534,-0.34576,-0.73387,-0.21094,
1403638212395097088,-8.05601,2.40375,0.65471,0.53815,-0.36371,-0.72523,-0.22837,
1403638212495096832,-7.90238,2.36903,0.63447,0.53225,-0.38285,-0.71487,-0.24311,
1403638212595097088,-7.74364,2.33612,0.62225,0.52480,-0.40257,-0.70495,-0.25609,
1403638212695097088,-7.58170,2.30386,0.61629,0.51719,-0.42276,-0.69410,-0.26837,
1403638212795097088,-7.41717,2.27266,0.61872,0.50813,-0.44152,-0.68297,-0.28359,
1403638212895097088,-7.24757,2.24113,0.62390,-0.49926,0.46282,0.66997,0.29610,
1403638212995096832,-7.07597,2.21059,0.63393,-0.48820,0.48375,0.65664,0.31060,
1403638213095097088,-6.90313,2.18315,0.65082,-0.47795,0.50555,0.64097,0.32425,
1403638213195097088,-6.72930,2.15828,0.66627,-0.46601,0.53038,0.62526,0.33254,
1403638213295097088,-6.55347,2.13796,0.67634,-0.45253,0.55808,0.60953,0.33502,
1403638213395097088,-6.37487,2.12352,0.68085,-0.43964,0.58572,0.59225,0.33598,
1403638213495096832,-6.19051,2.11477,0.68097,-0.43007,0.61031,0.57239,0.33901,
1403638213595097088,-5.99853,2.11146,0.67723,-0.42095,0.62283,0.55588,0.35481,
1403638213695097088,-5.80114,2.11110,0.67440,-0.41405,0.62105,0.54507,0.38179,
1403638213795097088,-5.60078,2.11232,0.67615,-0.40726,0.61665,0.53963,0.40334,
1403638213895097088,-5.40134,2.11474,0.68461,-0.40239,0.61493,0.53710,0.41410,
1403638214095097088,-5.00354,2.11461,0.71379,-0.39088,0.61805,0.54313,0.41259,
1403638214295097088,-4.61082,2.11985,0.75304,-0.38079,0.62300,0.55549,0.39787,
1403638214595097088,-4.03546,2.16482,0.77485,-0.38881,0.61101,0.56107,0.40087,
1403638214795097088,-3.66302,2.20682,0.75940,-0.40304,0.59796,0.55760,0.41121,
1403638215095097088,-3.13304,2.26177,0.70064,-0.40898,0.58981,0.55888,0.41534,
1403638215295097088,-2.79398,2.29073,0.64214,-0.40306,0.58982,0.56361,0.41472,
1403638215495096832,-2.46819,2.31792,0.58572,-0.39687,0.58641,0.56765,0.42000,
1403638215795097088,-2.01750,2.34593,0.55292,-0.40265,0.58814,0.56215,0.41946,
1403638215995096832,-1.74368,2.35329,0.52120,-0.40080,0.59543,0.55433,0.42135,
1403638216295097088,-1.35718,2.35049,0.47188,-0.39580,0.59776,0.54996,0.42845,
1403638216595097088,-1.00421,2.33139,0.46612,-0.39339,0.59708,0.54911,0.43268,
1403638216895097088,-0.69043,2.29347,0.41984,-0.38820,0.59603,0.54623,0.44236,
1403638217095097088,-0.50096,2.25436,0.37315,-0.38084,0.61408,0.52850,0.44560,
1403638217295097088,-0.33099,2.20486,0.31789,-0.36640,0.63285,0.51338,0.44910,
1403638217495096832,-0.18673,2.15061,0.27970,-0.35575,0.64057,0.50755,0.45333,
1403638217795097088,0.01812,2.06919,0.30536,-0.33645,0.63632,0.51619,0.46417,
1403638219195097088,0.17208,1.74461,0.40419,-0.35681,0.66000,0.48430,0.45005,
1403638219495096832,0.15609,1.67450,0.37776,-0.35980,0.64117,0.47774,0.48084,
1403638219895097088,0.09622,1.49753,0.39108,-0.36845,0.65857,0.47271,0.45505,
1403638220395097088,0.06797,1.22344,0.34467,-0.34257,0.65529,0.49040,0.46124,
1403638221495096832,-0.01936,0.64312,0.32488,-0.33820,0.66658,0.48450,0.45449,
1403638223295097088,-0.17600,0.05305,0.21912,-0.33567,0.67258,0.48630,0.44550,
1403638225595097088,-0.20814,-0.11252,0.02876,-0.35099,0.64824,0.47849,0.47710,
1403638225895097088,-0.22124,-0.11721,-0.04735,-0.33720,0.65890,0.48865,0.46192,
1403638226195097088,-0.24525,-0.09724,-0.08384,-0.33722,0.67806,0.49311,0.42820,
