1403715524962142976,-0.00003,0.00003,-0.00003,0.03915,0.81368,-0.02770,0.57933,0.00212,0.00618,-0.00258,
1403715525062142976,-0.00023,0.00040,-0.00043,0.03925,0.81357,-0.02772,0.57948,-0.00307,-0.00745,-0.00262,
1403715525162142976,-0.00043,0.00021,-0.00062,0.03899,0.81357,-0.02769,0.57950,-0.00164,-0.00450,-0.00079,
1403715525262142976,-0.00027,-0.00015,-0.00063,0.03894,0.81358,-0.02794,0.57947,0.00143,0.00561,-0.00053,
1403715525362142976,-0.00001,-0.00022,-0.00070,0.03897,0.81371,-0.02793,0.57929,0.00079,0.00080,-0.00110,
1403715525462142976,-0.00001,-0.00001,-0.00084,0.03895,0.81381,-0.02791,0.57916,-0.00214,-0.01042,-0.00151,
1403715525562142976,0.00005,0.00003,-0.00100,0.03907,0.81383,-0.02801,0.57911,-0.00141,-0.00880,-0.00236,
1403715525662142976,0.00024,-0.00050,-0.00093,0.03943,0.81391,-0.02818,0.57896,-0.00158,-0.00511,-0.00162,
1403715525762142976,0.00022,-0.00042,-0.00082,0.03936,0.81387,-0.02780,0.57904,-0.00078,-0.00291,-0.00197,
1403715525862142976,0.00006,-0.00002,-0.00101,0.03933,0.81386,-0.02764,0.57907,-0.00311,-0.00884,-0.00233,
1403715525962142976,-0.00021,0.00009,-0.00083,0.03934,0.81373,-0.02752,0.57926,-0.00232,-0.00257,-0.00213,
1403715526062142976,-0.00024,-0.00006,-0.00069,0.03923,0.81368,-0.02742,0.57934,-0.00110,-0.00161,-0.00189,
1403715526162142976,-0.00017,0.00002,-0.00059,0.03925,0.81368,-0.02747,0.57934,-0.00182,0.00079,-0.00304,
1403715526262142976,-0.00019,-0.00001,-0.00073,0.03921,0.81373,-0.02751,0.57927,-0.00192,0.00117,0.00017,
1403715526362142976,-0.00010,0.00005,-0.00050,0.03918,0.81376,-0.02749,0.57923,-0.00224,0.00376,-0.00084,
1403715526462142976,-0.00028,0.00011,-0.00074,0.03910,0.81372,-0.02744,0.57929,-0.00417,0.00020,0.00063,
1403715526562142976,-0.00028,-0.00004,-0.00068,0.03896,0.81370,-0.02743,0.57933,-0.00403,0.00177,-0.00032,
1403715526662142976,-0.00021,0.00004,-0.00078,0.03892,0.81373,-0.02738,0.57929,-0.00377,0.00317,-0.00023,
1403715526762142976,-0.00025,-0.00002,-0.00051,0.03880,0.81374,-0.02732,0.57929,-0.00442,0.00174,0.00161,
1403715526862142976,-0.00024,0.00002,-0.00052,0.03866,0.81375,-0.02722,0.57929,-0.00469,0.00341,0.00241,
1403715526962142976,0.00023,-0.00015,0.00017,0.03860,0.81382,-0.02730,0.57919,-0.00173,-0.00145,-0.00227,
1403715527062142976,0.00034,0.00030,0.00003,0.03867,0.81377,-0.02737,0.57925,-0.00568,0.00213,0.00045,
1403715527162142976,0.00004,0.00002,-0.00035,0.03852,0.81370,-0.02722,0.57937,-0.00370,0.00181,-0.00163,
1403715527262142976,-0.00003,-0.00027,-0.00046,0.03844,0.81375,-0.02704,0.57931,-0.00656,0.00179,-0.00090,
1403715527362142976,0.00032,0.00015,0.00073,0.03845,0.81381,-0.02722,0.57922,0.00107,-0.00197,0.00197,
1403715527462142976,0.00031,0.00044,0.00207,0.03827,0.81394,-0.02712,0.57905,0.00191,0.00673,0.00559,
1403715527562142976,0.00043,0.00043,0.00302,0.03814,0.81386,-0.02695,0.57918,0.00295,0.00395,0.00356,
1403715527662142976,0.00057,0.00037,0.00340,0.03820,0.81410,-0.02697,0.57885,0.00431,0.00448,0.00361,
1403715527762142976,0.00072,0.00052,0.00419,0.03808,0.81403,-0.02701,0.57895,0.00396,0.00885,-0.00119,
1403715527862142976,0.00104,0.00051,0.00494,0.03823,0.81435,-0.02696,0.57849,0.00836,0.00271,0.00424,
1403715527962142976,0.00113,0.00055,0.00573,0.03837,0.81456,-0.02707,0.57817,0.00729,0.00311,0.00645,
1403715528062142976,0.00078,0.00061,0.00580,0.03869,0.81446,-0.02681,0.57831,0.00880,0.00939,-0.00010,
1403715528162142976,0.00086,0.00071,0.00527,0.03845,0.81465,-0.02687,0.57806,0.00884,0.01090,-0.00284,
1403715528262142976,0.00135,0.00066,0.00678,0.03857,0.81530,-0.02715,0.57712,0.01850,0.00147,0.00077,
1403715528362142976,0.00268,0.00055,0.00714,0.03821,0.81658,-0.02736,0.57531,0.02103,-0.00519,-0.01486,
1403715528462142976,0.00718,0.00191,0.01155,0.03805,0.82147,-0.02885,0.56825,0.06137,0.01737,0.03577,
1403715528562142976,0.00424,0.00258,0.00918,0.03556,0.82544,-0.03228,0.56245,0.03813,0.03963,0.10210,
1403715528662142976,0.00993,0.00709,0.02358,0.03373,0.82472,-0.03468,0.56346,0.07698,0.05091,0.17045,
1403715528762142976,0.02050,0.01531,0.04910,0.03392,0.82639,-0.03648,0.56089,0.09383,0.06609,0.22857,
1403715528862142976,0.03751,0.02802,0.08648,0.00248,0.83891,-0.01303,0.54411,0.12607,0.10565,0.29932,
1403715528962142976,0.04287,0.03454,0.10309,-0.00605,0.84048,-0.00695,0.54176,0.10848,0.11078,0.26730,
1403715529062142976,0.05025,0.04532,0.12416,-0.00043,0.84077,-0.00903,0.54132,0.09627,0.14263,0.27609,
1403715529162142976,0.05959,0.05997,0.15463,-0.00619,0.84025,-0.00390,0.54214,0.10729,0.16463,0.37040,
1403715529262142976,0.06844,0.07387,0.18737,-0.01164,0.84130,0.00516,0.54041,0.11872,0.16903,0.40398,
1403715529362142976,0.08050,0.09058,0.22309,-0.01895,0.84366,0.02000,0.53616,0.13415,0.17570,0.34771,
1403715529462142976,0.09424,0.10828,0.25152,-0.02259,0.84144,0.03293,0.53887,0.16095,0.18430,0.26490,
1403715529562142976,0.11070,0.12678,0.27251,-0.02550,0.83855,0.04270,0.54255,0.17672,0.18142,0.17456,
1403715529662142976,0.12860,0.14617,0.28703,-0.02675,0.83453,0.04961,0.54807,0.19885,0.19335,0.12107,
1403715529762142976,0.14753,0.16705,0.30066,-0.02922,0.83203,0.05905,0.55080,0.21677,0.21319,0.14488,
1403715529862142976,0.16771,0.19009,0.31821,-0.03304,0.82952,0.06355,0.55387,0.22380,0.23140,0.18518,
1403715529962142976,0.18916,0.21485,0.34075,-0.03757,0.82595,0.06488,0.55874,0.23460,0.24236,0.23622,
1403715530062142976,0.20833,0.24167,0.36886,-0.03889,0.81873,0.07120,0.56842,0.22078,0.25888,0.28615,
1403715530162142976,0.22667,0.27005,0.39992,-0.03514,0.81406,0.07793,0.57445,0.18681,0.29244,0.32976,
1403715530262142976,0.24177,0.30306,0.43822,-0.02943,0.81632,0.08286,0.57087,0.15666,0.34255,0.44809,
1403715530362142976,0.25372,0.34331,0.49051,-0.02915,0.81850,0.08286,0.56776,0.12557,0.41288,0.58086,
1403715530462142976,0.26685,0.39042,0.55444,-0.03500,0.81971,0.07797,0.56636,0.12002,0.48010,0.66338,
1403715530562142976,0.27828,0.44147,0.61986,-0.04299,0.81987,0.08103,0.56516,0.10773,0.51155,0.61173,
1403715530662142976,0.28755,0.49354,0.67459,-0.04997,0.81885,0.08474,0.56552,0.08772,0.52338,0.46812,
1403715530762142976,0.29491,0.54762,0.71794,-0.05805,0.81778,0.09035,0.56542,0.07851,0.54769,0.39497,
1403715530862142976,0.30378,0.60451,0.75758,-0.06798,0.81629,0.10037,0.56479,0.07800,0.55910,0.39219,
1403715530962142976,0.31193,0.66186,0.79596,-0.07516,0.81532,0.11192,0.56310,0.08644,0.55425,0.36481,
1403715531062142976,0.32528,0.72145,0.83048,-0.07776,0.82195,0.11852,0.55164,0.09578,0.56083,0.30851,
1403715531162142976,0.33856,0.77875,0.85982,-0.08078,0.83309,0.12312,0.53317,0.13711,0.57433,0.26385,
1403715531262142976,0.36048,0.83860,0.88863,-0.09579,0.83637,0.11617,0.52708,0.23918,0.58421,0.30087,
1403715531362142976,0.38688,0.89542,0.91946,-0.11105,0.82742,0.11068,0.53925,0.31882,0.54463,0.30716,
1403715531462142976,0.42032,0.94697,0.94658,-0.11575,0.81912,0.11022,0.55090,0.35365,0.47362,0.19606,
1403715531562142976,0.45775,0.99321,0.95996,-0.11631,0.81438,0.11065,0.55768,0.37246,0.42088,0.05434,
1403715531662142976,0.48906,1.03898,0.97034,-0.12249,0.81386,0.11120,0.55702,0.37835,0.38284,-0.03378,
1403715531762142976,0.52665,1.07642,0.97029,-0.11551,0.81206,0.11657,0.56002,0.39413,0.32668,-0.02757,
1403715531862142976,0.58072,1.09672,0.97234,-0.10634,0.80740,0.12199,0.56738,0.43136,0.26318,0.01066,
1403715531962142976,0.60348,1.13664,0.97337,-0.10073,0.79805,0.12389,0.58105,0.35566,0.26197,0.00010,
1403715532062142976,0.63833,1.16306,0.97338,-0.09646,0.79507,0.12452,0.58571,0.30932,0.24451,-0.01039,
1403715532162142976,0.66619,1.18719,0.97296,-0.09327,0.79336,0.12591,0.58824,0.25340,0.23544,-0.01786,
1403715532262142976,0.68962,1.21066,0.97172,-0.09515,0.79209,0.12647,0.58953,0.19286,0.23746,-0.02468,
1403715532362142976,0.70660,1.23423,0.96779,-0.10261,0.79428,0.12688,0.58522,0.14039,0.22758,-0.04510,
1403715532462142976,0.72053,1.25544,0.96367,-0.11178,0.79680,0.12484,0.58054,0.10446,0.19726,-0.03960,
1403715532562142976,0.73060,1.27243,0.95948,-0.12295,0.79844,0.12063,0.57691,0.08037,0.15018,-0.05658,
1403715532662142976,0.73999,1.28085,0.95484,-0.13851,0.79737,0.11271,0.57647,0.06935,0.06745,-0.05019,
1403715532762142976,0.74640,1.28259,0.94964,-0.15090,0.79465,0.10630,0.57832,0.04285,-0.05127,-0.07482,
1403715532862142976,0.75152,1.27201,0.94141,-0.15503,0.79353,0.10073,0.57977,0.03100,-0.17958,-0.09937,
1403715532962142976,0.75563,1.24847,0.92840,-0.15244,0.79558,0.09000,0.57940,0.02274,-0.31567,-0.19099,
1403715533062142976,0.75889,1.21191,0.90491,-0.14443,0.79943,0.07275,0.57859,0.01433,-0.44574,-0.30088,
1403715533162142976,0.76078,1.16042,0.87366,-0.12894,0.80072,0.05320,0.58257,0.00792,-0.58917,-0.31149,
1403715533262142976,0.76042,1.09471,0.84902,-0.10535,0.79488,0.03477,0.59654,-0.04080,-0.73125,-0.18684,
1403715533362142976,0.75221,1.01618,0.83716,-0.08264,0.79382,0.02019,0.60217,-0.10074,-0.82738,-0.02915,
1403715533462142976,0.73727,0.92918,0.83929,-0.06528,0.79848,0.00814,0.59842,-0.15587,-0.90079,0.10525,
1403715533562142976,0.71403,0.83535,0.85562,-0.06316,0.80476,-0.00860,0.59017,-0.22533,-0.97724,0.25184,
1403715533662142976,0.68532,0.73386,0.88567,-0.06825,0.81059,-0.02478,0.58110,-0.27113,-1.08135,0.38857,
1403715533762142976,0.65413,0.61963,0.93133,-0.07193,0.81414,-0.03663,0.57504,-0.27811,-1.21234,0.52288,
1403715533862142976,0.62159,0.49292,0.98416,-0.06307,0.81705,-0.03758,0.57187,-0.27408,-1.33676,0.52473,
1403715533962142976,0.58788,0.35685,1.03075,-0.04705,0.81891,-0.03167,0.57111,-0.27286,-1.40857,0.41272,
1403715534062142976,0.55477,0.21370,1.06267,-0.03379,0.81990,-0.02520,0.57096,-0.28153,-1.47038,0.25942,
1403715534162142976,0.52095,0.06694,1.08258,-0.01928,0.81967,-0.01596,0.57229,-0.28744,-1.49673,0.12863,
1403715534262142976,0.48878,-0.08076,1.08917,-0.00598,0.82014,-0.00646,0.57210,-0.28244,-1.48985,0.00348,
1403715534362142976,0.46115,-0.22903,1.08567,0.00010,0.82019,-0.00059,0.57209,-0.27310,-1.47204,-0.11777,
1403715534462142976,0.43666,-0.37519,1.07052,0.00543,0.82053,-0.00195,0.57158,-0.25525,-1.45304,-0.22326,
1403715534562142976,0.41658,-0.52318,1.04834,0.01228,0.82028,-0.00912,0.57176,-0.21747,-1.43413,-0.26053,
1403715534662142976,0.40142,-0.66833,1.02241,0.02027,0.82091,-0.02281,0.57024,-0.20135,-1.41300,-0.27177,
1403715534762142976,0.38708,-0.80993,0.99519,0.03220,0.82342,-0.04153,0.56500,-0.18421,-1.37935,-0.28949,
1403715534862142976,0.37505,-0.94821,0.96573,0.04906,0.82775,-0.06393,0.55528,-0.15100,-1.34723,-0.30029,
1403715534962142976,0.36723,-1.08394,0.93743,0.06704,0.83022,-0.08769,0.54639,-0.08703,-1.31575,-0.28363,
1403715535062142976,0.36637,-1.21374,0.90909,0.08237,0.83081,-0.10804,0.53971,-0.01325,-1.27173,-0.28415,
1403715535162142976,0.37647,-1.33938,0.88001,0.09141,0.83407,-0.12477,0.52953,0.08754,-1.22776,-0.28686,
1403715535262142976,0.39704,-1.46299,0.85087,0.09512,0.83784,-0.13777,0.51961,0.20920,-1.21007,-0.25815,
1403715535362142976,0.43018,-1.58373,0.82483,0.09541,0.83943,-0.14837,0.51404,0.35351,-1.20027,-0.23064,
1403715535462142976,0.47157,-1.70565,0.80206,0.08426,0.83398,-0.16447,0.51992,0.47555,-1.22967,-0.19707,
1403715535562142976,0.51864,-1.83072,0.78368,0.07966,0.82330,-0.17212,0.53498,0.53035,-1.27545,-0.17395,
1403715535662142976,0.57393,-1.96077,0.76640,0.08147,0.81363,-0.16871,0.55037,0.58489,-1.30903,-0.18403,
1403715535762142976,0.63349,-2.09225,0.74748,0.08206,0.81139,-0.15634,0.55720,0.60854,-1.32475,-0.18394,
1403715535862142976,0.69500,-2.22371,0.72764,0.08552,0.81303,-0.13329,0.56027,0.60980,-1.31085,-0.20673,
1403715535962142976,0.75819,-2.35230,0.70397,0.08293,0.82002,-0.10957,0.55560,0.63805,-1.27662,-0.23260,
1403715536062142976,0.82368,-2.47773,0.68287,0.07548,0.82854,-0.09223,0.54711,0.67669,-1.24161,-0.20087,
1403715536162142976,0.89364,-2.59910,0.66431,0.06863,0.83536,-0.07889,0.53967,0.74909,-1.20512,-0.16154,
1403715536262142976,0.97178,-2.71753,0.64951,0.06805,0.84049,-0.06466,0.53363,0.83555,-1.15458,-0.13126,
1403715536362142976,1.05702,-2.82867,0.63935,0.07047,0.84086,-0.05043,0.53428,0.91495,-1.07874,-0.07689,
1403715536462142976,1.15146,-2.93252,0.63411,0.07982,0.83678,-0.03393,0.54062,0.99010,-0.98406,-0.03650,
1403715536562142976,1.25342,-3.02506,0.63131,0.08804,0.83119,-0.02152,0.54856,1.05037,-0.85507,-0.01401,
1403715536662142976,1.36252,-3.10443,0.62999,0.09258,0.82408,-0.01372,0.55869,1.09884,-0.70983,0.00065,
1403715536762142976,1.47412,-3.16821,0.63201,0.09217,0.81235,-0.00954,0.57577,1.10346,-0.53764,0.03506,
1403715536862142976,1.58472,-3.21469,0.63721,0.09221,0.79977,-0.00200,0.59317,1.06634,-0.37565,0.05918,
1403715536962142976,1.68920,-3.24286,0.64339,0.10128,0.78718,0.00980,0.60828,0.96966,-0.20355,0.08292,
1403715537062142976,1.78325,-3.25280,0.65202,0.11125,0.77299,0.01923,0.62430,0.86034,0.01412,0.11358,
1403715537162142976,1.86410,-3.24009,0.66516,0.11768,0.75393,0.02534,0.64583,0.68659,0.25430,0.15571,
1403715537262142976,1.92492,-3.20276,0.68114,0.11664,0.73635,0.02534,0.66598,0.46334,0.50381,0.18457,
1403715537362142976,1.95914,-3.14108,0.69886,0.09120,0.73308,0.00885,0.67394,0.19700,0.72201,0.18989,
1403715537462142976,1.96821,-3.06202,0.71573,0.06182,0.75132,-0.01327,0.65690,-0.04768,0.85502,0.17854,
1403715537562142976,1.95554,-2.97416,0.73292,0.03844,0.77886,-0.03290,0.62515,-0.22212,0.91437,0.17869,
1403715537662142976,1.93514,-2.88500,0.75040,0.02308,0.79925,-0.04578,0.59881,-0.29469,0.90749,0.23391,
1403715537762142976,1.90816,-2.80005,0.77520,0.01702,0.79812,-0.05314,0.59990,-0.33288,0.87077,0.28379,
1403715537862142976,1.87303,-2.71790,0.80143,0.01672,0.78788,-0.05545,0.61310,-0.41871,0.82412,0.26566,
1403715537962142976,1.82790,-2.64030,0.82491,0.01751,0.78590,-0.05600,0.61556,-0.52424,0.78662,0.19945,
1403715538062142976,1.77235,-2.56581,0.84378,0.01398,0.79215,-0.05983,0.60722,-0.60426,0.73908,0.18393,
1403715538162142976,1.71007,-2.49709,0.86152,0.01008,0.79880,-0.06967,0.59747,-0.67275,0.66469,0.13276,
1403715538262142976,1.64149,-2.43481,0.87041,0.01435,0.80273,-0.08178,0.59053,-0.71462,0.59798,0.02585,
1403715538362142976,1.56803,-2.37876,0.86736,0.02411,0.80042,-0.09518,0.59135,-0.75139,0.52465,-0.07299,
1403715538462142976,1.49196,-2.33110,0.85940,0.04598,0.78945,-0.10472,0.60306,-0.81255,0.46584,-0.08667,
1403715538562142976,1.40601,-2.28442,0.85264,0.07293,0.77742,-0.11381,0.61429,-0.90256,0.45096,-0.05758,
1403715538662142976,1.30918,-2.23733,0.84675,0.09446,0.77088,-0.12956,0.61647,-1.00837,0.47381,-0.06874,
1403715538762142976,1.20605,-2.19041,0.83834,0.11297,0.77211,-0.15279,0.60641,-1.08860,0.49494,-0.10223,
1403715538862142976,1.09443,-2.14181,0.82782,0.13185,0.77761,-0.18116,0.58747,-1.16319,0.50886,-0.10836,
1403715538962142976,0.97673,-2.09095,0.81281,0.15355,0.77750,-0.21309,0.57141,-1.18820,0.51626,-0.19874,
1403715539062142976,0.85747,-2.03961,0.78734,0.17792,0.77076,-0.24727,0.55958,-1.20770,0.53551,-0.31377,
1403715539162142976,0.73818,-1.98805,0.75017,0.20213,0.76016,-0.28290,0.54888,-1.21094,0.55099,-0.42852,
1403715539262142976,0.61936,-1.93664,0.70150,0.22385,0.74891,-0.31831,0.53638,-1.20290,0.56474,-0.55038,
1403715539362142976,0.50017,-1.88293,0.64268,0.24268,0.74049,-0.35086,0.51931,-1.18485,0.57233,-0.63307,
1403715539462142976,0.38423,-1.83157,0.58258,0.26008,0.73073,-0.37650,0.50660,-1.14015,0.54545,-0.54784,
1403715539562142976,0.27543,-1.78049,0.53699,0.26579,0.72183,-0.39981,0.49847,-1.07231,0.51908,-0.37665,
1403715539662142976,0.17478,-1.73395,0.51016,0.26513,0.71186,-0.41799,0.49824,-1.01653,0.46955,-0.17406,
1403715539762142976,0.08083,-1.68475,0.50127,0.26919,0.70291,-0.42754,0.50066,-0.98297,0.43608,-0.00244,
1403715539862142976,-0.01623,-1.63964,0.50538,0.27274,0.70129,-0.42906,0.49971,-0.97683,0.40948,0.10353,
1403715539962142976,-0.11081,-1.60208,0.52343,0.26410,0.70782,-0.43143,0.49307,-0.96760,0.35628,0.26660,
1403715540062142976,-0.20521,-1.57287,0.55008,0.24909,0.71741,-0.43612,0.48278,-0.95226,0.27312,0.25353,
1403715540162142976,-0.29761,-1.55448,0.58062,0.23004,0.72435,-0.44282,0.47573,-0.91724,0.12817,0.33309,
1403715540262142976,-0.38812,-1.55404,0.61557,0.22196,0.72583,-0.44369,0.47649,-0.90514,-0.03970,0.36169,
1403715540362142976,-0.47698,-1.56825,0.65216,0.22966,0.72878,-0.43450,0.47681,-0.88839,-0.18803,0.37156,
1403715540462142976,-0.56413,-1.59294,0.68767,0.23942,0.73483,-0.42476,0.47146,-0.85791,-0.29873,0.32521,
1403715540562142976,-0.64871,-1.62918,0.71670,0.24458,0.74439,-0.42033,0.45759,-0.80707,-0.40967,0.27978,
1403715540662142976,-0.72328,-1.67602,0.73984,0.24272,0.74978,-0.42323,0.44699,-0.71264,-0.52749,0.24576,
1403715540762142976,-0.78930,-1.73570,0.76143,0.23163,0.74607,-0.43531,0.44748,-0.62729,-0.66354,0.21803,
1403715540862142976,-0.84792,-1.81107,0.78411,0.23139,0.73789,-0.44005,0.45644,-0.56519,-0.81438,0.21445,
1403715540962142976,-0.90215,-1.89928,0.80633,0.23722,0.73044,-0.43941,0.46595,-0.52519,-0.95078,0.20970,
1403715541062142976,-0.95281,-1.99880,0.82744,0.24625,0.72692,-0.43452,0.47132,-0.48959,-1.04983,0.19628,
1403715541162142976,-1.00045,-2.10670,0.84536,0.24894,0.72582,-0.43254,0.47341,-0.45446,-1.11485,0.16251,
1403715541262142976,-1.04574,-2.22323,0.86192,0.24132,0.71441,-0.43765,0.48974,-0.44467,-1.20253,0.16692,
1403715541362142976,-1.09293,-2.34773,0.87764,0.24789,0.70584,-0.43643,0.49987,-0.48064,-1.26298,0.14876,
1403715541462142976,-1.14279,-2.47642,0.88815,0.25792,0.70898,-0.43226,0.49394,-0.50325,-1.29061,0.08011,
1403715541562142976,-1.19261,-2.60835,0.89545,0.26070,0.71905,-0.43196,0.47793,-0.48520,-1.33381,0.06482,
1403715541662142976,-1.23822,-2.74446,0.90334,0.26214,0.72731,-0.43135,0.46502,-0.44433,-1.37938,0.08558,
1403715541762142976,-1.27827,-2.88655,0.91394,0.27748,0.73342,-0.41974,0.45707,-0.36185,-1.44587,0.11085,
1403715541862142976,-1.30702,-3.03397,0.92553,0.30118,0.73573,-0.40125,0.45496,-0.24024,-1.45908,0.13755,
1403715541962142976,-1.32466,-3.17903,0.93334,0.31891,0.73824,-0.38293,0.45461,-0.09279,-1.42213,0.10844,
1403715542062142976,-1.32627,-3.31977,0.93938,0.32872,0.74248,-0.36284,0.45718,0.08452,-1.33661,0.10402,
1403715542162142976,-1.31083,-3.44762,0.94951,0.33083,0.74182,-0.34222,0.47238,0.24553,-1.21326,0.10979,
1403715542262142976,-1.27754,-3.56277,0.96279,0.32435,0.73849,-0.32239,0.49547,0.38514,-1.06045,0.13114,
1403715542362142976,-1.23294,-3.66131,0.97850,0.30562,0.73528,-0.30706,0.52122,0.49005,-0.88566,0.15252,
1403715542462142976,-1.18052,-3.75029,0.99854,0.27697,0.72899,-0.29501,0.55211,0.52700,-0.74207,0.19594,
1403715542562142976,-1.12743,-3.82619,1.01405,0.25278,0.72540,-0.28366,0.57397,0.48655,-0.61953,0.16462,
1403715542662142976,-1.08130,-3.89817,1.01820,0.23343,0.73420,-0.27589,0.57476,0.40413,-0.51703,0.10549,
1403715542762142976,-1.04219,-3.95421,1.02190,0.22021,0.74155,-0.27004,0.57331,0.34830,-0.43093,0.06346,
1403715542862142976,-1.00829,-3.99979,1.02285,0.21091,0.75046,-0.26692,0.56664,0.29458,-0.35940,0.00762,
1403715542962142976,-0.97903,-4.03562,1.01921,0.19951,0.75444,-0.26893,0.56453,0.25366,-0.29624,-0.06088,
1403715543062142976,-0.95274,-4.06843,1.00835,0.18946,0.75328,-0.27281,0.56768,0.21221,-0.26755,-0.12273,
1403715543162142976,-0.93175,-4.09753,0.99290,0.18544,0.75107,-0.27550,0.57061,0.15687,-0.25180,-0.14730,
1403715543262142976,-0.91687,-4.12483,0.97691,0.18454,0.74634,-0.27797,0.57590,0.09418,-0.22783,-0.16486,
1403715543362142976,-0.90939,-4.14807,0.96115,0.18520,0.74398,-0.28043,0.57753,0.01549,-0.20474,-0.16019,
1403715543462142976,-0.90953,-4.16904,0.94589,0.19118,0.74366,-0.27916,0.57662,-0.05258,-0.17877,-0.15225,
1403715543562142976,-0.91704,-4.18586,0.93100,0.19972,0.74272,-0.27590,0.57650,-0.11093,-0.14118,-0.14558,
1403715543662142976,-0.93181,-4.19679,0.91608,0.21080,0.73743,-0.26980,0.58221,-0.19027,-0.07639,-0.16065,
1403715543762142976,-0.95463,-4.20126,0.89858,0.23002,0.73249,-0.26415,0.58376,-0.27413,0.00730,-0.18368,
1403715543862142976,-0.98542,-4.19392,0.87839,0.25525,0.72894,-0.26401,0.57774,-0.33675,0.13295,-0.22042,
1403715543962142976,-1.01977,-4.17319,0.85503,0.27869,0.72662,-0.27401,0.56505,-0.36544,0.29202,-0.24821,
1403715544062142976,-1.05644,-4.13632,0.82819,0.30065,0.72386,-0.29290,0.54758,-0.36725,0.45859,-0.30748,
1403715544162142976,-1.09210,-4.08500,0.79146,0.30838,0.71525,-0.33098,0.53270,-0.35462,0.58631,-0.43083,
1403715544262142976,-1.12711,-4.02257,0.74211,0.31773,0.70036,-0.37502,0.51760,-0.34101,0.68047,-0.56737,
1403715544362142976,-1.15979,-3.95173,0.67975,0.32854,0.68032,-0.42174,0.50136,-0.31577,0.75181,-0.69364,
1403715544462142976,-1.19066,-3.87416,0.60745,0.34058,0.65654,-0.46458,0.48697,-0.30538,0.80897,-0.76594,
1403715544562142976,-1.21972,-3.79200,0.53568,0.35511,0.63435,-0.49772,0.47304,-0.28606,0.84732,-0.67211,
1403715544662142976,-1.24623,-3.70681,0.47789,0.36736,0.61780,-0.51919,0.46240,-0.25576,0.86891,-0.46341,
1403715544762142976,-1.27086,-3.61850,0.44515,0.38294,0.60465,-0.52543,0.46008,-0.24161,0.90573,-0.18625,
1403715544862142976,-1.29421,-3.52364,0.43904,0.39369,0.59725,-0.52600,0.46003,-0.23062,0.98509,0.09004,
1403715544962142976,-1.31590,-3.42081,0.45388,0.39451,0.59774,-0.52825,0.45609,-0.21466,1.05282,0.19815,
1403715545062142976,-1.33709,-3.31076,0.47229,0.39265,0.60031,-0.53381,0.44776,-0.21116,1.10590,0.19621,
1403715545162142976,-1.35855,-3.19931,0.48854,0.39416,0.59961,-0.54136,0.43823,-0.20499,1.13577,0.11947,
1403715545262142976,-1.37997,-3.08633,0.49512,0.39745,0.59436,-0.55240,0.42851,-0.19792,1.14248,-0.01243,
1403715545362142976,-1.39990,-2.97331,0.49035,0.40025,0.58528,-0.56543,0.42135,-0.17638,1.14713,-0.10355,
1403715545462142976,-1.41774,-2.86057,0.48278,-0.39537,-0.57136,0.58035,-0.42476,-0.16639,1.14881,-0.07797,
1403715545562142976,-1.43743,-2.74860,0.48101,-0.38731,-0.55790,0.59394,-0.43124,-0.20753,1.12021,0.01140,
1403715545662142976,-1.46192,-2.63793,0.48640,-0.38116,-0.54825,0.60271,-0.43688,-0.27978,1.11406,0.05931,
1403715545762142976,-1.49450,-2.52887,0.49264,-0.37804,-0.54770,0.60376,-0.43885,-0.36772,1.09700,0.04882,
1403715545862142976,-1.53457,-2.41923,0.49693,-0.37848,-0.55560,0.59655,-0.43840,-0.43303,1.08824,0.05661,
1403715545962142976,-1.58013,-2.31076,0.50213,-0.38016,-0.57229,0.58020,-0.43740,-0.47714,1.08271,0.06557,
1403715546062142976,-1.62795,-2.20281,0.50745,0.37780,0.59426,-0.55718,0.44008,-0.48001,1.07231,0.07510,
1403715546162142976,-1.67493,-2.09711,0.51518,0.36615,0.61799,-0.53075,0.44981,-0.46240,1.05896,0.08737,
1403715546262142976,-1.72043,-1.99177,0.52370,0.34776,0.64273,-0.50084,0.46382,-0.44648,1.06172,0.09628,
1403715546362142976,-1.76467,-1.88411,0.53332,0.32508,0.66648,-0.46913,0.47964,-0.42903,1.07292,0.10395,
1403715546462142976,-1.80806,-1.77656,0.54550,0.29910,0.69014,-0.43646,0.49371,-0.42869,1.08135,0.13904,
1403715546562142976,-1.85190,-1.67045,0.55927,0.27254,0.71253,-0.40161,0.50669,-0.42534,1.07152,0.12728,
1403715546662142976,-1.89549,-1.56697,0.57252,0.24715,0.73700,-0.36364,0.51334,-0.42386,1.04972,0.11082,
1403715546762142976,-1.93638,-1.46495,0.58195,0.21798,0.76503,-0.32631,0.51062,-0.39450,1.02262,0.05911,
1403715546862142976,-1.97536,-1.36842,0.59048,0.18349,0.79021,-0.29289,0.50608,-0.34817,0.96201,0.08322,
1403715546962142976,-2.00876,-1.27838,0.60053,0.15660,0.80812,-0.25462,0.50753,-0.29029,0.87647,0.09413,
1403715547062142976,-2.03578,-1.19458,0.61165,0.13893,0.82268,-0.21022,0.50961,-0.20110,0.82273,0.10084,
1403715547162142976,-2.05238,-1.11561,0.62282,0.11852,0.83304,-0.16814,0.51354,-0.09375,0.78852,0.10244,
1403715547262142976,-2.05779,-1.03970,0.63377,0.09874,0.84045,-0.12600,0.51771,0.01555,0.76396,0.09893,
1403715547362142976,-2.04865,-0.96478,0.64472,0.08010,0.84644,-0.08835,0.51895,0.13059,0.75955,0.08555,
1403715547462142976,-2.02994,-0.89020,0.65455,0.05808,0.85351,-0.05753,0.51462,0.25205,0.77586,0.05601,
1403715547562142976,-1.99706,-0.81391,0.66009,0.03631,0.85937,-0.02670,0.50937,0.38875,0.79561,0.02898,
1403715547662142976,-1.95116,-0.73457,0.66452,0.01545,0.86218,0.00787,0.50631,0.53731,0.82273,0.02938,
1403715547762142976,-1.89124,-0.65137,0.67055,-0.00360,0.86275,0.04352,0.50375,0.68271,0.86187,0.04034,
1403715547862142976,-1.81710,-0.56349,0.67616,-0.02485,0.86090,0.07642,0.50238,0.82898,0.91454,0.04244,
1403715547962142976,-1.72772,-0.47057,0.68154,-0.04571,0.85279,0.10523,0.50950,0.96086,0.96194,0.04057,
1403715548062142976,-1.62688,-0.37468,0.68834,-0.06503,0.83974,0.12341,0.52477,1.05677,0.99852,0.06216,
1403715548162142976,-1.52166,-0.27389,0.69484,-0.07500,0.82513,0.13682,0.54298,1.09584,1.01787,0.03051,
1403715548262142976,-1.41327,-0.17076,0.69917,-0.07746,0.81440,0.14578,0.55633,1.10520,1.04886,0.01757,
1403715548362142976,-1.30422,-0.06534,0.69798,-0.07788,0.80927,0.14887,0.56290,1.09216,1.06909,-0.11244,
1403715548462142976,-1.19546,0.04057,0.68581,-0.07596,0.80859,0.14894,0.56412,1.08324,1.09852,-0.20852,
1403715548562142976,-1.09023,0.14846,0.66696,-0.07844,0.81006,0.14353,0.56306,1.06243,1.11905,-0.21987,
1403715548662142976,-0.98700,0.25931,0.64682,-0.08114,0.81204,0.13628,0.56163,1.04022,1.13539,-0.21316,
1403715548762142976,-0.88590,0.37180,0.62783,-0.08250,0.81259,0.12954,0.56223,1.02404,1.13550,-0.18961,
1403715548862142976,-0.78608,0.48327,0.60958,-0.08170,0.81329,0.12434,0.56251,1.02019,1.13870,-0.17386,
1403715548962142976,-0.68780,0.59395,0.59253,-0.08285,0.81264,0.12117,0.56398,1.01314,1.14235,-0.17065,
1403715549062142976,-0.59034,0.70683,0.57568,-0.08734,0.80996,0.12545,0.56621,0.98180,1.14910,-0.15326,
1403715549162142976,-0.49610,0.82002,0.56205,-0.09577,0.80135,0.13280,0.57536,0.94790,1.14007,-0.10883,
1403715549262142976,-0.40506,0.93309,0.55183,-0.10351,0.79035,0.13902,0.58763,0.88918,1.11340,-0.09585,
1403715549362142976,-0.32231,1.04334,0.54065,-0.11414,0.78275,0.14129,0.59525,0.79053,1.07535,-0.10503,
1403715549462142976,-0.24834,1.14799,0.52725,-0.13086,0.78366,0.13770,0.59143,0.71505,1.01357,-0.12903,
1403715549562142976,-0.17865,1.24418,0.51159,-0.14335,0.79057,0.13502,0.57984,0.65531,0.92348,-0.13693,
1403715549662142976,-0.11184,1.33141,0.49667,-0.15182,0.80054,0.12732,0.56558,0.64986,0.80719,-0.12342,
1403715549762142976,-0.04543,1.40745,0.48477,-0.15432,0.80573,0.11129,0.56089,0.67410,0.67864,-0.09642,
1403715549862142976,0.02349,1.46916,0.47537,-0.14990,0.80666,0.08968,0.56462,0.68813,0.53678,-0.08786,
1403715549962142976,0.09272,1.51460,0.46833,-0.14656,0.80941,0.05872,0.56563,0.70694,0.37297,-0.05361,
1403715550062142976,0.16300,1.54098,0.46203,-0.13727,0.81454,0.02343,0.56315,0.70729,0.17136,-0.04637,
1403715550162142976,0.23409,1.54728,0.45964,-0.10990,0.82009,-0.00484,0.56156,0.71759,-0.04265,0.05126,
1403715550262142976,0.30508,1.53572,0.47079,-0.07740,0.82384,-0.02995,0.56071,0.71626,-0.21138,0.18212,
1403715550362142976,0.37677,1.50688,0.49627,-0.04677,0.82521,-0.05473,0.56022,0.72449,-0.36391,0.32920,
1403715550462142976,0.44917,1.46468,0.53228,-0.01275,0.82270,-0.07845,0.56289,0.72974,-0.48240,0.36745,
1403715550562142976,0.52134,1.41357,0.56772,0.01849,0.81886,-0.10536,0.56394,0.72001,-0.54956,0.31402,
1403715550662142976,0.59334,1.35717,0.59198,0.03991,0.81341,-0.13883,0.56347,0.70832,-0.59932,0.17444,
1403715550762142976,0.66377,1.29518,0.60344,0.05484,0.80558,-0.17682,0.56283,0.68560,-0.65502,0.04752,
1403715550862142976,0.73015,1.22616,0.60281,0.06502,0.79613,-0.21671,0.56123,0.65043,-0.73434,-0.06981,
1403715550962142976,0.79329,1.14705,0.59356,0.07712,0.78537,-0.25480,0.55886,0.60051,-0.84772,-0.13502,
1403715551062142976,0.85069,1.05556,0.58720,0.09975,0.77533,-0.28484,0.55477,0.52801,-0.99430,-0.03725,
1403715551162142976,0.89851,0.94983,0.59302,0.12717,0.76428,-0.31106,0.55040,0.44187,-1.12385,0.11255,
1403715551262142976,0.93857,0.83288,0.61064,0.14757,0.74961,-0.34158,0.54738,0.36105,-1.23035,0.22232,
1403715551362142976,0.96967,0.70555,0.63556,0.16296,0.73285,-0.37584,0.54326,0.25414,-1.32412,0.24144,
1403715551462142976,0.99094,0.56892,0.66132,0.18141,0.71420,-0.40782,0.53915,0.14075,-1.40872,0.23931,
1403715551562142976,0.99691,0.42429,0.68666,0.20730,0.69529,-0.43456,0.53362,0.00234,-1.49443,0.24593,
1403715551662142976,0.98989,0.27231,0.71252,0.24357,0.67708,-0.45330,0.52607,-0.13432,-1.54020,0.26275,
1403715551762142976,0.96967,0.11758,0.73888,0.28042,0.65527,-0.47012,0.52055,-0.25759,-1.53016,0.25456,
1403715551862142976,0.93851,-0.03353,0.76311,0.31105,0.62823,-0.48907,0.51902,-0.37059,-1.48649,0.24654,
1403715551962142976,0.89636,-0.17759,0.78680,0.34110,0.59930,-0.50662,0.51752,-0.48989,-1.39135,0.23455,
1403715552062142976,0.84327,-0.31032,0.80718,0.37384,0.58164,-0.52155,0.49992,-0.58290,-1.26144,0.21260,
1403715552162142976,0.78451,-0.43106,0.82397,0.39689,0.56629,-0.54079,0.47890,-0.63687,-1.11790,0.17222,
1403715552262142976,0.72205,-0.53390,0.84157,-0.42487,-0.54540,0.55559,-0.46189,-0.66412,-0.97600,0.17434,
1403715552362142976,0.65726,-0.62400,0.85663,-0.45243,-0.52001,0.57032,-0.44681,-0.67658,-0.81311,0.14261,
1403715552462142976,0.59168,-0.69743,0.87066,-0.47534,-0.49441,0.58963,-0.42655,-0.66066,-0.63411,0.12947,
1403715552562142976,0.52718,-0.75481,0.88337,-0.49445,-0.46278,0.61111,-0.40975,-0.63469,-0.45590,0.10310,
1403715552662142976,0.47233,-0.80376,0.91579,0.51079,0.42591,-0.63530,0.39254,-0.58210,-0.29834,0.12532,
1403715552762142976,0.40564,-0.81096,0.90269,0.52169,0.38712,-0.66026,0.37686,-0.58486,-0.07428,0.05002,
1403715552862142976,0.34656,-0.80861,0.90689,0.53057,0.34847,-0.68679,0.35409,-0.58150,0.12647,0.01326,
1403715552962142976,0.28664,-0.78830,0.90760,0.53149,0.30768,-0.71521,0.33363,-0.57400,0.31621,-0.03576,
1403715553062142976,0.22463,-0.75522,0.90754,0.53014,0.26481,-0.74134,0.31503,-0.60903,0.48949,-0.05611,
1403715553162142976,0.15958,-0.70354,0.90484,0.53634,0.22606,-0.75937,0.29086,-0.65239,0.65934,-0.06489,
1403715553262142976,0.09210,-0.63123,0.90260,0.55062,0.18768,-0.76827,0.26712,-0.69697,0.82738,-0.05788,
1403715553362142976,0.02276,-0.53845,0.89790,0.57391,0.15111,-0.76813,0.24037,-0.70032,1.03146,-0.06984,
1403715553462142976,-0.04198,-0.42617,0.89128,0.60392,0.12104,-0.76117,0.20311,-0.62979,1.21188,-0.07918,
1403715553562142976,-0.09802,-0.29901,0.87948,0.62933,0.09396,-0.75375,0.16426,-0.50712,1.35579,-0.13636,
1403715553662142976,-0.13866,-0.15922,0.86241,0.64196,0.07396,-0.75232,0.12818,-0.34026,1.45751,-0.18166,
1403715553762142976,-0.16363,-0.01217,0.84023,0.63446,0.06423,-0.76387,0.09914,-0.16700,1.52183,-0.22191,
1403715553862142976,-0.17239,0.13916,0.81769,0.61146,0.06390,-0.78530,0.07309,-0.01960,1.53580,-0.19766,
1403715553962142976,-0.16983,0.29060,0.80018,0.58861,0.06688,-0.80378,0.05478,0.05627,1.50814,-0.17284,
1403715554062142976,-0.16282,0.43918,0.78487,0.55922,0.06669,-0.82487,0.04907,0.07515,1.46577,-0.18757,
1403715554162142976,-0.15734,0.58331,0.76780,0.52766,0.06822,-0.84544,0.04634,0.01786,1.41260,-0.15974,
1403715554262142976,-0.16460,0.72179,0.75475,0.50523,0.07159,-0.85887,0.04429,-0.13132,1.35148,-0.12541,
1403715554362142976,-0.19108,0.85486,0.74016,-0.49528,-0.08577,0.86393,-0.03109,-0.32618,1.27407,-0.15350,
1403715554462142976,-0.23265,0.97871,0.72078,0.51282,0.12672,-0.84909,-0.00338,-0.46896,1.13597,-0.20774,
1403715554562142976,-0.28330,1.08372,0.69104,0.54475,0.18361,-0.81666,-0.05089,-0.49629,0.88069,-0.31546,
1403715554662142976,-0.32983,1.16234,0.65074,0.57166,0.23012,-0.78210,-0.09256,-0.42047,0.53743,-0.44164,
1403715554762142976,-0.36156,1.20434,0.60522,0.58864,0.25669,-0.75749,-0.11760,-0.25027,0.08785,-0.47831,
1403715554862142976,-0.37796,1.18753,0.56168,0.60548,0.26673,-0.73922,-0.12573,0.00978,-0.51215,-0.36539,
1403715554962142976,-0.36887,1.10537,0.54329,0.62177,0.25602,-0.73165,-0.11198,0.32422,-1.15490,-0.08911,
1403715555062142976,-0.32245,0.96344,0.54580,0.62351,0.21329,-0.74958,-0.06223,0.64140,-1.65170,0.12038,
1403715555162142976,-0.25067,0.78435,0.56773,0.60373,0.15285,-0.78232,0.01089,0.80566,-1.90905,0.24048,
1403715555262142976,-0.16875,0.59127,0.59332,0.56926,0.09095,-0.81213,0.09010,0.84126,-1.96457,0.14654,
1403715555362142976,-0.09178,0.40110,0.60423,0.54008,0.04400,-0.82688,0.15049,0.74820,-1.83420,0.04289,
1403715555462142976,-0.02442,0.23002,0.61482,0.53974,0.03154,-0.82503,0.16436,0.61357,-1.56651,0.16266,
1403715555562142976,0.03073,0.08750,0.63925,0.55384,0.04158,-0.81785,0.15053,0.51401,-1.29618,0.31844,
1403715555662142976,0.08548,-0.03012,0.67222,0.56349,0.05625,-0.81328,0.13373,0.47974,-1.07798,0.42891,
1403715555762142976,0.14617,-0.13190,0.70796,0.55996,0.06463,-0.81584,0.12916,0.48956,-0.92487,0.48378,
1403715555862142976,0.19457,-0.21620,0.75821,0.54862,0.06181,-0.82155,0.14229,0.42131,-0.75509,0.59394,
1403715555962142976,0.23135,-0.28245,0.82335,0.54097,0.06121,-0.82508,0.15116,0.33083,-0.57781,0.65433,
1403715556062142976,0.25739,-0.33126,0.88295,0.52801,0.05276,-0.83068,0.16851,0.22458,-0.40916,0.56274,
1403715556162142976,0.27187,-0.36038,0.93324,0.52605,0.04771,-0.83007,0.17882,0.10593,-0.19810,0.49251,
1403715556262142976,0.27664,-0.36842,0.98211,0.53658,0.04827,-0.82304,0.17988,-0.00916,0.03018,0.49199,
1403715556362142976,0.26839,-0.35652,1.02822,0.54498,0.05503,-0.81799,0.17567,-0.10011,0.23943,0.45228,
1403715556462142976,0.25403,-0.32514,1.06835,0.55030,0.06748,-0.81565,0.16534,-0.16557,0.40955,0.34079,
1403715556562142976,0.23506,-0.27982,1.09567,0.55349,0.09259,-0.81615,0.13779,-0.21510,0.51667,0.18322,
1403715556662142976,0.21157,-0.22451,1.10763,0.55106,0.11170,-0.81854,0.11769,-0.23788,0.58316,0.02285,
1403715556762142976,0.18506,-0.16548,1.10431,0.54266,0.12522,-0.82393,0.10478,-0.29818,0.59815,-0.10065,
1403715556862142976,0.15336,-0.10654,1.09258,0.54557,0.13806,-0.82148,0.09199,-0.34732,0.57665,-0.14013,
1403715556962142976,0.11797,-0.05114,1.07796,0.54913,0.14824,-0.81841,0.08175,-0.37645,0.53006,-0.14876,
1403715557062142976,0.08095,-0.00228,1.06229,0.53828,0.14820,-0.82547,0.08298,-0.40933,0.45418,-0.17376,
1403715557162142976,0.03892,0.04073,1.04785,0.52008,0.14300,-0.83732,0.08925,-0.47425,0.39518,-0.14897,
1403715557262142976,-0.01120,0.07966,1.03705,0.50417,0.13793,-0.84731,0.09410,-0.59948,0.34768,-0.11874,
1403715557362142976,-0.07539,0.11417,1.02883,-0.49585,-0.13490,0.85261,-0.09479,-0.73914,0.29647,-0.09978,
1403715557462142976,-0.15510,0.14474,1.02140,0.50154,0.13260,-0.84969,0.09440,-0.89082,0.26429,-0.07820,
1403715557562142976,-0.24826,0.17089,1.01371,0.52175,0.13383,-0.83774,0.08979,-1.00110,0.22561,-0.08594,
1403715557662142976,-0.34965,0.19285,1.00431,0.54017,0.13741,-0.82621,0.08195,-1.07024,0.18182,-0.09761,
1403715557762142976,-0.45540,0.20830,0.99287,0.55318,0.13851,-0.81798,0.07565,-1.08483,0.11818,-0.11232,
1403715557862142976,-0.56258,0.21834,0.98512,0.55546,0.13176,-0.81740,0.07716,-1.08484,0.06992,-0.02349,
1403715557962142976,-0.66923,0.22432,0.98953,0.55515,0.12397,-0.81875,0.07803,-1.08663,0.02929,0.10365,
1403715558062142976,-0.77662,0.22643,1.00586,0.55607,0.11807,-0.81907,0.07728,-1.08986,0.00111,0.21684,
1403715558162142976,-0.88611,0.22680,1.03113,0.55368,0.11433,-0.82135,0.07574,-1.10590,-0.03429,0.30086,
1403715558262142976,-0.99686,0.22344,1.06041,0.55254,0.11697,-0.82250,0.06717,-1.12646,-0.05705,0.30188,
1403715558362142976,-1.10946,0.21624,1.08820,0.56038,0.12356,-0.81711,0.05511,-1.12874,-0.11350,0.28187,
1403715558462142976,-1.22186,0.20246,1.11366,0.57535,0.12323,-0.80665,0.05567,-1.11111,-0.19158,0.23058,
1403715558562142976,-1.33096,0.18339,1.13038,0.59530,0.11631,-0.79223,0.06682,-1.04308,-0.22028,0.11256,
1403715558662142976,-1.43366,0.16424,1.13495,0.60747,0.11041,-0.78299,0.07556,-0.96733,-0.20614,-0.02945,
1403715558762142976,-1.52939,0.14497,1.12744,0.61065,0.11164,-0.77985,0.08054,-0.87374,-0.21717,-0.11270,
1403715558862142976,-1.61500,0.12538,1.12043,0.61098,0.12416,-0.77745,0.08280,-0.77132,-0.22108,-0.09657,
1403715558962142976,-1.68755,0.10519,1.11478,0.61151,0.14416,-0.77342,0.08428,-0.63765,-0.21996,-0.06017,
1403715559062142976,-1.74556,0.08350,1.11133,0.61077,0.16665,-0.76898,0.08872,-0.48927,-0.24858,-0.02699,
1403715559162142976,-1.79026,0.05793,1.11347,0.60924,0.18685,-0.76377,0.10284,-0.34914,-0.27730,0.01156,
1403715559262142976,-1.82233,0.02967,1.11614,0.60789,0.20952,-0.75697,0.11649,-0.22249,-0.29834,0.01315,
1403715559362142976,-1.84080,-0.00042,1.11729,0.60456,0.23472,-0.75032,0.12820,-0.08528,-0.31170,-0.00507,
1403715559462142976,-1.84795,-0.03204,1.11592,0.59218,0.25987,-0.75035,0.13700,0.02098,-0.32451,-0.05155,
1403715559562142976,-1.84504,-0.06676,1.10524,0.56992,0.27346,-0.75985,0.15178,0.09989,-0.36279,-0.17771,
1403715559662142976,-1.83572,-0.10390,1.08354,0.55377,0.28098,-0.76591,0.16667,0.13540,-0.38503,-0.28009,
1403715559762142976,-1.82313,-0.14523,1.05347,0.54757,0.29488,-0.76412,0.17124,0.15472,-0.43098,-0.32213,
1403715559862142976,-1.80532,-0.19083,1.02125,0.54321,0.31090,-0.75953,0.17714,0.20572,-0.47600,-0.32336,
1403715559962142976,-1.78324,-0.24203,0.98857,0.53962,0.33254,-0.75188,0.18137,0.25592,-0.54254,-0.31411,
1403715560062142976,-1.75637,-0.30059,0.95746,0.53497,0.35485,-0.74324,0.18839,0.31374,-0.61956,-0.29236,
1403715560162142976,-1.72274,-0.36745,0.93289,0.52745,0.37501,-0.73565,0.19996,0.38335,-0.71623,-0.19054,
1403715560262142976,-1.68339,-0.44372,0.92165,0.51539,0.38679,-0.73132,0.22349,0.43039,-0.79067,-0.05146,
1403715560362142976,-1.63976,-0.52561,0.92108,0.50310,0.39934,-0.72618,0.24511,0.44710,-0.84798,0.01694,
1403715560462142976,-1.59471,-0.61187,0.92435,-0.49385,-0.41508,0.71784,-0.26176,0.44910,-0.88773,0.02504,
1403715560562142976,-1.55002,-0.70198,0.92641,-0.48598,-0.43049,0.70822,-0.27735,0.44754,-0.91792,0.01006,
1403715560662142976,-1.50461,-0.79470,0.92877,-0.47852,-0.44871,0.69641,-0.29100,0.45496,-0.95649,0.03312,
1403715560762142976,-1.45903,-0.89152,0.93210,-0.47126,-0.46865,0.68258,-0.30392,0.46241,-0.99090,0.03402,
1403715560862142976,-1.41290,-0.99046,0.93531,-0.46597,-0.49173,0.66557,-0.31319,0.48105,-1.01536,0.02951,
1403715560962142976,-1.36315,-1.09199,0.93863,-0.45821,-0.51562,0.64800,-0.32292,0.52720,-1.04684,0.03088,
1403715561062142976,-1.30848,-1.19552,0.94196,-0.44712,-0.53748,0.63038,-0.33739,0.56924,-1.06249,0.03151,
1403715561162142976,-1.25033,-1.30099,0.94411,-0.43146,-0.55563,0.61504,-0.35615,0.60330,-1.08108,0.01035,
1403715561262142976,-1.19032,-1.41020,0.94684,-0.41388,-0.56693,0.60447,-0.37671,0.61613,-1.09520,-0.00019,
1403715561362142976,-1.13064,-1.52145,0.95006,-0.39330,-0.57030,0.60064,-0.39913,0.59692,-1.11035,0.00002,
1403715561462142976,-1.07471,-1.63248,0.95348,-0.37993,-0.57711,0.59182,-0.41515,0.54492,-1.11781,0.02049,
1403715561562142976,-1.02345,-1.74349,0.95827,0.37947,0.59030,-0.57382,0.42223,0.49763,-1.12074,0.04729,
1403715561662142976,-0.97505,-1.85487,0.96319,0.38319,0.60604,-0.55274,0.42470,0.48965,-1.12334,0.05409,
1403715561762142976,-0.92620,-1.96481,0.96836,0.38633,0.61761,-0.52989,0.43419,0.50653,-1.08595,0.05783,
1403715561862142976,-0.87539,-2.07061,0.97448,0.38431,0.62786,-0.50758,0.44772,0.52969,-1.02941,0.07251,
1403715561962142976,-0.82131,-2.17034,0.98272,0.38065,0.63652,-0.48329,0.46517,0.55556,-0.95752,0.09978,
1403715562062142976,-0.76754,-2.26027,0.99260,0.37790,0.64082,-0.45981,0.48488,0.55517,-0.83616,0.10837,
1403715562162142976,-0.71333,-2.33659,1.00372,0.38039,0.64277,-0.43960,0.49890,0.55049,-0.69162,0.12156,
1403715562262142976,-0.65866,-2.39748,1.01391,0.38441,0.64855,-0.42510,0.50090,0.55020,-0.52096,0.10020,
1403715562362142976,-0.60214,-2.44136,1.02228,0.38574,0.66046,-0.41911,0.48922,0.57603,-0.34776,0.07431,
1403715562462142976,-0.54023,-2.47103,1.02813,0.38259,0.67742,-0.41864,0.46848,0.65041,-0.21108,0.04859,
1403715562562142976,-0.46883,-2.48830,1.03529,0.38113,0.69216,-0.41099,0.45470,0.77683,-0.11300,0.08056,
1403715562662142976,-0.38525,-2.49576,1.04304,0.37035,0.70075,-0.40407,0.45663,0.89364,-0.00865,0.04262,
1403715562762142976,-0.29119,-2.49472,1.04907,0.34037,0.70241,-0.41360,0.46872,0.98488,0.06140,0.05138,
1403715562862142976,-0.19015,-2.48663,1.05484,0.31418,0.70307,-0.41959,0.48055,1.03131,0.10920,0.04205,
1403715562962142976,-0.08626,-2.47645,1.05949,0.29223,0.70633,-0.41669,0.49201,1.03894,0.12094,0.04298,
1403715563062142976,0.01837,-2.46580,1.06414,0.27679,0.71142,-0.40436,0.50374,1.03860,0.11521,0.04912,
1403715563162142976,0.12216,-2.45388,1.06978,0.27045,0.71802,-0.37891,0.51743,1.03804,0.13001,0.06430,
1403715563262142976,0.22593,-2.43879,1.07540,0.26076,0.72393,-0.34601,0.53685,1.03888,0.16966,0.06422,
1403715563362142976,0.32716,-2.41646,1.07990,0.24367,0.73332,-0.30816,0.55489,1.00098,0.25678,0.05322,
1403715563462142976,0.42444,-2.38677,1.08384,0.22258,0.74608,-0.26750,0.56768,0.95272,0.31674,0.02553,
1403715563562142976,0.51658,-2.34984,1.07933,0.20253,0.75813,-0.22653,0.57699,0.89753,0.40186,-0.09509,
1403715563662142976,0.60208,-2.30428,1.06312,0.18514,0.76678,-0.18716,0.58544,0.82288,0.48698,-0.20215,
1403715563762142976,0.67848,-2.24772,1.03236,0.16904,0.77144,-0.14959,0.59492,0.74928,0.59494,-0.30599,
1403715563862142976,0.74608,-2.18248,0.99443,0.13949,0.77289,-0.12046,0.60718,0.67378,0.69977,-0.41792,
1403715563962142976,0.80590,-2.10615,0.94732,0.10182,0.77594,-0.09514,0.61522,0.56078,0.79314,-0.51273,
1403715564062142976,0.85436,-2.02352,0.89298,0.05624,0.78170,-0.07271,0.61685,0.43134,0.84175,-0.52998,
1403715564162142976,0.89150,-1.93763,0.84063,0.01461,0.78494,-0.04666,0.61765,0.30145,0.84043,-0.49234,
1403715564262142976,0.91565,-1.85446,0.79129,-0.02144,0.78832,-0.01529,0.61470,0.18710,0.79336,-0.43129,
1403715564362142976,0.92925,-1.77782,0.75376,-0.04944,0.78974,0.02602,0.61089,0.07246,0.73828,-0.30808,
1403715564462142976,0.93010,-1.70628,0.72747,-0.07563,0.79798,0.07335,0.59341,-0.01457,0.68416,-0.16386,
1403715564562142976,0.92409,-1.64036,0.71755,-0.10038,0.80209,0.12127,0.57607,-0.08489,0.64233,-0.01434,
1403715564662142976,0.91503,-1.57764,0.72195,-0.12314,0.79870,0.16903,0.56422,-0.11171,0.61332,0.13504,
1403715564762142976,0.90517,-1.51582,0.74057,-0.14351,0.78969,0.21583,0.55607,-0.13313,0.60952,0.26958,
1403715564862142976,0.89211,-1.45499,0.77370,-0.16459,0.77642,0.25938,0.55027,-0.14457,0.62010,0.39392,
1403715564962142976,0.87785,-1.39289,0.82052,-0.18663,0.75788,0.29849,0.54926,-0.17032,0.64306,0.52644,
1403715565062142976,0.85735,-1.32794,0.87880,-0.20953,0.73975,0.33509,0.54459,-0.24137,0.66150,0.63427,
1403715565162142976,0.82813,-1.26281,0.94135,-0.23957,0.72373,0.36743,0.53275,-0.31137,0.66381,0.57744,
1403715565262142976,0.79289,-1.19288,0.99622,-0.26965,0.70848,0.39592,0.51826,-0.35197,0.66664,0.46169,
1403715565362142976,0.75699,-1.13428,1.04136,-0.30090,0.68802,0.41959,0.50993,-0.37401,0.63901,0.36036,
1403715565462142976,0.71600,-1.07886,1.07404,-0.33227,0.66505,0.44052,0.50324,-0.40207,0.57023,0.24157,
1403715565562142976,0.67397,-1.02848,1.09676,-0.35893,0.64117,0.46497,0.49384,-0.43792,0.48242,0.19819,
1403715565662142976,0.62786,-0.98771,1.11888,-0.38458,0.61648,0.49282,0.47874,-0.47770,0.37844,0.25093,
1403715565762142976,0.57701,-0.95913,1.14461,-0.40794,0.58991,0.52545,0.45771,-0.51768,0.25945,0.28613,
1403715565862142976,0.52220,-0.94189,1.17263,-0.42864,0.56176,0.56228,0.42958,-0.54222,0.14028,0.31651,
1403715565962142976,0.46508,-0.93388,1.20332,-0.45125,0.52615,0.59876,0.40129,-0.55909,0.04668,0.31631,
1403715566062142976,0.40832,-0.93474,1.23312,-0.47527,0.48734,0.63142,0.37139,-0.55124,-0.04506,0.30366,
1403715566162142976,0.35136,-0.94103,1.26135,-0.49499,0.44682,0.66155,0.34305,-0.52816,-0.11458,0.29077,
1403715566262142976,0.29749,-0.95936,1.29095,0.51392,-0.40555,-0.68782,-0.31357,-0.50165,-0.20548,0.27844,
1403715566362142976,0.24956,-0.98659,1.31834,0.53106,-0.36363,-0.71101,-0.28321,-0.45115,-0.28836,0.24424,
1403715566462142976,0.21124,-1.02266,1.33898,0.54597,-0.32170,-0.73073,-0.25390,-0.40727,-0.35393,0.13875,
1403715566562142976,0.17228,-1.06313,1.34527,0.56106,-0.28134,-0.74474,-0.22675,-0.37708,-0.42478,0.02230,
1403715566662142976,0.13472,-1.11076,1.34062,0.57339,-0.24157,-0.75651,-0.20139,-0.33169,-0.50508,-0.09105,
1403715566762142976,0.10318,-1.16829,1.32946,0.58294,-0.19881,-0.76852,-0.17330,-0.27854,-0.59865,-0.11746,
1403715566862142976,0.07941,-1.23339,1.31809,0.59109,-0.15516,-0.77941,-0.13806,-0.21542,-0.67716,-0.08511,
1403715566962142976,0.06196,-1.30477,1.30968,0.60009,-0.10732,-0.78636,-0.10007,-0.14536,-0.74286,-0.08449,
1403715567062142976,0.05205,-1.38015,1.30088,0.60173,-0.05799,-0.79460,-0.05635,-0.05566,-0.80055,-0.09841,
1403715567162142976,0.05087,-1.46157,1.29307,0.60087,-0.00705,-0.79928,-0.00729,0.02156,-0.83070,-0.07165,
1403715567262142976,0.05805,-1.54518,1.28444,0.59238,0.04884,-0.80321,0.03935,0.09227,-0.83239,-0.09391,
1403715567362142976,0.06775,-1.62764,1.27264,0.57992,0.10984,-0.80311,0.08149,0.13416,-0.82723,-0.12579,
1403715567462142976,0.08635,-1.71102,1.25422,0.56494,0.17393,-0.79789,0.11819,0.17776,-0.81844,-0.24819,
1403715567562142976,0.10633,-1.79286,1.22355,0.55037,0.23429,-0.78681,0.15213,0.20483,-0.81550,-0.39700,
1403715567662142976,0.13056,-1.87706,1.18296,0.53833,0.28776,-0.76956,0.18755,0.23956,-0.82763,-0.47934,
1403715567762142976,0.15889,-1.96024,1.13830,0.52906,0.33749,-0.74537,0.22497,0.27537,-0.83121,-0.49808,
1403715567862142976,0.19262,-2.04521,1.09437,0.51828,0.38413,-0.71805,0.26120,0.31921,-0.82835,-0.48662,
1403715567962142976,0.23254,-2.12905,1.05435,0.50377,0.43097,-0.68905,0.29273,0.37027,-0.81463,-0.45626,
1403715568062142976,0.27631,-2.20805,1.01618,-0.49127,-0.47294,0.65608,-0.32332,0.43089,-0.78497,-0.40539,
1403715568162142976,0.32616,-2.28385,0.98274,-0.47725,-0.50937,0.62180,-0.35516,0.50607,-0.73195,-0.37582,
1403715568262142976,0.38113,-2.35199,0.94980,-0.45755,-0.54382,0.58902,-0.38466,0.57295,-0.66621,-0.38039,
1403715568362142976,0.44365,-2.41295,0.91856,0.43449,0.57517,-0.55691,0.41261,0.62191,-0.58702,-0.34469,
1403715568462142976,0.50822,-2.46790,0.88914,0.41109,0.60481,-0.52351,0.43721,0.66004,-0.50805,-0.29458,
1403715568562142976,0.57788,-2.51036,0.86648,0.38633,0.63335,-0.48859,0.45922,0.70191,-0.40749,-0.22945,
1403715568662142976,0.64963,-2.54088,0.84730,0.36197,0.66117,-0.45127,0.47769,0.72620,-0.29635,-0.18205,
1403715568762142976,0.72567,-2.56606,0.83199,0.33435,0.68583,-0.41472,0.49583,0.75764,-0.20371,-0.13253,
1403715568862142976,0.80363,-2.58054,0.82115,0.30615,0.70960,-0.37808,0.50971,0.76943,-0.11717,-0.10554,
1403715568962142976,0.88136,-2.58661,0.81105,0.27629,0.73135,-0.34518,0.51927,0.76524,-0.03558,-0.11386,
1403715569062142976,0.96063,-2.58725,0.79990,0.24937,0.75044,-0.31424,0.52527,0.77174,0.02601,-0.12280,
1403715569162142976,1.03972,-2.58152,0.78834,0.22180,0.76588,-0.28432,0.53234,0.78418,0.07724,-0.12727,
1403715569262142976,1.11810,-2.57231,0.77732,0.19582,0.77470,-0.25801,0.54307,0.78263,0.09747,-0.08671,
1403715569362142976,1.19607,-2.56045,0.76904,0.17966,0.77399,-0.23146,0.56133,0.76241,0.12717,-0.07698,
1403715569462142976,1.27017,-2.54355,0.76282,0.16616,0.77242,-0.20692,0.57702,0.72672,0.18192,-0.05268,
1403715569562142976,1.34052,-2.52079,0.75785,0.15527,0.77526,-0.18061,0.58502,0.67124,0.25124,-0.03589,
1403715569662142976,1.40511,-2.48993,0.75248,0.14199,0.78164,-0.15398,0.58751,0.61179,0.33476,-0.05200,
1403715569762142976,1.46837,-2.44773,0.74730,0.12295,0.78985,-0.12818,0.58701,0.56260,0.43491,-0.03477,
1403715569862142976,1.52086,-2.39971,0.74500,0.09605,0.79675,-0.09993,0.58820,0.50657,0.51156,-0.01258,
1403715569962142976,1.56741,-2.34553,0.74433,0.07174,0.79769,-0.06634,0.59510,0.44052,0.58119,0.00115,
1403715570062142976,1.60739,-2.28612,0.74338,0.04601,0.79744,-0.03189,0.60079,0.37018,0.62981,-0.01282,
1403715570162142976,1.64093,-2.22160,0.74126,0.01947,0.79660,0.00397,0.60418,0.30275,0.67494,-0.02435,
1403715570262142976,1.66634,-2.15087,0.73846,-0.00848,0.79485,0.04105,0.60536,0.20905,0.72013,-0.02596,
1403715570362142976,1.68226,-2.07660,0.73352,-0.03756,0.78948,0.08024,0.60735,0.10786,0.75607,-0.05146,
1403715570462142976,1.68808,-1.99967,0.72586,-0.06917,0.78182,0.12002,0.60792,0.00449,0.78464,-0.06516,
1403715570562142976,1.68263,-1.92123,0.71876,-0.10007,0.77161,0.16207,0.60691,-0.12586,0.79160,-0.09586,
1403715570662142976,1.66253,-1.84227,0.70790,-0.13095,0.76355,0.20478,0.59825,-0.26032,0.78067,-0.14520,
1403715570762142976,1.63272,-1.76419,0.69388,-0.16176,0.75680,0.24736,0.58301,-0.37139,0.77776,-0.13928,
1403715570862142976,1.59401,-1.68710,0.68143,-0.19232,0.74572,0.29013,0.56810,-0.45412,0.77003,-0.14043,
1403715570962142976,1.54625,-1.61220,0.66728,-0.22074,0.73417,0.33005,0.55076,-0.52996,0.74498,-0.15852,
1403715571062142976,1.49109,-1.53894,0.65355,-0.24635,0.72410,0.36136,0.53329,-0.57372,0.72569,-0.16230,
1403715571162142976,1.43586,-1.46890,0.63880,-0.26999,0.71515,0.37870,0.52179,-0.58769,0.69284,-0.15022,
1403715571262142976,1.37859,-1.40296,0.62798,-0.28869,0.70040,0.38730,0.52545,-0.59992,0.63963,-0.10730,
1403715571362142976,1.31824,-1.34577,0.61889,-0.29843,0.68729,0.39210,0.53368,-0.63558,0.54896,-0.10166,
1403715571462142976,1.25349,-1.29751,0.60887,-0.29811,0.68750,0.39823,0.52904,-0.67318,0.47078,-0.11655,
1403715571562142976,1.18409,-1.25282,0.59525,-0.29812,0.69853,0.40044,0.51267,-0.71038,0.40860,-0.16136,
1403715571662142976,1.11330,-1.21274,0.57458,-0.30944,0.71873,0.39235,0.48347,-0.70153,0.38694,-0.27449,
1403715571762142976,1.04795,-1.17602,0.54248,-0.32538,0.74411,0.37801,0.44446,-0.60411,0.35811,-0.39282,
1403715571862142976,0.99464,-1.14430,0.50582,-0.33230,0.76630,0.36840,0.40822,-0.40797,0.34666,-0.38819,
1403715571962142976,0.96590,-1.11728,0.46949,-0.32987,0.78362,0.36467,0.37967,-0.13375,0.34911,-0.36061,
1403715572062142976,0.96148,-1.09398,0.43673,-0.31523,0.79365,0.37159,0.36425,0.18830,0.37738,-0.30353,
1403715572162142976,0.99310,-1.05483,0.40706,-0.28692,0.78909,0.39563,0.37215,0.47824,0.48407,-0.24573,
1403715572262142976,1.05004,-0.99908,0.38369,-0.26693,0.76379,0.42514,0.40575,0.65851,0.65858,-0.19353,
1403715572362142976,1.11938,-0.92544,0.36416,-0.26195,0.72157,0.45396,0.45236,0.69749,0.81663,-0.20738,
1403715572462142976,1.18692,-0.83989,0.34259,-0.27280,0.68026,0.47444,0.48758,0.61898,0.89542,-0.25407,
1403715572562142976,1.24484,-0.74954,0.31803,-0.29351,0.65348,0.48905,0.49763,0.50574,0.92844,-0.26704,
1403715572662142976,1.29063,-0.65791,0.29538,-0.31334,0.63237,0.50609,0.49579,0.36407,0.92637,-0.25541,
1403715572762142976,1.32174,-0.56774,0.27463,-0.32834,0.61531,0.52784,0.48474,0.22863,0.91123,-0.20944,
1403715572862142976,1.33761,-0.47914,0.26310,-0.34678,0.60335,0.54704,0.46526,0.08815,0.89276,-0.06648,
1403715572962142976,1.34221,-0.39194,0.26405,-0.36993,0.58893,0.56213,0.44757,-0.00848,0.87830,0.05865,
1403715573062142976,1.33698,-0.30580,0.27620,-0.39248,0.57125,0.57689,0.43224,-0.09620,0.84925,0.18822,
1403715573162142976,1.32321,-0.22418,0.29988,-0.41436,0.55421,0.59169,0.41358,-0.15251,0.79954,0.26421,
1403715573262142976,1.30502,-0.14699,0.32576,-0.43173,0.53641,0.60880,0.39401,-0.18940,0.74652,0.24715,
1403715573362142976,1.28497,-0.07347,0.34910,-0.44636,0.51935,0.62693,0.37148,-0.19894,0.71010,0.21716,
1403715573462142976,1.26476,-0.00246,0.37068,-0.46182,0.50419,0.64314,0.34480,-0.19193,0.69771,0.18524,
1403715573562142976,1.24708,0.06699,0.39265,-0.47678,0.48935,0.65760,0.31745,-0.16034,0.68958,0.20156,
1403715573662142976,1.23389,0.13415,0.41459,-0.48377,0.46751,0.67620,0.30025,-0.11934,0.69645,0.20415,
1403715573762142976,1.22284,0.20392,0.43273,-0.48128,0.44169,0.70021,0.28807,-0.11182,0.71509,0.18758,
1403715573862142976,1.20958,0.27553,0.45018,-0.47661,0.41413,0.72522,0.27458,-0.14073,0.73177,0.18593,
1403715573962142976,1.19516,0.34898,0.46908,-0.47751,0.38694,0.74689,0.25381,-0.19459,0.76182,0.18624,
1403715574062142976,1.17495,0.42537,0.48728,-0.48124,0.35803,0.76717,0.22733,-0.26242,0.80671,0.19959,
1403715574162142976,1.14669,0.50981,0.50765,-0.49130,0.32541,0.78255,0.20085,-0.33809,0.86668,0.22443,
1403715574262142976,1.11201,0.59841,0.53091,0.50833,-0.28460,-0.79165,-0.18408,-0.39096,0.91500,0.23522,
1403715574362142976,1.07352,0.68857,0.55296,0.52511,-0.23716,-0.79696,-0.18130,-0.43862,0.91216,0.22684,
1403715574462142976,1.02940,0.77554,0.57222,0.53318,-0.19668,-0.80197,-0.18410,-0.47544,0.85909,0.16864,
1403715574562142976,0.97892,0.85647,0.58580,0.53628,-0.16982,-0.80617,-0.18347,-0.53998,0.75892,0.12679,
1403715574662142976,0.92228,0.92696,0.59388,0.53356,-0.15001,-0.81294,-0.17870,-0.60608,0.64288,0.09613,
1403715574762142976,0.85829,0.98916,0.60253,0.53298,-0.13634,-0.81829,-0.16655,-0.68540,0.52324,0.07030,
1403715574862142976,0.78740,1.04063,0.61283,0.53639,-0.13623,-0.82039,-0.14384,-0.76473,0.42363,0.08826,
1403715574962142976,0.70818,1.08506,0.62648,0.54549,-0.13958,-0.81670,-0.12632,-0.81576,0.36886,0.13499,
1403715575062142976,0.62747,1.12481,0.64604,0.55660,-0.14032,-0.81006,-0.11963,-0.83004,0.34422,0.17911,
1403715575162142976,0.54534,1.15902,0.66681,0.57193,-0.13836,-0.79912,-0.12315,-0.81936,0.29918,0.22562,
1403715575262142976,0.46498,1.18692,0.69017,0.59106,-0.13484,-0.78393,-0.13388,-0.77111,0.22679,0.21315,
1403715575362142976,0.39155,1.20516,0.70807,0.58875,-0.13811,-0.78383,-0.14112,-0.70256,0.12971,0.13970,
1403715575462142976,0.32270,1.21537,0.72313,0.57519,-0.14650,-0.79212,-0.14231,-0.65947,0.04502,0.16235,
1403715575562142976,0.25514,1.21786,0.74305,0.56726,-0.14630,-0.79510,-0.15692,-0.65080,-0.02877,0.22919,
1403715575662142976,0.18610,1.20946,0.76698,0.56747,-0.13852,-0.79142,-0.18012,-0.66322,-0.15791,0.24114,
1403715575762142976,0.11610,1.18576,0.79005,0.56618,-0.13350,-0.78897,-0.19787,-0.68885,-0.33130,0.21415,
1403715575862142976,0.04409,1.14427,0.80969,0.56180,-0.13766,-0.79049,-0.20140,-0.71048,-0.51156,0.19136,
1403715575962142976,-0.03010,1.08543,0.82758,0.56161,-0.15005,-0.79123,-0.18986,-0.72820,-0.67113,0.16426,
1403715576062142976,-0.10650,1.01357,0.84486,0.56280,-0.16527,-0.79145,-0.17190,-0.74243,-0.78580,0.16314,
1403715576162142976,-0.18195,0.93247,0.86265,0.56564,-0.17501,-0.78987,-0.15981,-0.74328,-0.85369,0.14246,
1403715576262142976,-0.25781,0.84672,0.87794,0.56796,-0.18078,-0.78865,-0.15093,-0.73735,-0.88895,0.15396,
1403715576362142976,-0.33251,0.75764,0.89643,0.57609,-0.17900,-0.78301,-0.15155,-0.71728,-0.92241,0.18959,
1403715576462142976,-0.40271,0.66376,0.91811,0.59220,-0.17486,-0.77145,-0.15360,-0.66870,-0.97366,0.22412,
1403715576562142976,-0.46458,0.56355,0.94105,0.60559,-0.17180,-0.76064,-0.15868,-0.57328,-1.04033,0.23491,
1403715576662142976,-0.51580,0.45559,0.96317,0.61253,-0.17128,-0.75352,-0.16637,-0.45307,-1.13220,0.21152,
1403715576762142976,-0.55395,0.33879,0.98450,0.60815,-0.17720,-0.75427,-0.17274,-0.33346,-1.22716,0.21515,
1403715576862142976,-0.57995,0.21331,1.00389,0.59250,-0.18940,-0.76310,-0.17538,-0.22876,-1.31551,0.20669,
1403715576962142976,-0.59921,0.08005,1.02509,0.57593,-0.20205,-0.77219,-0.17661,-0.17624,-1.38078,0.21705,
1403715577062142976,-0.61449,-0.05799,1.04713,0.56962,-0.21959,-0.77320,-0.17166,-0.13852,-1.41882,0.21298,
1403715577162142976,-0.62827,-0.19704,1.06758,0.56654,-0.24105,-0.77046,-0.16525,-0.11120,-1.41534,0.17090,
1403715577262142976,-0.63876,-0.33643,1.07716,0.56570,-0.25766,-0.76611,-0.16333,-0.08750,-1.39026,-0.00750,
1403715577362142976,-0.64557,-0.47378,1.06423,0.56382,-0.26394,-0.76390,-0.17002,-0.06030,-1.37018,-0.22441,
1403715577462142976,-0.64900,-0.60862,1.03773,0.56139,-0.26535,-0.76338,-0.17799,-0.01820,-1.36755,-0.29230,
1403715577562142976,-0.64898,-0.74213,1.00973,0.55986,-0.26638,-0.76306,-0.18258,0.01353,-1.35703,-0.24282,
1403715577662142976,-0.64550,-0.87569,0.99352,0.55877,-0.26853,-0.76287,-0.18358,0.05325,-1.34810,-0.08908,
1403715577762142976,-0.63825,-1.00700,0.99086,0.55869,-0.27360,-0.76257,-0.17746,0.08431,-1.32620,0.02314,
1403715577862142976,-0.62755,-1.13564,0.99001,0.56066,-0.28436,-0.75887,-0.17006,0.13736,-1.27706,-0.06186,
1403715577962142976,-0.61090,-1.25920,0.97667,0.55967,-0.30022,-0.75432,-0.16627,0.20333,-1.22798,-0.22651,
1403715578062142976,-0.58756,-1.37729,0.94763,0.55394,-0.32333,-0.74993,-0.16191,0.26718,-1.15509,-0.37408,
1403715578162142976,-0.55684,-1.48871,0.90526,0.54056,-0.35846,-0.74659,-0.14802,0.34823,-1.05420,-0.49362,
1403715578262142976,-0.51915,-1.58482,0.85881,0.52968,-0.38817,-0.73832,-0.15379,0.42412,-0.84757,-0.45551,
1403715578362142976,-0.47390,-1.66314,0.81385,0.52063,-0.40975,-0.72748,-0.17837,0.53420,-0.69708,-0.45421,
1403715578462142976,-0.41824,-1.72497,0.76857,0.50621,-0.42853,-0.71888,-0.20815,0.59318,-0.55546,-0.45155,
1403715578562142976,-0.35934,-1.77499,0.72223,-0.47651,0.44577,0.72002,0.23623,0.62188,-0.44387,-0.48905,
1403715578662142976,-0.30237,-1.81606,0.67248,-0.43500,0.46286,0.73058,0.25056,0.56877,-0.31274,-0.48302,
1403715578762142976,-0.25317,-1.84422,0.62319,-0.40243,0.47820,0.73744,0.25604,0.46054,-0.13297,-0.45532,
1403715578862142976,-0.21372,-1.84965,0.57789,-0.38834,0.48883,0.73680,0.25953,0.32610,0.08587,-0.41332,
1403715578962142976,-0.18627,-1.83334,0.53625,-0.38995,0.48433,0.73231,0.27764,0.18050,0.31890,-0.33373,
1403715579062142976,-0.17467,-1.79481,0.50438,-0.39806,0.46597,0.72722,0.30915,0.02617,0.47362,-0.23828,
1403715579162142976,-0.18194,-1.74376,0.48626,-0.40382,0.43932,0.72356,0.34697,-0.18237,0.54282,-0.10244,
1403715579262142976,-0.21183,-1.69012,0.48014,-0.41270,0.41431,0.71705,0.37930,-0.41219,0.51378,-0.04225,
1403715579362142976,-0.26433,-1.64217,0.47554,-0.41831,0.40672,0.71230,0.39017,-0.62305,0.44135,-0.07351,
1403715579462142976,-0.33697,-1.60116,0.46868,-0.42063,0.41163,0.71039,0.38598,-0.82805,0.35883,-0.09198,
1403715579562142976,-0.42848,-1.56694,0.46032,-0.42372,0.42697,0.70937,0.36735,-1.00797,0.30092,-0.07757,
1403715579662142976,-0.53671,-1.53697,0.45535,-0.43112,0.43180,0.70643,0.35866,-1.15820,0.28956,-0.02949,
1403715579762142976,-0.65850,-1.50999,0.45490,-0.44415,0.43290,0.70045,0.35312,-1.26957,0.25619,0.03761,
1403715579862142976,-0.79082,-1.48606,0.46459,-0.44932,0.42762,0.69848,0.35689,-1.36833,0.20925,0.15481,
1403715579962142976,-0.93232,-1.46676,0.48345,-0.45366,0.43143,0.69325,0.35703,-1.44783,0.15634,0.19618,
1403715580062142976,-1.08026,-1.45207,0.49873,-0.45783,0.44587,0.68133,0.35691,-1.49255,0.12125,0.10942,
1403715580162142976,-1.22990,-1.44069,0.50252,-0.45769,0.46552,0.66594,0.36102,-1.51138,0.08257,-0.02992,
1403715580262142976,-1.38101,-1.43395,0.49391,-0.45334,0.48775,0.64865,0.36857,-1.52639,0.04246,-0.10606,
1403715580362142976,-1.53161,-1.43029,0.48399,-0.45118,0.51353,0.62678,0.37398,-1.51278,0.00735,-0.10044,
1403715580462142976,-1.68078,-1.43256,0.47511,-0.44830,0.54085,0.60294,0.37811,-1.47821,-0.03271,-0.06698,
1403715580562142976,-1.82605,-1.43854,0.46775,-0.44482,0.56542,0.58231,0.37861,-1.43129,-0.06335,-0.05809,
1403715580662142976,-1.96422,-1.44635,0.45999,-0.44350,0.58850,0.56578,0.36996,-1.33968,-0.08355,-0.06983,
1403715580762142976,-2.09155,-1.45531,0.45136,-0.44322,0.60854,0.55225,0.35813,-1.20629,-0.07010,-0.05454,
1403715580862142976,-2.20366,-1.46031,0.44500,-0.44729,0.62643,0.53837,0.34304,-1.03114,-0.04423,-0.04487,
1403715580962142976,-2.29536,-1.46163,0.44089,-0.45295,0.64427,0.52579,0.32140,-0.79435,0.00238,-0.01049,
1403715581062142976,-2.36256,-1.45740,0.44134,-0.44416,0.65187,0.52852,0.31378,-0.52158,0.06875,0.01808,
1403715581162142976,-2.40417,-1.44600,0.44469,-0.42955,0.65310,0.53728,0.31667,-0.26578,0.17948,0.07744,
1403715581262142976,-2.42637,-1.42236,0.45121,-0.42041,0.64559,0.54356,0.33318,-0.08465,0.28041,0.09015,
1403715581362142976,-2.43002,-1.38918,0.45857,-0.42465,0.63591,0.54624,0.34192,0.06120,0.36279,0.09303,
1403715581462142976,-2.41828,-1.35220,0.46529,-0.42772,0.61967,0.55830,0.34837,0.19419,0.40569,0.07701,
1403715581562142976,-2.39640,-1.30800,0.46766,-0.42564,0.59060,0.58133,0.36343,0.26172,0.46103,-0.01832,
1403715581662142976,-2.37099,-1.25920,0.45721,-0.42505,0.55826,0.60709,0.37298,0.26825,0.49228,-0.15062,
1403715581762142976,-2.34812,-1.20767,0.43885,-0.42471,0.52427,0.63498,0.37624,0.23354,0.50845,-0.18457,
1403715581862142976,-2.32970,-1.15666,0.42437,-0.42702,0.48875,0.66208,0.37473,0.14391,0.50114,-0.09072,
1403715581962142976,-2.32310,-1.10827,0.42054,-0.44139,0.46470,0.67942,0.35723,0.03392,0.47934,0.01323,
1403715582062142976,-2.32627,-1.06229,0.43053,-0.46949,0.44186,0.68403,0.34123,-0.04115,0.44627,0.14022,
1403715582162142976,-2.33345,-1.02165,0.44606,-0.49593,0.41818,0.68445,0.33272,-0.06147,0.37439,0.13197,
1403715582262142976,-2.34086,-0.98769,0.45294,0.51036,-0.40265,-0.68700,-0.32472,-0.05683,0.29956,-0.02555,
1403715582362142976,-2.34724,-0.95895,0.44543,0.50458,-0.39832,-0.69859,-0.31420,-0.05033,0.24397,-0.12737,
1403715582462142976,-2.35465,-0.93508,0.43436,-0.49268,0.39908,0.71042,0.30544,-0.07345,0.20181,-0.12354,
1403715582562142976,-2.36552,-0.91383,0.42947,-0.48015,0.40343,0.71968,0.29793,-0.11982,0.19135,-0.01156,
1403715582662142976,-2.38284,-0.89277,0.43699,-0.47059,0.40880,0.72448,0.29421,-0.18620,0.20067,0.11022,
1403715582762142976,-2.40536,-0.87162,0.44948,-0.46332,0.41564,0.72581,0.29286,-0.24483,0.22832,0.09881,
1403715582862142976,-2.43285,-0.84805,0.45309,-0.45333,0.42469,0.72781,0.29057,-0.29523,0.25059,-0.02983,
1403715582962142976,-2.46836,-0.81814,0.44361,-0.44029,0.43403,0.73146,0.28763,-0.36958,0.30919,-0.17120,
1403715583062142976,-2.51040,-0.78105,0.42322,-0.43092,0.44185,0.73312,0.28569,-0.46071,0.39708,-0.27398,
1403715583162142976,-2.56285,-0.73321,0.39987,-0.43958,0.44344,0.72442,0.29214,-0.56134,0.51422,-0.24122,
1403715583262142976,-2.62239,-0.67861,0.37902,-0.46600,0.44003,0.70488,0.30391,-0.61218,0.55348,-0.21780,
1403715583362142976,-2.68471,-0.62129,0.35869,-0.49569,0.43579,0.68289,0.31311,-0.61061,0.54670,-0.23232,
1403715583462142976,-2.74572,-0.56747,0.33600,0.52196,-0.43069,-0.66314,-0.31985,-0.58350,0.49554,-0.25076,
1403715583562142976,-2.80084,-0.52215,0.31141,0.54393,-0.42203,-0.64671,-0.32831,-0.50025,0.38795,-0.23888,
1403715583662142976,-2.84473,-0.49119,0.29043,0.57296,-0.40481,-0.62358,-0.34495,-0.37306,0.21205,-0.22264,
1403715583762142976,-2.87519,-0.48202,0.26787,0.59864,-0.38527,-0.60142,-0.36263,-0.22081,-0.04687,-0.22700,
1403715583862142976,-2.88854,-0.50398,0.24988,0.61619,-0.37127,-0.58605,-0.37284,-0.03817,-0.40653,-0.12716,
1403715583962142976,-2.88095,-0.56502,0.24684,0.62147,-0.37226,-0.58342,-0.36718,0.18831,-0.80832,0.04841,
1403715584062142976,-2.84898,-0.66376,0.26221,0.61733,-0.38506,-0.59101,-0.34835,0.44286,-1.16735,0.23490,
1403715584162142976,-2.79177,-0.79300,0.29488,0.59921,-0.40603,-0.61024,-0.32200,0.67917,-1.43984,0.39851,
1403715584262142976,-2.71286,-0.94309,0.34007,0.56766,-0.42995,-0.63850,-0.29194,0.88373,-1.58247,0.47967,
1403715584362142976,-2.61730,-1.10173,0.38277,0.53429,-0.44793,-0.66551,-0.26645,0.99369,-1.58891,0.35037,
1403715584462142976,-2.51175,-1.25767,0.40716,0.50778,-0.45633,-0.68511,-0.25407,1.08071,-1.54311,0.15632,
1403715584562142976,-2.39865,-1.40559,0.41825,-0.49243,0.45937,0.69619,0.24862,1.12873,-1.42781,0.11890,
1403715584662142976,-2.28271,-1.54138,0.42905,-0.47956,0.45713,0.70540,0.25192,1.15893,-1.29353,0.13032,
1403715584762142976,-2.16344,-1.66217,0.44209,-0.46224,0.44810,0.71834,0.26367,1.13927,-1.14430,0.16047,
1403715584862142976,-2.04983,-1.76894,0.45782,-0.45113,0.44247,0.72544,0.27282,1.07452,-1.02535,0.18469,
1403715584962142976,-1.95169,-1.86593,0.47459,-0.43391,0.43870,0.73500,0.28115,0.97394,-0.91181,0.17358,
1403715585062142976,-1.86859,-1.95435,0.48850,-0.41391,0.44385,0.74406,0.27936,0.83203,-0.79744,0.13741,
1403715585162142976,-1.79750,-2.02625,0.50354,-0.39930,0.45253,0.74971,0.27151,0.65904,-0.63883,0.15111,
1403715585262142976,-1.73954,-2.07718,0.52139,-0.39801,0.45496,0.74977,0.26915,0.48788,-0.42420,0.20004,
1403715585362142976,-1.69661,-2.11048,0.54273,-0.41121,0.44840,0.74365,0.27718,0.33341,-0.24913,0.22654,
1403715585462142976,-1.66265,-2.13302,0.56278,-0.42469,0.44006,0.73776,0.28582,0.21652,-0.14140,0.21647,
1403715585562142976,-1.64103,-2.14495,0.58345,-0.43846,0.42970,0.73167,0.29626,0.10778,-0.06414,0.19908,
1403715585662142976,-1.63131,-2.14956,0.60009,-0.44764,0.42239,0.72780,0.30251,0.01737,-0.01740,0.13748,
1403715585762142976,-1.63059,-2.15081,0.60734,-0.44959,0.42025,0.72766,0.30292,-0.06662,0.01165,0.00591,
1403715585862142976,-1.64148,-2.14797,0.59651,-0.45345,0.42493,0.72562,0.29545,-0.12785,0.03340,-0.24877,
1403715585962142976,-1.65632,-2.14126,0.56733,-0.46253,0.43768,0.71921,0.27794,-0.17586,0.08662,-0.33443,
1403715586062142976,-1.67355,-2.12682,0.53906,-0.47835,0.45289,0.70673,0.25809,-0.17610,0.18705,-0.22679,
1403715586162142976,-1.68850,-2.10252,0.52641,0.50173,-0.45192,-0.68945,-0.26209,-0.11356,0.27045,-0.06321,
1403715586262142976,-1.69366,-2.07487,0.52562,0.51182,-0.43802,-0.68277,-0.28285,-0.02301,0.27210,0.01511,
1403715586362142976,-1.69363,-2.04756,0.52652,0.51075,-0.41909,-0.68386,-0.30957,0.01171,0.24384,0.01100,
1403715586462142976,-1.69483,-2.02570,0.52744,0.51140,-0.40344,-0.68288,-0.33072,0.00084,0.16774,-0.01140,
1403715586562142976,-1.69536,-2.01269,0.52806,0.51421,-0.39575,-0.68077,-0.33990,-0.00672,0.05220,-0.01382,
1403715586662142976,-1.69676,-2.01090,0.52863,0.51430,-0.39529,-0.68066,-0.34051,-0.01793,-0.06522,-0.02615,
1403715586762142976,-1.69936,-2.02100,0.52868,0.51024,-0.40470,-0.68370,-0.32929,-0.02266,-0.17659,-0.04124,
1403715586862142976,-1.70071,-2.04003,0.52765,-0.49961,0.42084,0.69090,0.30975,-0.01447,-0.23642,-0.02378,
1403715586962142976,-1.70296,-2.06229,0.52984,-0.48807,0.43241,0.69753,0.29710,-0.01752,-0.23886,0.01141,
1403715587062142976,-1.70473,-2.08337,0.53413,-0.48373,0.43775,0.69915,0.29251,-0.01942,-0.21247,0.03509,
1403715587162142976,-1.70659,-2.10179,0.54132,-0.48662,0.43473,0.69658,0.29830,-0.02386,-0.18805,0.09191,
1403715587262142976,-1.70947,-2.11999,0.55407,-0.49410,0.42517,0.69250,0.30911,-0.03809,-0.18927,0.14033,
1403715587362142976,-1.71380,-2.14074,0.56858,0.50184,-0.42063,-0.68962,-0.30927,-0.05193,-0.23017,0.12990,
1403715587462142976,-1.71725,-2.16366,0.58337,0.51155,-0.42424,-0.68496,-0.29862,-0.02738,-0.25815,0.12662,
1403715587562142976,-1.71530,-2.18981,0.59902,0.51619,-0.43580,-0.67948,-0.28623,0.04451,-0.27624,0.14178,
1403715587662142976,-1.70595,-2.21706,0.61563,0.51592,-0.45452,-0.67120,-0.27700,0.14172,-0.27255,0.14771,
1403715587762142976,-1.68601,-2.24246,0.63197,0.50720,-0.47583,-0.66296,-0.27715,0.26465,-0.24087,0.15619,
1403715587862142976,-1.65493,-2.26278,0.64968,-0.49728,0.49837,0.64850,0.28947,0.37535,-0.19320,0.18087,
1403715587962142976,-1.61249,-2.27876,0.66837,-0.48410,0.51739,0.63044,0.31700,0.48228,-0.16303,0.19951,
1403715588062142976,-1.56141,-2.29454,0.68611,-0.47184,0.53293,0.60812,0.35148,0.55322,-0.17204,0.17050,
1403715588162142976,-1.50464,-2.31357,0.69484,-0.45925,0.54804,0.58362,0.38488,0.59913,-0.22060,0.01064,
1403715588262142976,-1.44502,-2.33766,0.68276,-0.44689,0.56535,0.55693,0.41291,0.61174,-0.28701,-0.23527,
1403715588362142976,-1.38434,-2.36890,0.65103,-0.43333,0.58622,0.53046,0.43265,0.62023,-0.38096,-0.34902,
1403715588462142976,-1.32100,-2.41046,0.61466,-0.41709,0.60500,0.50693,0.45059,0.63436,-0.48562,-0.34503,
1403715588562142976,-1.25577,-2.46226,0.58006,-0.40002,0.62433,0.48501,0.46364,0.65049,-0.58364,-0.32794,
1403715588662142976,-1.18986,-2.52247,0.54563,-0.38002,0.64627,0.46602,0.46984,0.65478,-0.67150,-0.34181,
1403715588762142976,-1.12252,-2.58967,0.51019,-0.35444,0.66971,0.45150,0.47117,0.66124,-0.72841,-0.34286,
1403715588862142976,-1.05345,-2.65880,0.47266,-0.32109,0.69495,0.44132,0.46817,0.67613,-0.73743,-0.36169,
1403715588962142976,-0.98270,-2.72676,0.43368,-0.28490,0.72078,0.43244,0.46076,0.69386,-0.68566,-0.37043,
1403715589062142976,-0.91043,-2.78432,0.39772,-0.25406,0.74363,0.41965,0.45427,0.71845,-0.56056,-0.28829,
1403715589162142976,-0.83404,-2.82768,0.37379,-0.23308,0.75965,0.40323,0.45389,0.77388,-0.38233,-0.14377,
1403715589262142976,-0.74896,-2.84942,0.36512,-0.21768,0.77093,0.38700,0.45663,0.83312,-0.20495,-0.00189,
1403715589362142976,-0.65830,-2.85665,0.36733,-0.20154,0.78425,0.37158,0.45415,0.91039,-0.04106,0.12179,
1403715589462142976,-0.56066,-2.84874,0.37788,-0.18814,0.79799,0.35387,0.45010,0.99821,0.13031,0.14300,
1403715589562142976,-0.45401,-2.82642,0.39130,-0.17397,0.80842,0.34027,0.44767,1.10597,0.30351,0.17626,
1403715589662142976,-0.33496,-2.78440,0.41418,-0.16567,0.81421,0.33055,0.44760,1.24541,0.51964,0.32874,
1403715589762142976,-0.20297,-2.72093,0.45617,-0.16612,0.80815,0.32301,0.46365,1.38860,0.74202,0.54065,
1403715589862142976,-0.05998,-2.63952,0.51662,-0.17787,0.78614,0.31448,0.50146,1.45353,0.87780,0.65390,
1403715589962142976,0.08570,-2.54769,0.57943,-0.19244,0.76843,0.30590,0.52811,1.43089,0.93463,0.59036,
1403715590062142976,0.22855,-2.45298,0.63528,-0.20163,0.75805,0.30229,0.54159,1.39563,0.95086,0.52687,
1403715590162142976,0.36490,-2.35867,0.68711,-0.20175,0.75432,0.30521,0.54511,1.32950,0.94615,0.48529,
1403715590262142976,0.49569,-2.26317,0.73226,-0.19907,0.75459,0.31526,0.53998,1.25967,0.95467,0.44613,
1403715590362142976,0.61975,-2.16446,0.77608,-0.19506,0.74908,0.33502,0.53721,1.18975,1.00601,0.43270,
1403715590462142976,0.73592,-2.05871,0.81957,-0.19452,0.73786,0.36180,0.53557,1.10551,1.09384,0.40788,
1403715590562142976,0.84058,-1.94421,0.85685,-0.19932,0.72377,0.39224,0.53158,0.99355,1.18445,0.37428,
1403715590662142976,0.93311,-1.82172,0.89181,-0.21330,0.71332,0.42079,0.51827,0.86672,1.26651,0.33483,
1403715590762142976,1.01237,-1.69066,0.92538,-0.24342,0.70669,0.44087,0.49696,0.75717,1.35342,0.33608,
1403715590862142976,1.08242,-1.55495,0.96319,-0.27789,0.69116,0.45957,0.48360,0.67810,1.40098,0.36868,
1403715590962142976,1.14715,-1.41563,1.00110,-0.30757,0.66947,0.48340,0.47280,0.61117,1.41734,0.35900,
1403715591062142976,1.20449,-1.27679,1.03659,-0.32906,0.64779,0.51315,0.45690,0.54046,1.41921,0.33647,
1403715591162142976,1.25337,-1.13806,1.07085,-0.34553,0.62182,0.54716,0.44109,0.48252,1.42166,0.30810,
1403715591262142976,1.29692,-0.99709,1.10195,-0.35677,0.59056,0.58417,0.42744,0.39668,1.42057,0.27880,
1403715591362142976,1.33124,-0.85337,1.13019,-0.36910,0.55731,0.61800,0.41382,0.28065,1.44187,0.26586,
1403715591462142976,1.35399,-0.70814,1.15634,-0.38443,0.52472,0.64712,0.39765,0.15707,1.44522,0.23372,
1403715591562142976,1.36367,-0.56285,1.17531,-0.40051,0.49612,0.67253,0.37571,0.03450,1.43872,0.10560,
1403715591662142976,1.36293,-0.41723,1.18411,-0.41957,0.46989,0.69288,0.35082,-0.06998,1.44989,-0.00050,
1403715591762142976,1.35393,-0.26849,1.17952,-0.43610,0.43898,0.71027,0.33561,-0.15698,1.44785,-0.12166,
1403715591862142976,1.33545,-0.12062,1.16554,-0.44905,0.40974,0.72641,0.32061,-0.25359,1.42557,-0.23871,
1403715591962142976,1.30416,0.02557,1.13980,-0.45878,0.37823,0.74247,0.30854,-0.36492,1.39617,-0.35476,
1403715592062142976,1.26330,0.16929,1.10144,-0.46461,0.34248,0.75948,0.30006,-0.48816,1.34265,-0.45081,
1403715592162142976,1.20849,0.30190,1.05872,-0.47604,0.30498,0.77231,0.28967,-0.65146,1.25227,-0.37959,
1403715592262142976,1.13754,0.42365,1.02812,-0.49508,0.26491,0.77957,0.27749,-0.80167,1.10662,-0.24101,
1403715592362142976,1.05235,0.52874,1.01074,0.50966,-0.22535,-0.78778,-0.26240,-0.94216,0.92826,-0.12120,
1403715592462142976,0.95633,0.61624,1.00533,0.51887,-0.18660,-0.79750,-0.24487,-1.04805,0.73894,-0.02570,
1403715592562142976,0.84725,0.68548,1.00211,0.52798,-0.14652,-0.80469,-0.22859,-1.12826,0.54254,-0.01226,
1403715592662142976,0.72690,0.73366,0.99599,0.53581,-0.10614,-0.81015,-0.21284,-1.22864,0.33040,-0.04785,
1403715592762142976,0.59684,0.76020,0.99181,0.54252,-0.06781,-0.81516,-0.19128,-1.30288,0.08338,-0.03150,
1403715592862142976,0.46176,0.76239,0.98847,0.55007,-0.04672,-0.82075,-0.14699,-1.35369,-0.13063,-0.03280,
1403715592962142976,0.32335,0.74466,0.98801,0.55620,-0.03405,-0.82536,-0.09085,-1.38339,-0.27796,-0.02510,
1403715593062142976,0.18217,0.71524,0.98786,0.56297,-0.01685,-0.82542,-0.03809,-1.38714,-0.35080,-0.02097,
1403715593162142976,0.04081,0.68014,0.98778,0.56752,0.01209,-0.82327,0.00166,-1.37559,-0.36991,-0.01645,
1403715593262142976,-0.09984,0.64435,0.98529,0.57107,0.04729,-0.81899,0.03000,-1.35963,-0.37360,-0.01550,
1403715593362142976,-0.23709,0.60802,0.98299,0.57131,0.08921,-0.81473,0.04313,-1.33137,-0.37971,-0.01828,
1403715593462142976,-0.37256,0.56795,0.98003,0.57003,0.13444,-0.80905,0.04927,-1.30046,-0.43313,-0.01918,
1403715593562142976,-0.50330,0.52077,0.97605,0.56880,0.17452,-0.80139,0.06152,-1.24921,-0.52900,-0.01516,
1403715593662142976,-0.62834,0.46515,0.97287,0.57416,0.20891,-0.78732,0.08262,-1.17146,-0.60984,-0.00825,
1403715593762142976,-0.74421,0.40055,0.97119,0.58218,0.23916,-0.76963,0.10742,-1.06830,-0.69110,-0.01320,
1403715593862142976,-0.84956,0.32938,0.96808,0.58253,0.27243,-0.75464,0.13025,-0.93303,-0.75523,-0.03986,
1403715593962142976,-0.94190,0.25238,0.96277,0.57278,0.30719,-0.74397,0.15512,-0.79368,-0.80719,-0.06489,
1403715594062142976,-1.02041,0.16943,0.95719,0.55615,0.34195,-0.73600,0.17907,-0.67098,-0.86111,-0.06082,
1403715594162142976,-1.08850,0.08171,0.95239,0.53788,0.37241,-0.72827,0.20399,-0.56629,-0.91044,-0.06573,
1403715594262142976,-1.14639,-0.01234,0.95067,0.52332,0.40042,-0.71720,0.22678,-0.48140,-0.95301,-0.03018,
1403715594362142976,-1.19536,-0.11107,0.94991,0.51286,0.42902,-0.70164,0.24622,-0.39631,-1.00179,-0.00603,
1403715594462142976,-1.23299,-0.21503,0.95024,0.50388,0.46036,-0.68217,0.26232,-0.29769,-1.04627,-0.00248,
1403715594562142976,-1.25973,-0.32318,0.94974,-0.49530,-0.49495,0.65836,-0.27617,-0.18614,-1.09276,-0.00360,
1403715594662142976,-1.27259,-0.43405,0.94847,-0.48046,-0.52900,0.63615,-0.29092,-0.04949,-1.13629,-0.02904,
1403715594762142976,-1.27218,-0.55130,0.94402,-0.44907,-0.56005,0.62392,-0.30887,0.07739,-1.18925,-0.06597,
1403715594862142976,-1.26057,-0.67393,0.94036,-0.41415,-0.58449,0.61284,-0.33359,0.16542,-1.27644,-0.05787,
1403715594962142976,-1.24117,-0.80597,0.93617,0.38412,0.60866,-0.59656,0.35511,0.21935,-1.35591,-0.05835,
1403715595062142976,-1.21850,-0.94649,0.93141,0.36135,0.63294,-0.57407,0.37316,0.25469,-1.45439,-0.05460,
1403715595162142976,-1.19097,-1.09719,0.92804,0.33987,0.65093,-0.55042,0.39726,0.28994,-1.55010,-0.03085,
1403715595262142976,-1.16035,-1.25508,0.92486,0.32157,0.66775,-0.52242,0.42165,0.31304,-1.62455,-0.04355,
1403715595362142976,-1.12800,-1.41807,0.91958,0.30644,0.68310,-0.48975,0.44678,0.32801,-1.66756,-0.07527,
1403715595462142976,-1.09490,-1.58295,0.91325,0.28985,0.69659,-0.45605,0.47198,0.33079,-1.69344,-0.07670,
1403715595562142976,-1.06144,-1.74889,0.90846,0.27995,0.71156,-0.41523,0.49285,0.31687,-1.68343,-0.05625,
1403715595662142976,-1.02881,-1.91136,0.90464,0.28470,0.72619,-0.36217,0.51031,0.33628,-1.62748,-0.04496,
1403715595762142976,-0.99179,-2.06428,0.90093,0.29610,0.73595,-0.30309,0.52806,0.38058,-1.48051,-0.03100,
1403715595862142976,-0.95094,-2.20267,0.89944,0.30386,0.73932,-0.24839,0.54715,0.41858,-1.25757,0.00819,
1403715595962142976,-0.90672,-2.31326,0.90395,0.30673,0.73174,-0.20368,0.57357,0.42880,-0.93802,0.06658,
1403715596062142976,-0.86305,-2.39020,0.91639,0.29516,0.71352,-0.17541,0.61073,0.37050,-0.56451,0.14471,
1403715596162142976,-0.82814,-2.43179,0.93862,0.27727,0.70156,-0.16182,0.63620,0.23548,-0.17926,0.22193,
1403715596262142976,-0.81128,-2.43538,0.96483,0.25922,0.71781,-0.16049,0.62593,0.07617,0.16744,0.26347,
1403715596362142976,-0.80587,-2.41063,0.99245,0.23206,0.75867,-0.16987,0.58456,-0.00460,0.43319,0.27115,
1403715596462142976,-0.80369,-2.36388,1.02047,0.19615,0.79584,-0.18070,0.54361,0.01384,0.59168,0.28792,
1403715596562142976,-0.79500,-2.30515,1.05098,0.16300,0.82345,-0.18496,0.51102,0.11327,0.65334,0.30706,
1403715596662142976,-0.77301,-2.24452,1.08327,0.13441,0.84454,-0.18190,0.48538,0.27174,0.63410,0.31280,
1403715596762142976,-0.73463,-2.18505,1.11451,0.11266,0.85894,-0.17082,0.46941,0.46634,0.58380,0.31214,
1403715596862142976,-0.67932,-2.13017,1.14252,0.09069,0.87079,-0.16014,0.45590,0.68472,0.51099,0.28131,
1403715596962142976,-0.60091,-2.08388,1.16672,0.07476,0.88062,-0.15074,0.44295,0.92046,0.41502,0.25359,
1403715597062142976,-0.49779,-2.04499,1.18923,0.06708,0.88491,-0.14268,0.43826,1.17567,0.30676,0.24678,
1403715597162142976,-0.36837,-2.01832,1.21485,0.06227,0.87897,-0.13685,0.45256,1.44444,0.20407,0.26620,
1403715597262142976,-0.21548,-2.00113,1.24192,0.05438,0.86307,-0.13145,0.48465,1.63924,0.12508,0.27191,
1403715597362142976,-0.04780,-1.99177,1.26714,0.04319,0.84457,-0.12300,0.51933,1.73748,0.05758,0.24723,
1403715597462142976,0.12719,-1.98962,1.29247,0.03271,0.82511,-0.10805,0.55357,1.77401,-0.01217,0.24241,
1403715597562142976,0.30142,-1.99194,1.31534,0.02478,0.81150,-0.08419,0.57772,1.72324,-0.03956,0.19909,
1403715597662142976,0.46907,-1.99852,1.33755,0.01344,0.80719,-0.05786,0.58729,1.65298,-0.07666,0.14968,
1403715597762142976,0.62761,-2.00857,1.35202,0.00154,0.80978,-0.03264,0.58583,1.59359,-0.10822,0.12383,
1403715597862142976,0.78179,-2.02052,1.36444,-0.00901,0.81083,-0.01422,0.58505,1.53614,-0.14184,0.12026,
1403715597962142976,0.93164,-2.03440,1.37742,-0.01492,0.80435,-0.00070,0.59397,1.47509,-0.16634,0.13822,
1403715598062142976,1.07470,-2.05051,1.38913,-0.01694,0.79931,0.00817,0.60062,1.38369,-0.18493,0.11283,
1403715598162142976,1.20859,-2.06790,1.39548,-0.01306,0.79516,0.01613,0.60604,1.30695,-0.17632,0.04304,
1403715598262142976,1.33369,-2.08512,1.39373,-0.01340,0.78489,0.01769,0.61924,1.20167,-0.17395,-0.07947,
1403715598362142976,1.44688,-2.10215,1.38016,-0.01470,0.77021,0.01619,0.63741,1.06873,-0.16844,-0.15580,
1403715598462142976,1.54420,-2.12010,1.36612,-0.01926,0.75015,0.01091,0.66089,0.84692,-0.17941,-0.14420,
1403715598562142976,1.61132,-2.14010,1.35254,-0.02442,0.73652,0.00481,0.67596,0.56536,-0.21292,-0.14548,
1403715598662142976,1.65239,-2.16279,1.33944,-0.02256,0.73930,0.00273,0.67299,0.29963,-0.23489,-0.17608,
1403715598762142976,1.67868,-2.18308,1.31952,-0.01533,0.75933,0.00272,0.65051,0.08977,-0.23373,-0.23394,
1403715598862142976,1.68384,-2.20232,1.29245,-0.00930,0.78092,0.00345,0.62455,-0.06521,-0.22495,-0.26462,
1403715598962142976,1.67759,-2.22205,1.26335,-0.00375,0.79485,0.00478,0.60677,-0.14382,-0.20766,-0.30505,
1403715599062142976,1.66165,-2.24077,1.23145,-0.00061,0.80097,0.00599,0.59867,-0.19042,-0.17698,-0.33178,
1403715599162142976,1.64052,-2.25815,1.19857,0.00018,0.80194,0.00609,0.59738,-0.23701,-0.15823,-0.36413,
1403715599262142976,1.61202,-2.27270,1.15916,-0.00639,0.80757,0.00114,0.58974,-0.28765,-0.13543,-0.41361,
1403715599362142976,1.58035,-2.28644,1.11635,-0.01767,0.81229,-0.00726,0.58295,-0.31901,-0.14518,-0.44618,
1403715599462142976,1.54733,-2.30257,1.07080,-0.03264,0.81272,-0.01790,0.58146,-0.32779,-0.17846,-0.45690,
1403715599562142976,1.51587,-2.32425,1.02558,-0.04355,0.81113,-0.02552,0.58269,-0.33268,-0.25652,-0.44285,
1403715599662142976,1.48186,-2.35487,0.98467,-0.05149,0.80596,-0.03177,0.58887,-0.35411,-0.35829,-0.40496,
1403715599762142976,1.44495,-2.39451,0.94642,-0.04763,0.79977,-0.03046,0.59764,-0.40075,-0.44982,-0.38649,
1403715599862142976,1.40199,-2.44334,0.90772,-0.03318,0.79727,-0.02201,0.60231,-0.46672,-0.52832,-0.40092,
1403715599962142976,1.35236,-2.49548,0.86724,-0.01583,0.80415,-0.01197,0.59410,-0.52098,-0.56411,-0.41405,
1403715600062142976,1.30099,-2.54948,0.82476,-0.00037,0.81122,-0.00132,0.58474,-0.54131,-0.54894,-0.41340,
1403715600162142976,1.24741,-2.59951,0.78445,0.01901,0.81436,0.02282,0.57960,-0.55064,-0.47807,-0.40542,
1403715600262142976,1.19260,-2.64008,0.74370,0.03198,0.81501,0.05474,0.57597,-0.54221,-0.34362,-0.40651,
1403715600362142976,1.13847,-2.66741,0.70343,0.02874,0.81451,0.08687,0.57289,-0.55078,-0.18048,-0.41845,
1403715600462142976,1.08203,-2.67725,0.66310,0.00712,0.81691,0.11448,0.56525,-0.56451,-0.01668,-0.43560,
1403715600562142976,1.02643,-2.67144,0.62312,-0.03319,0.82491,0.13333,0.54831,-0.54563,0.12258,-0.40670,
1403715600662142976,0.97372,-2.65262,0.58859,-0.07110,0.82815,0.15612,0.53362,-0.48599,0.22892,-0.30079,
1403715600762142976,0.92777,-2.62633,0.56500,-0.10115,0.82245,0.18623,0.52788,-0.42068,0.30283,-0.15578,
1403715600862142976,0.88988,-2.59309,0.55335,-0.12520,0.81245,0.21909,0.52560,-0.35363,0.37123,-0.02911,
1403715600962142976,0.85878,-2.55298,0.55636,-0.14591,0.80146,0.24880,0.52390,-0.29414,0.43943,0.11595,
1403715601062142976,0.83408,-2.50690,0.57176,-0.16194,0.79002,0.27148,0.52531,-0.23734,0.49076,0.21392,
1403715601162142976,0.81095,-2.45689,0.59841,-0.17001,0.78158,0.28769,0.52674,-0.21195,0.52528,0.33258,
1403715601262142976,0.79008,-2.40122,0.63633,-0.17097,0.77496,0.29885,0.52999,-0.20193,0.58065,0.43997,
1403715601362142976,0.76865,-2.33887,0.67904,-0.16884,0.76956,0.30856,0.53297,-0.21831,0.64518,0.43566,
1403715601462142976,0.74594,-2.27081,0.71930,-0.17254,0.76760,0.31103,0.53318,-0.23902,0.70165,0.38066,
1403715601562142976,0.72116,-2.19801,0.75517,-0.17756,0.76735,0.30953,0.53276,-0.24969,0.76160,0.34546,
1403715601662142976,0.69551,-2.12049,0.78909,-0.18245,0.76853,0.30621,0.53133,-0.25596,0.80638,0.32596,
1403715601762142976,0.66955,-2.03833,0.82203,-0.18817,0.76561,0.30235,0.53574,-0.26321,0.84539,0.33061,
1403715601862142976,0.64232,-1.95454,0.85429,-0.19062,0.76258,0.29853,0.54131,-0.27452,0.85659,0.31196,
1403715601962142976,0.61336,-1.87067,0.88560,-0.19045,0.75755,0.28725,0.55438,-0.29267,0.84971,0.32010,
1403715602062142976,0.58088,-1.78781,0.91593,-0.19010,0.74671,0.26943,0.57766,-0.34296,0.82103,0.26866,
1403715602162142976,0.54207,-1.70917,0.93963,-0.18653,0.74245,0.24836,0.59354,-0.42624,0.75387,0.20738,
1403715602262142976,0.49199,-1.64056,0.96006,-0.17911,0.74902,0.22516,0.59682,-0.53211,0.66329,0.17397,
1403715602362142976,0.43238,-1.57885,0.97626,-0.16164,0.76374,0.20628,0.58993,-0.61310,0.59063,0.13456,
1403715602462142976,0.36620,-1.52233,0.98755,-0.14033,0.78283,0.18781,0.57638,-0.66008,0.54123,0.14084,
1403715602562142976,0.29659,-1.47000,0.99917,-0.11991,0.79710,0.16889,0.56721,-0.67727,0.50780,0.13596,
1403715602662142976,0.22689,-1.42032,1.00609,-0.09592,0.80292,0.15149,0.56849,-0.68140,0.49198,0.03676,
1403715602762142976,0.15731,-1.36965,1.00150,-0.07368,0.80765,0.13121,0.57013,-0.68875,0.50582,-0.12775,
1403715602862142976,0.08834,-1.31488,0.98251,-0.05567,0.81316,0.10864,0.56910,-0.68634,0.53879,-0.25681,
1403715602962142976,0.02071,-1.25740,0.95116,-0.03915,0.81882,0.08679,0.56610,-0.67027,0.57049,-0.37067,
1403715603062142976,-0.04337,-1.19715,0.91044,-0.02390,0.82056,0.06495,0.56736,-0.65401,0.60603,-0.43879,
1403715603162142976,-0.10674,-1.13248,0.86714,-0.00814,0.82147,0.04169,0.56866,-0.64133,0.62642,-0.45238,
1403715603262142976,-0.16919,-1.06517,0.82392,0.00617,0.82557,0.01940,0.56393,-0.61612,0.67231,-0.44740,
1403715603362142976,-0.22819,-0.99638,0.78276,0.01806,0.83029,0.00210,0.55703,-0.57603,0.70783,-0.41917,
1403715603462142976,-0.28239,-0.92254,0.74582,0.02070,0.83061,-0.01443,0.55629,-0.51840,0.75158,-0.36168,
1403715603562142976,-0.33251,-0.84661,0.71315,0.01536,0.82947,-0.03107,0.55747,-0.47179,0.75784,-0.31065,
1403715603662142976,-0.37783,-0.77278,0.68294,0.00484,0.82859,-0.04794,0.55777,-0.42974,0.72495,-0.29803,
1403715603762142976,-0.41833,-0.70431,0.65625,-0.00527,0.82471,-0.06169,0.56215,-0.37951,0.65653,-0.22383,
1403715603862142976,-0.45588,-0.64466,0.63789,-0.01501,0.82312,-0.07182,0.56311,-0.35736,0.54683,-0.13420,
1403715603962142976,-0.48971,-0.59645,0.63019,-0.02187,0.83383,-0.07694,0.54620,-0.30527,0.41901,-0.04583,
1403715604062142976,-0.51649,-0.55972,0.62868,-0.01408,0.84271,-0.07066,0.53353,-0.21875,0.29888,0.00690,
1403715604162142976,-0.53606,-0.52962,0.62855,0.00426,0.84318,-0.05809,0.53446,-0.13880,0.23475,-0.01862,
1403715604262142976,-0.54752,-0.50831,0.62608,0.01677,0.83857,-0.04934,0.54230,-0.06362,0.19955,-0.04602,
1403715604362142976,-0.55186,-0.48794,0.61963,0.02242,0.83614,-0.04558,0.54616,-0.01202,0.19256,-0.09653,
1403715604462142976,-0.54771,-0.47108,0.61149,0.02435,0.83652,-0.04452,0.54559,0.06845,0.18727,-0.08504,
1403715604562142976,-0.53829,-0.45347,0.60409,0.02518,0.83091,-0.04404,0.55409,0.11861,0.18073,-0.08786,
1403715604662142976,-0.52503,-0.43525,0.59606,0.02738,0.82362,-0.04270,0.56487,0.14275,0.18035,-0.08692,
1403715604762142976,-0.50905,-0.41761,0.58724,0.03012,0.82038,-0.04113,0.56954,0.15339,0.19133,-0.09617,
1403715604862142976,-0.49258,-0.39704,0.57810,0.03005,0.82035,-0.04147,0.56956,0.16570,0.20578,-0.07935,
1403715604962142976,-0.47576,-0.37648,0.57097,0.03150,0.82189,-0.04002,0.56736,0.16248,0.21179,-0.07674,
1403715605062142976,-0.45739,-0.35445,0.56553,0.03086,0.82399,-0.03984,0.56436,0.19453,0.22273,-0.03523,
1403715605162142976,-0.43617,-0.33215,0.56367,0.03056,0.82251,-0.03846,0.56662,0.21241,0.23263,-0.00531,
1403715605262142976,-0.41307,-0.30716,0.56403,0.02801,0.82068,-0.03809,0.56942,0.23685,0.24458,0.01878,
1403715605362142976,-0.38915,-0.28272,0.56625,0.02030,0.81854,-0.04057,0.57265,0.24420,0.24386,0.00616,
1403715605462142976,-0.36505,-0.25840,0.56311,0.01385,0.81785,-0.04230,0.57371,0.24201,0.22398,-0.08923,
1403715605562142976,-0.34176,-0.23667,0.55029,0.00787,0.82007,-0.04398,0.57051,0.23497,0.20288,-0.18472,
1403715605662142976,-0.31850,-0.21761,0.52972,0.00553,0.82105,-0.04353,0.56917,0.23575,0.16699,-0.22424,
1403715605762142976,-0.29370,-0.20303,0.50860,0.01339,0.81968,-0.03687,0.57148,0.25008,0.13345,-0.19577,
1403715605862142976,-0.26738,-0.19102,0.49063,0.01885,0.81899,-0.03225,0.57259,0.25999,0.11910,-0.16005,
1403715605962142976,-0.24114,-0.17883,0.47567,0.02165,0.81734,-0.02889,0.57502,0.25962,0.12362,-0.16222,
1403715606062142976,-0.21526,-0.16584,0.45567,0.02252,0.81629,-0.02671,0.57659,0.26147,0.13035,-0.24000,
1403715606162142976,-0.18959,-0.15138,0.42999,0.02183,0.81589,-0.02468,0.57727,0.25290,0.15772,-0.29148,
1403715606262142976,-0.16531,-0.13490,0.40297,0.01675,0.81605,-0.02613,0.57715,0.23996,0.17946,-0.25130,
1403715606362142976,-0.14153,-0.11773,0.38332,0.00933,0.81640,-0.02823,0.57672,0.23934,0.17115,-0.14554,
1403715606462142976,-0.11752,-0.10253,0.37437,0.00448,0.81605,-0.02927,0.57722,0.23965,0.15104,-0.03883,
1403715606562142976,-0.09318,-0.08814,0.37173,-0.00047,0.81485,-0.02978,0.57891,0.22720,0.13542,-0.02322,
1403715606662142976,-0.07147,-0.07572,0.36773,-0.00693,0.81362,-0.03051,0.58055,0.20714,0.11250,-0.05956,
1403715606762142976,-0.05058,-0.06678,0.35962,-0.01559,0.81213,-0.03303,0.58233,0.19617,0.06728,-0.10661,
1403715606862142976,-0.03282,-0.06307,0.34967,-0.01726,0.80775,-0.03127,0.58845,0.17477,0.01155,-0.12126,
1403715606962142976,-0.01765,-0.06364,0.33855,-0.00826,0.80297,-0.02311,0.59552,0.12697,-0.01767,-0.12762,
1403715607062142976,-0.00820,-0.06650,0.32407,0.00269,0.80542,-0.01444,0.59253,0.07637,-0.02811,-0.15447,
1403715607162142976,-0.00210,-0.06858,0.30889,0.00798,0.80872,-0.00924,0.58807,0.05058,-0.00628,-0.14831,
1403715607262142976,0.00182,-0.06867,0.29506,0.00991,0.81134,-0.00702,0.58445,0.01882,0.01216,-0.12177,
1403715607362142976,0.00307,-0.06632,0.28380,0.00976,0.81163,-0.00685,0.58406,-0.00685,0.02839,-0.09267,
1403715607462142976,0.00149,-0.06259,0.27619,0.01096,0.81072,-0.00645,0.58529,-0.03285,0.05274,-0.05779,
1403715607562142976,-0.00249,-0.05626,0.27001,0.01229,0.81173,-0.00659,0.58386,-0.05450,0.07262,-0.04300,
1403715607662142976,-0.00827,-0.04756,0.26551,0.01328,0.81264,-0.00756,0.58256,-0.07487,0.10583,-0.02197,
1403715607762142976,-0.01613,-0.03656,0.26162,0.01421,0.81271,-0.00818,0.58244,-0.09462,0.12138,-0.07465,
1403715607862142976,-0.02577,-0.02393,0.24890,0.01055,0.81366,-0.01237,0.58112,-0.10809,0.13637,-0.18008,
1403715607962142976,-0.03057,-0.01552,0.24216,0.01629,0.81211,-0.00330,0.58327,-0.00933,-0.01322,0.03279,
1403715608062142976,-0.02888,-0.01694,0.24253,0.01669,0.81418,-0.00169,0.58037,0.00060,-0.00562,-0.06480,
1403715608162142976,-0.02789,-0.01660,0.24055,0.01526,0.81648,-0.00289,0.57716,-0.01123,0.02799,0.01136,
1403715608262142976,-0.02908,-0.01713,0.24032,0.01513,0.81458,-0.00267,0.57984,0.00241,0.00882,-0.00958,
1403715608362142976,-0.02860,-0.01641,0.23962,0.01471,0.81589,-0.00285,0.57802,-0.00405,-0.01621,-0.00073,
1403715608462142976,-0.02873,-0.01645,0.23966,0.01441,0.81570,-0.00288,0.57829,-0.00432,0.01355,-0.00031,
1403715608562142976,-0.02875,-0.01663,0.23953,0.01456,0.81550,-0.00272,0.57856,0.00329,-0.00338,0.00409,
1403715608662142976,-0.02866,-0.01665,0.23948,0.01452,0.81573,-0.00267,0.57824,-0.00746,0.00498,-0.00353,
1403715608762142976,-0.02889,-0.01663,0.23948,0.01445,0.81550,-0.00264,0.57857,-0.00065,0.00142,-0.00147,
1403715608862142976,-0.02864,-0.01672,0.23938,0.01439,0.81584,-0.00267,0.57810,-0.00265,0.00180,0.00324,
1403715608962142976,-0.02878,-0.01671,0.23942,0.01422,0.81567,-0.00269,0.57834,-0.00394,0.00556,-0.00060,
1403715609062142976,-0.02873,-0.01675,0.23940,0.01407,0.81575,-0.00269,0.57822,-0.00099,-0.00209,0.00357,
1403715609162142976,-0.02873,-0.01676,0.23940,0.01396,0.81583,-0.00269,0.57812,-0.00531,0.00442,0.00307,
1403715609262142976,-0.02877,-0.01677,0.23941,0.01398,0.81577,-0.00267,0.57820,-0.00123,0.00028,0.00051,
1403715609362142976,-0.02870,-0.01678,0.23932,0.01394,0.81590,-0.00273,0.57802,-0.00374,0.00174,0.00221,
