1403715281812143104,-0.11907,0.46432,0.35805,-0.29073,0.70740,0.41465,0.49308,
1403715281912143104,-0.12364,0.48408,0.34964,-0.27787,0.71905,0.39533,0.49947,
1403715282112143104,-0.12816,0.53417,0.33177,-0.24763,0.74175,0.35317,0.51358,
1403715282312143104,-0.13176,0.59311,0.30919,-0.21716,0.76074,0.31319,0.52539,
1403715282512142848,-0.13286,0.65821,0.28554,-0.18426,0.77702,0.27291,0.53648,
1403715282712142848,-0.13182,0.73151,0.26069,-0.15840,0.78725,0.23086,0.54941,
1403715282912143104,-0.13045,0.80176,0.23184,-0.13581,0.79577,0.18881,0.55916,
1403715283112143104,-0.12806,0.87704,0.20735,-0.11368,0.80261,0.14592,0.56710,
1403715283312143104,-0.13303,0.94681,0.17527,-0.09444,0.80734,0.10249,0.57339,
1403715283512142848,-0.13884,1.00803,0.15014,-0.06957,0.81405,0.06884,0.57250,
1403715283712142848,-0.14467,1.05972,0.12825,-0.04508,0.82071,0.04739,0.56758,
1403715284312143104,-0.12891,1.20633,0.06583,-0.05292,0.82579,0.02861,0.56076,
1403715284812143104,-0.05356,1.27267,0.03120,-0.04106,0.81699,0.05403,0.57265,
1403715285012142848,-0.02074,1.29158,0.02279,-0.03455,0.80992,0.02996,0.58476,
1403715285212142848,-0.00066,1.30358,0.02338,-0.01312,0.80864,-0.01072,0.58806,
1403715285412143104,0.00391,1.31068,0.04703,-0.00319,0.81920,-0.04398,0.57182,
1403715285812143104,0.02253,1.28649,0.19565,0.00342,0.82299,-0.06368,0.56446,
1403715286112143104,0.05812,1.23065,0.29119,0.02705,0.82521,-0.05071,0.56190,
1403715286512142848,0.13924,1.15052,0.37557,0.02935,0.82508,-0.05139,0.56191,
1403715286712142848,0.19399,1.11645,0.41798,0.03687,0.81738,-0.05983,0.57179,
1403715286912143104,0.24769,1.08256,0.44665,0.05277,0.81841,-0.07891,0.56674,
1403715287212142848,0.33673,1.05024,0.48358,0.07056,0.81674,-0.09349,0.56499,
1403715287712142848,0.49277,1.02930,0.56332,0.06746,0.80664,-0.13848,0.57062,
1403715287912143104,0.54035,1.00551,0.60289,0.09706,0.79753,-0.17347,0.56958,
1403715288012142848,0.56161,0.98769,0.62303,0.11740,0.79102,-0.19336,0.56843,
1403715288112143104,0.58012,0.97018,0.64101,0.13381,0.78402,-0.21416,0.56705,
1403715288312143104,0.61289,0.93523,0.65383,0.15497,0.77788,-0.23947,0.55995,
1403715288912143104,0.64901,0.83916,0.66134,0.16788,0.77794,-0.24836,0.55221,
1403715289112143104,0.64353,0.80442,0.63122,0.18160,0.77630,-0.26028,0.54464,
1403715289312143104,0.64093,0.77141,0.57688,0.19819,0.77275,-0.27485,0.53669,
1403715289512142848,0.64211,0.74450,0.51494,0.21542,0.76542,-0.30133,0.52624,
1403715289712142848,0.65292,0.72073,0.44105,0.22812,0.75795,-0.32959,0.51463,
1403715290412143104,0.80286,0.64207,0.41282,0.21141,0.76769,-0.32111,0.51268,
1403715290712142848,0.91847,0.59409,0.44141,0.20769,0.76330,-0.31942,0.52174,
1403715291112143104,1.09010,0.51968,0.45594,0.20268,0.74688,-0.33745,0.53593,
1403715291512142848,1.21565,0.41933,0.44128,0.21137,0.73298,-0.36933,0.53072,
1403715291712142848,1.24906,0.35330,0.42087,0.21711,0.72908,-0.38734,0.52084,
1403715291912143104,1.27307,0.26837,0.40049,0.24158,0.73255,-0.38381,0.50764,
1403715292312143104,1.33402,0.07680,0.34776,0.23745,0.74792,-0.35992,0.50467,
1403715292512142848,1.38697,-0.02295,0.32393,0.21564,0.76640,-0.31969,0.51374,
1403715292612143104,1.42093,-0.07225,0.31544,0.20372,0.77128,-0.29284,0.52713,
1403715292712142848,1.45603,-0.11816,0.31133,0.19418,0.77406,-0.26099,0.54315,
1403715292812143104,1.49403,-0.16115,0.31089,0.18229,0.77850,-0.22993,0.55483,
1403715292912143104,1.53153,-0.19616,0.31933,0.16419,0.78752,-0.20417,0.55782,
1403715293012142848,1.56977,-0.22548,0.33954,0.13963,0.79455,-0.18534,0.56111,
1403715293112143104,1.60607,-0.24924,0.37018,0.11600,0.79840,-0.16733,0.56667,
1403715293212142848,1.64188,-0.27151,0.40334,0.09609,0.80267,-0.14882,0.56951,
1403715293312143104,1.67655,-0.29224,0.43657,0.07972,0.80394,-0.12912,0.57502,
1403715293412143104,1.70933,-0.31280,0.47026,0.06536,0.80212,-0.10962,0.58337,
1403715293612143104,1.76138,-0.35763,0.53220,0.03923,0.80637,-0.07560,0.58525,
1403715293812143104,1.80182,-0.39737,0.59655,0.01734,0.81526,-0.04414,0.57715,
1403715294012142848,1.83637,-0.44075,0.65454,-0.00656,0.81835,-0.01066,0.57458,
1403715294212142848,1.86691,-0.48430,0.67207,-0.03506,0.81309,0.02550,0.58053,
1403715294412143104,1.88877,-0.52952,0.63607,-0.06484,0.80738,0.06187,0.58318,
1403715294612143104,1.90081,-0.57819,0.57814,-0.08806,0.80670,0.10387,0.57506,
1403715294812143104,1.90464,-0.62864,0.52178,-0.10564,0.80838,0.15040,0.55924,
1403715295012142848,1.91223,-0.67107,0.47105,-0.12830,0.79796,0.19003,0.55740,
1403715295212142848,1.91836,-0.70433,0.42948,-0.16282,0.78285,0.21906,0.55915,
1403715295412143104,1.91646,-0.73596,0.42238,-0.19094,0.77278,0.25609,0.54842,
1403715295512142848,1.91218,-0.75303,0.43470,-0.20347,0.76635,0.27892,0.54176,
1403715295712142848,1.90505,-0.78605,0.42627,-0.21863,0.75211,0.31240,0.53754,
1403715295912143104,1.89106,-0.82135,0.38677,-0.24192,0.73964,0.33167,0.53330,
1403715296112143104,1.86463,-0.86013,0.33630,-0.26736,0.73468,0.34192,0.52140,
1403715296312143104,1.84210,-0.91455,0.27710,-0.27346,0.74113,0.36354,0.49375,
1403715296512142848,1.84373,-0.96821,0.24088,-0.28167,0.73968,0.38696,0.47307,
1403715296912143104,1.91245,-1.06270,0.24674,-0.28922,0.70958,0.41673,0.48907,
1403715297112143104,1.95656,-1.09500,0.24136,-0.30748,0.69890,0.43868,0.47387,
1403715297212142848,1.97368,-1.11067,0.23754,-0.31739,0.69808,0.45577,0.45191,
1403715297312143104,1.99725,-1.11943,0.22923,-0.33065,0.69069,0.47394,0.43474,
1403715297512142848,2.06422,-1.12714,0.21814,-0.35158,0.66187,0.51120,0.42070,
1403715297712142848,2.14871,-1.10976,0.18825,-0.37071,0.64543,0.53613,0.39820,
1403715297912143104,2.25253,-1.06927,0.17765,-0.40259,0.61827,0.54820,0.39387,
1403715298012142848,2.31060,-1.04229,0.17639,-0.42540,0.59582,0.55110,0.40041,
1403715298212142848,2.43116,-1.01204,0.17614,-0.43549,0.54429,0.58695,0.41182,
1403715298412143104,2.54676,-0.98125,0.16481,-0.42574,0.51167,0.62674,0.40514,
1403715298712142848,2.65012,-0.98841,0.17590,-0.40803,0.49066,0.65071,0.41151,
1403715299012142848,2.62563,-1.01347,0.20163,-0.42252,0.52386,0.64489,0.36217,
1403715299212142848,2.57554,-1.01831,0.21935,-0.43643,0.51946,0.65502,0.33262,
1403715299412143104,2.52301,-0.99459,0.23399,-0.45195,0.49679,0.67303,0.30980,
1403715299512142848,2.49622,-0.97237,0.24266,-0.46285,0.48003,0.68245,0.29934,
1403715299612143104,2.46847,-0.94425,0.25094,-0.47509,0.45989,0.69194,0.28985,
1403715299712142848,2.44108,-0.91270,0.25664,-0.48738,0.43928,0.70180,0.27741,
1403715299812143104,2.41469,-0.87777,0.26149,-0.49797,0.41745,0.71308,0.26323,
1403715299912143104,2.39094,-0.84094,0.26310,0.50810,-0.39372,-0.72459,-0.24856,
1403715300012142848,2.36782,-0.80031,0.26396,0.51687,-0.37015,-0.73516,-0.23530,
1403715300112143104,2.34603,-0.75711,0.26481,0.52836,-0.34819,-0.73961,-0.22930,
1403715300312143104,2.31121,-0.67527,0.26838,0.54142,-0.31451,-0.74381,-0.23386,
1403715300812143104,2.27968,-0.53751,0.28186,0.55217,-0.32110,-0.73666,-0.22210,
1403715301112143104,2.31232,-0.49746,0.28608,0.54679,-0.31629,-0.73528,-0.24564,
1403715301612143104,2.40039,-0.56501,0.26059,0.53701,-0.32609,-0.74042,-0.23887,
1403715301912143104,2.46330,-0.66381,0.22332,0.52588,-0.33046,-0.74477,-0.24407,
1403715302212142848,2.51682,-0.77803,0.19855,0.51484,-0.33390,-0.74817,-0.25236,
1403715302612143104,2.53848,-0.95566,0.19462,0.50986,-0.35552,-0.74364,-0.24627,
1403715302912143104,2.52541,-1.08317,0.18679,0.50166,-0.36966,-0.74726,-0.23084,
1403715303112143104,2.50478,-1.14341,0.17295,-0.49979,0.35286,0.76128,0.21485,
1403715303212142848,2.48933,-1.16558,0.16527,0.50522,-0.33297,-0.76924,-0.20532,
1403715303312143104,2.46820,-1.18330,0.16061,0.51833,-0.30534,-0.77401,-0.19749,
1403715303412143104,2.44410,-1.19777,0.15676,0.52997,-0.27460,-0.77944,-0.19026,
1403715303512142848,2.41739,-1.21227,0.15325,0.53778,-0.24690,-0.78610,-0.17857,
1403715303612143104,2.38860,-1.22746,0.15033,0.54524,-0.22163,-0.79175,-0.16347,
1403715303712142848,2.35830,-1.24403,0.14809,0.55503,-0.20020,-0.79475,-0.14226,
1403715303812143104,2.32755,-1.26171,0.14593,0.56387,-0.17904,-0.79696,-0.12185,
1403715303912143104,2.29935,-1.28057,0.14337,0.57280,-0.16055,-0.79715,-0.10331,
1403715304012142848,2.27393,-1.29902,0.14046,0.57755,-0.14702,-0.79782,-0.09113,
1403715304212142848,2.23371,-1.33334,0.13120,0.58217,-0.13557,-0.79797,-0.07703,
1403715304712142848,2.19785,-1.39310,0.05758,0.57394,-0.13967,-0.80171,-0.09140,
1403715305412143104,2.21074,-1.47883,0.05203,0.56127,-0.14588,-0.80932,-0.09328,
1403715305712142848,2.21286,-1.50882,0.12712,0.56510,-0.13613,-0.80958,-0.08190,
1403715306012142848,2.21667,-1.52862,0.24370,0.56327,-0.13018,-0.81226,-0.07757,
1403715306412143104,2.21661,-1.52075,0.35979,0.57860,-0.16178,-0.79690,-0.06320,
1403715306612143104,2.23616,-1.48363,0.41264,0.58892,-0.19031,-0.78068,-0.08662,
1403715306712142848,2.25975,-1.45650,0.43970,0.59151,-0.20399,-0.77239,-0.10912,
1403715306812143104,2.29315,-1.42752,0.46507,0.59198,-0.21690,-0.76398,-0.13725,
1403715306912143104,2.33507,-1.40000,0.48787,0.59141,-0.22979,-0.75443,-0.16811,
1403715307012142848,2.38397,-1.37736,0.50677,0.58104,-0.24110,-0.75048,-0.20261,
1403715307112143104,2.43936,-1.36242,0.51488,0.56493,-0.25607,-0.74958,-0.23111,
1403715307212142848,2.49626,-1.35721,0.50868,0.54396,-0.27544,-0.75148,-0.25204,
1403715307312143104,2.55191,-1.36134,0.49173,0.52508,-0.29540,-0.75149,-0.26889,
1403715307412143104,2.60244,-1.37431,0.46771,0.51136,-0.32350,-0.74832,-0.27180,
1403715307512142848,2.64715,-1.39394,0.44282,0.50271,-0.35304,-0.74168,-0.26935,
1403715307612143104,2.68624,-1.41521,0.41904,-0.49634,0.37910,0.73307,0.26934,
1403715307712142848,2.72109,-1.43523,0.39492,-0.48834,0.40185,0.72409,0.27521,
1403715307812143104,2.75410,-1.45340,0.36933,-0.47819,0.42155,0.71475,0.28769,
1403715307912143104,2.78388,-1.46885,0.34306,-0.46750,0.43994,0.70482,0.30189,
1403715308012142848,2.81047,-1.48146,0.31642,-0.45761,0.45681,0.69377,0.31716,
1403715308112143104,2.83331,-1.49008,0.29005,-0.44846,0.47361,0.68189,0.33107,
1403715308212142848,2.85160,-1.49698,0.26525,-0.44057,0.48749,0.67144,0.34266,
1403715308412143104,2.87371,-1.50263,0.21592,-0.42823,0.51206,0.65231,0.35904,
1403715309212142848,2.87587,-1.38416,0.21809,-0.45625,0.53064,0.62860,0.33929,
1403715309412143104,2.90050,-1.31867,0.22975,-0.47209,0.51452,0.62743,0.34457,
1403715310112143104,3.04682,-1.18331,0.27850,-0.48545,0.50267,0.63484,0.32961,
1403715310312143104,3.11904,-1.14874,0.28223,-0.47971,0.50173,0.62380,0.35920,
1403715310412143104,3.16238,-1.14558,0.28509,-0.46902,0.50719,0.61870,0.37415,
1403715310512142848,3.21056,-1.14160,0.28854,-0.45620,0.51826,0.61369,0.38298,
1403715310612143104,3.25377,-1.14844,0.29363,-0.44183,0.53059,0.61223,0.38526,
1403715310812143104,3.33402,-1.16233,0.30107,-0.42256,0.54844,0.61074,0.38426,
1403715311112143104,3.43456,-1.17987,0.31494,-0.41968,0.56606,0.60136,0.37657,
1403715311512142848,3.57820,-1.16324,0.32341,-0.41430,0.57553,0.59813,0.37331,
1403715311712142848,3.66059,-1.13072,0.33493,-0.40974,0.57272,0.59885,0.38143,
1403715312012142848,3.78221,-1.05808,0.35029,-0.41044,0.57750,0.59115,0.38546,
1403715312212142848,3.86138,-0.99392,0.35884,-0.40300,0.57659,0.59067,0.39527,
1403715312512142848,3.97143,-0.88994,0.37031,-0.40815,0.58395,0.58059,0.39412,
1403715312712142848,4.04272,-0.81473,0.36605,-0.41142,0.57446,0.57883,0.40704,
1403715312912143104,4.10893,-0.74765,0.35573,-0.41651,0.55782,0.58166,0.42075,
1403715313812143104,4.21606,-0.69881,0.51331,-0.40418,0.56506,0.59037,0.41086,
1403715314212142848,4.20028,-0.73055,0.58197,-0.38498,0.58934,0.57066,0.42287,
1403715314312143104,4.19287,-0.73647,0.58900,-0.37071,0.60182,0.55935,0.43303,
1403715314512142848,4.16379,-0.74864,0.59859,-0.35062,0.62616,0.53543,0.44532,
1403715315612143104,3.84542,-0.70561,0.60008,-0.33824,0.66581,0.47689,0.46353,
1403715315912143104,3.76429,-0.70137,0.60163,-0.32628,0.69875,0.42610,0.47300,
1403715316112143104,3.72470,-0.71174,0.59417,-0.29590,0.71630,0.39897,0.49008,
1403715316212142848,3.70870,-0.71963,0.58416,-0.27525,0.72487,0.38719,0.49888,
1403715316312143104,3.69354,-0.72896,0.57226,-0.24975,0.73661,0.37649,0.50328,
1403715316412143104,3.67748,-0.73511,0.55648,-0.22508,0.74844,0.36813,0.50364,
1403715316612143104,3.64236,-0.72430,0.52461,-0.20750,0.75924,0.34636,0.51043,
1403715317012142848,3.57541,-0.63930,0.44709,-0.19322,0.76581,0.28806,0.54150,
1403715317212142848,3.53933,-0.58831,0.40857,-0.16716,0.78266,0.24448,0.54748,
1403715317312143104,3.51886,-0.56477,0.39137,-0.14916,0.79063,0.22246,0.55061,
1403715317412143104,3.49803,-0.54008,0.37612,-0.13510,0.79817,0.19629,0.55331,
1403715317512142848,3.47716,-0.51438,0.36226,-0.12129,0.80473,0.17062,0.55551,
1403715317712142848,3.43887,-0.46097,0.33767,-0.09439,0.81239,0.12111,0.56253,
1403715317912143104,3.40540,-0.41334,0.31567,-0.08098,0.81955,0.06580,0.56343,
1403715318112143104,3.37666,-0.38418,0.29427,-0.06191,0.82216,0.02604,0.56529,
1403715318312143104,3.35549,-0.37718,0.27139,-0.04698,0.82318,0.00774,0.56578,
1403715318512142848,3.34082,-0.39358,0.24843,-0.01857,0.82559,-0.00042,0.56397,
1403715318712142848,3.33296,-0.42216,0.22249,0.01123,0.83837,-0.01764,0.54470,
1403715318812143104,3.33678,-0.43655,0.20938,0.02231,0.84327,-0.03271,0.53603,
1403715319012142848,3.37117,-0.46460,0.18651,0.04513,0.83894,-0.06035,0.53898,
1403715319212142848,3.43467,-0.49011,0.16893,0.07490,0.82696,-0.08608,0.55056,
1403715319412143104,3.51783,-0.50614,0.15752,0.10462,0.81807,-0.11665,0.55336,
1403715319612143104,3.61187,-0.50834,0.14771,0.12301,0.80830,-0.15367,0.55489,
1403715320012142848,3.82745,-0.47028,0.22339,0.13713,0.80296,-0.18127,0.55099,
1403715320212142848,3.95100,-0.43939,0.27880,0.15672,0.79483,-0.20200,0.55035,
1403715320312143104,4.01351,-0.41977,0.30423,0.17107,0.78286,-0.22125,0.55581,
1403715320512142848,4.12765,-0.37128,0.34788,0.19337,0.75854,-0.28172,0.55485,
1403715320712142848,4.22488,-0.31560,0.38912,0.21073,0.73351,-0.34516,0.54627,
1403715321512142848,4.31027,-0.20534,0.47697,0.22960,0.71321,-0.40827,0.52147,
1403715321812143104,4.23424,-0.24687,0.50033,0.23762,0.70777,-0.40277,0.52950,
1403715322012142848,4.14826,-0.29023,0.51848,0.24424,0.69294,-0.41548,0.53625,
1403715322112143104,4.09117,-0.31343,0.52663,0.24671,0.69442,-0.42480,0.52580,
1403715322212142848,4.02543,-0.33920,0.53617,0.26087,0.70055,-0.42388,0.51137,
1403715322312143104,3.95654,-0.36789,0.54502,0.27525,0.70364,-0.42615,0.49752,
1403715322412143104,3.88668,-0.39880,0.54835,0.28844,0.70322,-0.43392,0.48374,
1403715322512142848,3.81845,-0.43069,0.53941,0.29879,0.70016,-0.44514,0.47153,
1403715322612143104,3.75444,-0.46364,0.51989,0.30455,0.69747,-0.45469,0.46265,
1403715322712142848,3.69693,-0.50007,0.49738,0.30823,0.69535,-0.46073,0.45739,
1403715322912143104,3.59985,-0.58657,0.46225,0.31572,0.69278,-0.46304,0.45383,
1403715323112143104,3.52829,-0.68700,0.46875,0.32035,0.69267,-0.46056,0.45330,
1403715323312143104,3.48494,-0.79894,0.46508,0.32454,0.69444,-0.45573,0.45248,
1403715323612143104,3.47010,-0.98290,0.46052,0.32601,0.69083,-0.45478,0.45788,
1403715323712142848,3.47868,-1.04723,0.47981,0.33509,0.67932,-0.44923,0.47375,
1403715323812143104,3.49177,-1.10756,0.49827,0.34516,0.66745,-0.44225,0.48969,
1403715323912143104,3.50727,-1.15923,0.51464,0.35323,0.65764,-0.43631,0.50236,
1403715324012142848,3.52483,-1.20021,0.53136,0.36006,0.64676,-0.42950,0.51729,
1403715324412143104,3.57872,-1.23784,0.58090,0.31551,0.65612,-0.45617,0.51174,
1403715324612143104,3.58412,-1.21213,0.60604,0.29175,0.67042,-0.47293,0.49168,
1403715325012142848,3.55735,-1.19341,0.65446,0.32345,0.67477,-0.45035,0.48709,
1403715325612143104,3.50580,-1.10766,0.67213,0.29708,0.67675,-0.46023,0.49187,
1403715326112143104,3.39252,-1.06301,0.66565,0.29644,0.67976,-0.46664,0.48198,
1403715326312143104,3.32714,-1.07056,0.65149,0.31654,0.67955,-0.45693,0.47878,
1403715326512142848,3.26795,-1.07908,0.63596,0.33223,0.66669,-0.44951,0.49304,
1403715326912143104,3.15003,-1.04017,0.59417,0.32320,0.66584,-0.46382,0.48690,
1403715327212142848,3.05059,-0.98499,0.56703,0.30424,0.66541,-0.48204,0.48198,
1403715327512142848,2.91874,-0.95615,0.54693,0.29485,0.66593,-0.48971,0.47936,
1403715327812143104,2.75763,-0.97103,0.52463,0.29158,0.69078,-0.45473,0.48066,
1403715328012142848,2.65497,-0.99879,0.50543,0.27907,0.70931,-0.41940,0.49305,
1403715328412143104,2.46166,-1.05723,0.48079,0.29400,0.70814,-0.38684,0.51231,
1403715328612143104,2.37353,-1.05895,0.47424,0.29665,0.70987,-0.39270,0.50385,
1403715328912143104,2.27700,-1.03126,0.45978,0.26383,0.73124,-0.37398,0.50580,
1403715329012142848,2.25577,-1.01721,0.45518,0.24662,0.74092,-0.35261,0.51564,
1403715329112143104,2.23759,-1.00151,0.45013,0.22525,0.75181,-0.32811,0.52573,
1403715329212142848,2.22237,-0.98640,0.44277,0.20320,0.76370,-0.30176,0.53330,
1403715329312143104,2.20787,-0.97198,0.43364,0.18444,0.77407,-0.27873,0.53768,
1403715329412143104,2.19469,-0.95847,0.42349,0.17065,0.78012,-0.26285,0.54147,
1403715329612143104,2.17152,-0.93549,0.39586,0.15673,0.78800,-0.24635,0.54204,
1403715330312143104,2.13893,-0.89611,0.26903,0.15229,0.79111,-0.23355,0.54444,
1403715330812143104,2.15448,-0.89393,0.28118,0.13452,0.77996,-0.23895,0.56256,
1403715331012142848,2.15289,-0.89553,0.31873,0.10532,0.78678,-0.21686,0.56821,
1403715331112143104,2.14676,-0.89939,0.33911,0.08711,0.79256,-0.19825,0.57005,
1403715331312143104,2.12586,-0.92379,0.39043,0.07273,0.80637,-0.15296,0.56665,
1403715331712142848,2.07557,-1.01393,0.52834,0.07201,0.81119,-0.11747,0.56831,
1403715332112143104,2.03223,-1.10607,0.61820,0.07694,0.81341,-0.12935,0.56188,
1403715333012142848,2.05801,-1.44982,0.66586,0.05217,0.80188,-0.10369,0.58610,
1403715333212142848,2.07368,-1.55431,0.68086,0.04808,0.78983,-0.08492,0.60551,
1403715333512142848,2.05035,-1.70315,0.67108,0.04577,0.80061,-0.07926,0.59215,
1403715333812143104,1.98989,-1.83618,0.64591,0.04084,0.81271,-0.08097,0.57557,
1403715334212142848,1.91100,-2.00309,0.63738,0.01285,0.82362,-0.05095,0.56470,
1403715334812143104,1.87115,-2.30343,0.64143,0.00986,0.82311,-0.03122,0.56694,
1403715335112143104,1.87799,-2.45130,0.63871,0.01290,0.82358,-0.02854,0.56633,
1403715335912143104,1.99165,-2.78267,0.61858,-0.02710,0.82358,0.02103,0.56616,
1403715336712142848,2.15699,-3.07240,0.59279,-0.03964,0.81951,0.04523,0.56990,
1403715337112143104,2.24122,-3.19104,0.61164,-0.03777,0.81887,0.05069,0.57049,
1403715337412143104,2.31468,-3.25342,0.63872,-0.06834,0.82362,0.07686,0.55773,
1403715337712142848,2.41048,-3.31715,0.66075,-0.08903,0.81714,0.09186,0.56207,
1403715338012142848,2.52160,-3.38968,0.68158,-0.08116,0.81397,0.09567,0.56720,
1403715338512142848,2.71079,-3.51169,0.71046,-0.10518,0.81157,0.10470,0.56510,
1403715338712142848,2.78960,-3.56674,0.72575,-0.12173,0.80474,0.14041,0.56379,
1403715339612143104,3.15219,-3.82590,0.72748,-0.14255,0.79813,0.18944,0.55388,
1403715339812143104,3.23160,-3.87259,0.70684,-0.11991,0.79835,0.19444,0.55718,
1403715340312143104,3.38869,-3.87035,0.67775,-0.14925,0.78144,0.24941,0.55215,
1403715340412143104,3.40588,-3.84458,0.68877,-0.17529,0.77585,0.26685,0.54416,
1403715340512142848,3.42196,-3.81705,0.70432,-0.19420,0.77117,0.28538,0.53492,
1403715340612143104,3.43645,-3.78898,0.71737,-0.20967,0.76887,0.29802,0.52542,
1403715340812143104,3.47111,-3.73354,0.73768,-0.22431,0.76654,0.31153,0.51483,
1403715341212142848,3.58067,-3.62608,0.77432,-0.22611,0.76697,0.29945,0.52054,
1403715341412143104,3.65786,-3.57785,0.79604,-0.21763,0.76139,0.28926,0.53782,
1403715341712142848,3.76128,-3.51761,0.82344,-0.19077,0.75601,0.29029,0.55479,
1403715342212142848,3.84540,-3.39264,0.84519,-0.20408,0.77433,0.28641,0.52605,
1403715342512142848,3.88727,-3.30536,0.84473,-0.21793,0.77025,0.31002,0.51295,
1403715342712142848,3.92789,-3.23631,0.84391,-0.21925,0.74748,0.35348,0.51794,
1403715342812143104,3.94694,-3.19671,0.84278,-0.23039,0.74059,0.36596,0.51431,
1403715342912143104,3.96465,-3.15287,0.84334,-0.24413,0.73652,0.37090,0.51026,
1403715343112143104,3.99865,-3.06043,0.84110,-0.26132,0.72944,0.37443,0.50935,
1403715343312143104,4.03369,-2.96624,0.83040,-0.26569,0.72872,0.37884,0.50483,
1403715343612143104,4.08636,-2.82355,0.80649,-0.25690,0.73334,0.38221,0.50013,
1403715343812143104,4.12147,-2.71746,0.79731,-0.25081,0.72842,0.38099,0.51122,
1403715344012142848,4.15164,-2.60188,0.79206,-0.25598,0.72499,0.38057,0.51383,
1403715344112143104,4.16138,-2.54124,0.79058,-0.26486,0.71930,0.38632,0.51305,
1403715344212142848,4.16686,-2.48158,0.78885,-0.27335,0.71101,0.39816,0.51109,
1403715344312143104,4.16983,-2.42148,0.78649,-0.27661,0.69879,0.41234,0.51494,
1403715344412143104,4.16748,-2.36280,0.78338,-0.27976,0.68621,0.42358,0.52099,
1403715344612143104,4.14140,-2.25098,0.77247,-0.28503,0.67322,0.43853,0.52271,
1403715344712142848,4.11549,-2.19767,0.76294,-0.28174,0.67505,0.44660,0.51525,
1403715344812143104,4.08025,-2.14420,0.75350,-0.27997,0.67741,0.45188,0.50847,
1403715345012142848,3.98581,-2.03303,0.73494,-0.28942,0.67928,0.44953,0.50273,
1403715345112143104,3.93170,-1.97690,0.72996,-0.30083,0.67933,0.44231,0.50237,
1403715345312143104,3.81279,-1.87196,0.71384,-0.30702,0.68345,0.43732,0.49738,
1403715345512142848,3.68304,-1.77488,0.69801,-0.30700,0.68550,0.43736,0.49453,
1403715345712142848,3.54497,-1.68555,0.68060,-0.31067,0.68555,0.43605,0.49332,
1403715345912143104,3.40379,-1.60891,0.65890,-0.30910,0.69035,0.43739,0.48638,
1403715346112143104,3.26317,-1.53614,0.64016,-0.29796,0.70483,0.44340,0.46673,
1403715346312143104,3.13100,-1.45002,0.63926,-0.30195,0.70259,0.43777,0.47281,
1403715346512142848,3.00763,-1.35870,0.64199,-0.30842,0.69828,0.42758,0.48421,
1403715346812143104,2.83934,-1.23736,0.65042,-0.31096,0.70367,0.40983,0.49009,
1403715347112143104,2.69185,-1.14100,0.65877,-0.30118,0.71788,0.40440,0.48000,
1403715347312143104,2.61238,-1.08205,0.67146,-0.29990,0.70380,0.42588,0.48306,
1403715347412143104,2.57415,-1.05306,0.68070,-0.30503,0.68949,0.44301,0.48508,
1403715347512142848,2.53312,-1.02239,0.68509,-0.31086,0.67567,0.46079,0.48427,
1403715347612143104,2.48933,-0.99165,0.69483,-0.31622,0.66377,0.47394,0.48456,
1403715347712142848,2.44290,-0.96182,0.70393,-0.32653,0.65748,0.47912,0.48119,
1403715347812143104,2.39408,-0.93017,0.70233,-0.33858,0.65599,0.48094,0.47300,
1403715347912143104,2.34089,-0.90658,0.71805,-0.35295,0.65341,0.48466,0.46216,
1403715348012142848,2.29253,-0.87815,0.72909,-0.37232,0.65000,0.48886,0.44709,
1403715348112143104,2.24493,-0.85571,0.73671,-0.38840,0.64133,0.50038,0.43297,
1403715348212142848,2.20219,-0.83606,0.74378,-0.40087,0.62872,0.51825,0.41885,
1403715348312143104,2.17461,-0.82014,0.75766,-0.40844,0.61396,0.54003,0.40570,
1403715348412143104,2.13222,-0.79889,0.75530,-0.41325,0.60200,0.55804,0.39423,
1403715348612143104,2.09935,-0.76537,0.72330,-0.41985,0.58925,0.57559,0.38106,
1403715348912143104,2.08501,-0.70174,0.62695,-0.44048,0.57817,0.57847,0.37022,
1403715349612143104,2.25843,-0.58877,0.44465,-0.44801,0.53194,0.60824,0.38260,
1403715349912143104,2.35667,-0.58539,0.37368,-0.46155,0.51139,0.63324,0.35280,
1403715350112143104,2.42699,-0.59363,0.33609,-0.46759,0.48765,0.65686,0.33481,
1403715350312143104,2.50228,-0.59846,0.29343,-0.45236,0.47821,0.67945,0.32409,
1403715350512142848,2.56782,-0.59146,0.25167,-0.43458,0.47315,0.69244,0.32833,
1403715351412143104,2.50611,-0.37281,0.16261,-0.45439,0.46926,0.67892,0.33526,
1403715351612143104,2.42681,-0.30549,0.16540,-0.46506,0.46213,0.67053,0.34718,
1403715351812143104,2.32924,-0.24978,0.17271,-0.46984,0.45537,0.67473,0.34153,
1403715351912143104,2.27374,-0.22950,0.17845,-0.47588,0.45116,0.68018,0.32764,
1403715352012142848,2.21571,-0.21019,0.18662,-0.48416,0.44518,0.68639,0.31026,
1403715352112143104,2.15717,-0.19277,0.19860,-0.49020,0.43641,0.69397,0.29606,
1403715352212142848,2.09872,-0.17401,0.21141,-0.49684,0.42987,0.69814,0.28453,
1403715352412143104,1.98934,-0.13439,0.23208,0.50159,-0.42451,-0.70406,-0.26926,
1403715352612143104,1.89532,-0.08845,0.24367,0.51248,-0.42455,-0.69992,-0.25928,
1403715352912143104,1.78806,-0.01011,0.25292,0.51304,-0.40572,-0.70155,-0.28286,
1403715353312143104,1.68903,0.05913,0.29501,0.51309,-0.40232,-0.70553,-0.27769,
1403715353812143104,1.60494,0.09923,0.31351,0.50939,-0.38535,-0.71826,-0.27592,
1403715354112143104,1.55360,0.10362,0.25998,0.51249,-0.38762,-0.72010,-0.26182,
1403715354412143104,1.51552,0.10686,0.20367,0.50868,-0.39120,-0.72471,-0.25100,
1403715355112143104,1.45513,0.18962,0.25966,0.51280,-0.38585,-0.72467,-0.25103,
1403715355312143104,1.43990,0.22393,0.30742,0.51496,-0.36492,-0.73736,-0.24073,
1403715355512142848,1.42513,0.25954,0.34986,0.52740,-0.32947,-0.75205,-0.21846,
1403715355612143104,1.41807,0.27717,0.37027,0.53439,-0.31026,-0.75905,-0.20494,
1403715355812143104,1.40880,0.31480,0.40320,0.53918,-0.27846,-0.77191,-0.18947,
1403715356412143104,1.35029,0.41373,0.47908,0.51906,-0.27048,-0.78366,-0.20807,
1403715356812143104,1.22965,0.44803,0.48771,0.52934,-0.28348,-0.77968,-0.17760,
1403715357012142848,1.15272,0.47736,0.49098,0.54005,-0.25288,-0.78840,-0.15105,
1403715357112143104,1.11423,0.49682,0.50018,0.54744,-0.23104,-0.79264,-0.13657,
1403715357212142848,1.07548,0.51926,0.51222,0.55229,-0.20839,-0.79742,-0.12516,
1403715357412143104,0.99845,0.57464,0.54314,0.55729,-0.17610,-0.80241,-0.12065,
1403715357812143104,0.84303,0.67436,0.58937,0.55493,-0.15117,-0.80751,-0.13084,
1403715358312143104,0.58684,0.71194,0.58889,0.54515,-0.15857,-0.81385,-0.12380,
1403715358512142848,0.45100,0.70473,0.58270,0.54745,-0.14220,-0.81512,-0.12511,
1403715358712142848,0.30220,0.68518,0.57265,0.56477,-0.12528,-0.80837,-0.10897,
1403715358812143104,0.22692,0.67013,0.56778,0.57418,-0.12217,-0.80420,-0.09304,
1403715359012142848,0.08281,0.63774,0.55250,0.58318,-0.11386,-0.80089,-0.07424,
1403715359312143104,-0.09450,0.59065,0.52284,0.58546,-0.10443,-0.80070,-0.07218,
1403715359812143104,-0.30116,0.47393,0.50559,0.58241,-0.10632,-0.80147,-0.08454,
1403715360112143104,-0.38368,0.37042,0.51564,0.57276,-0.11343,-0.80837,-0.07495,
1403715360712142848,-0.50462,0.20154,0.54841,0.56881,-0.18722,-0.79597,-0.08853,
1403715360812143104,-0.51221,0.19120,0.55927,0.56326,-0.20263,-0.79309,-0.11261,
1403715360912143104,-0.51783,0.18616,0.56913,0.55738,-0.21933,-0.78880,-0.13791,
1403715361012142848,-0.52197,0.18373,0.57912,0.55069,-0.23948,-0.78352,-0.15967,
1403715361112143104,-0.52637,0.18088,0.58879,0.54369,-0.26189,-0.77719,-0.17832,
1403715361212142848,-0.53111,0.17766,0.59765,0.53579,-0.28471,-0.77040,-0.19585,
1403715361312143104,-0.53735,0.17537,0.60674,0.52765,-0.30635,-0.76295,-0.21363,
1403715361412143104,-0.54477,0.17300,0.61416,0.51970,-0.32705,-0.75446,-0.23180,
1403715361512142848,-0.55416,0.17008,0.61881,0.51323,-0.34570,-0.74584,-0.24659,
1403715361712142848,-0.58014,0.15919,0.62027,0.50094,-0.36963,-0.73625,-0.26528,
1403715361912143104,-0.61975,0.14911,0.60943,-0.48537,0.40034,0.72691,0.27522,
1403715362112143104,-0.67100,0.14622,0.59564,-0.47386,0.43392,0.70567,0.29865,
1403715362312143104,-0.73321,0.15317,0.57381,-0.45377,0.47112,0.67998,0.33130,
1403715362412143104,-0.76872,0.15944,0.56113,-0.44260,0.49137,0.66492,0.34720,
1403715362512142848,-0.80836,0.16715,0.54866,-0.43215,0.51215,0.64784,0.36230,
1403715362612143104,-0.85222,0.17653,0.53704,-0.41985,0.53238,0.63149,0.37620,
1403715362812143104,-0.95163,0.20210,0.52118,-0.40524,0.57482,0.59181,0.39387,
1403715363012142848,-1.05240,0.23354,0.51642,-0.41840,0.61738,0.53397,0.39832,
1403715363212142848,-1.12359,0.26020,0.52185,-0.40874,0.64627,0.49891,0.40787,
1403715363412143104,-1.14985,0.27481,0.53615,-0.38901,0.66725,0.47351,0.42337,
1403715363512142848,-1.14757,0.27594,0.54592,-0.37798,0.67590,0.46059,0.43376,
1403715363612143104,-1.13712,0.27512,0.55669,-0.35964,0.68157,0.45221,0.44903,
1403715363712142848,-1.12271,0.27370,0.56819,-0.34166,0.68759,0.44214,0.46367,
1403715363812143104,-1.10421,0.26967,0.57901,-0.32668,0.69577,0.42691,0.47637,
1403715363912143104,-1.08307,0.26335,0.58893,-0.31216,0.70617,0.40763,0.48756,
1403715364012142848,-1.05963,0.25518,0.59940,-0.29613,0.71642,0.38537,0.50054,
1403715364112143104,-1.03390,0.24379,0.60840,-0.28142,0.72622,0.36307,0.51146,
1403715364212142848,-1.01125,0.23151,0.61829,-0.26920,0.73410,0.34585,0.51867,
1403715364412143104,-0.97160,0.20513,0.64127,-0.26008,0.74944,0.32411,0.51540,
1403715364812143104,-0.87341,0.12395,0.70459,-0.24410,0.75155,0.31791,0.52394,
1403715365012142848,-0.81621,0.07197,0.73502,-0.21702,0.75938,0.31062,0.52892,
1403715365212142848,-0.76381,0.02446,0.76837,-0.19903,0.76545,0.28847,0.53968,
1403715365412143104,-0.72607,-0.01470,0.79940,-0.18669,0.76961,0.26708,0.54910,
1403715365612143104,-0.69807,-0.05186,0.82585,-0.17178,0.77864,0.23501,0.55585,
1403715365812143104,-0.67933,-0.09085,0.84645,-0.15759,0.79168,0.18526,0.56043,
1403715365912143104,-0.67496,-0.11504,0.85642,-0.14702,0.79648,0.16515,0.56279,
1403715366112143104,-0.66421,-0.16846,0.87018,-0.14200,0.80334,0.13213,0.56305,
1403715366412143104,-0.65001,-0.28713,0.88068,-0.13017,0.80494,0.12293,0.56570,
1403715366712142848,-0.63729,-0.44380,0.88541,-0.11144,0.80943,0.14207,0.55876,
1403715367512142848,-0.49144,-0.81852,0.91854,-0.12977,0.81922,0.15847,0.53565,
1403715367912143104,-0.31575,-0.98270,0.96001,-0.12997,0.81236,0.16781,0.54315,
1403715368112143104,-0.19931,-1.06421,0.96712,-0.13311,0.80360,0.16471,0.55622,
1403715368512142848,0.02614,-1.24610,0.97203,-0.15127,0.80120,0.14619,0.56020,
1403715368712142848,0.13877,-1.35436,0.96736,-0.13470,0.79920,0.15369,0.56526,
1403715369012142848,0.29130,-1.53664,0.95662,-0.12637,0.80236,0.16331,0.55999,
1403715369312143104,0.43795,-1.70926,0.94354,-0.15074,0.79918,0.20994,0.54269,
1403715369512142848,0.53677,-1.81267,0.94601,-0.17760,0.78803,0.25407,0.53190,
1403715369712142848,0.64212,-1.90385,0.94782,-0.20496,0.77344,0.29706,0.52109,
1403715370412143104,1.01555,-2.09435,0.92881,-0.22988,0.75520,0.32438,0.52116,
1403715370812143104,1.21799,-2.13931,0.92626,-0.23051,0.75903,0.31182,0.52298,
1403715371112143104,1.37337,-2.17491,0.91845,-0.21231,0.77312,0.31767,0.50626,
1403715371612143104,1.69482,-2.14856,0.89708,-0.22703,0.76910,0.30815,0.51185,
1403715372012142848,1.99149,-2.09224,0.85771,-0.22977,0.76368,0.31264,0.51600,
1403715372412143104,2.31300,-2.05020,0.84629,-0.24326,0.74945,0.33337,0.51770,
1403715372712142848,2.54590,-2.01309,0.87758,-0.25874,0.73515,0.35778,0.51440,
1403715373112143104,2.84275,-1.96055,0.91166,-0.27146,0.73438,0.35895,0.50809,
1403715373412143104,3.05924,-1.93299,0.92776,-0.26603,0.73418,0.35831,0.51169,
1403715373712142848,3.26277,-1.90501,0.93721,-0.25958,0.72097,0.38291,0.51594,
1403715373912143104,3.37502,-1.87901,0.93975,-0.28062,0.70352,0.41449,0.50448,
1403715374012142848,3.42358,-1.86133,0.94286,-0.29696,0.69327,0.43184,0.49466,
1403715374112143104,3.46761,-1.84424,0.94312,-0.31377,0.68148,0.45036,0.48405,
1403715374212142848,3.50761,-1.82714,0.94199,-0.32818,0.66841,0.47040,0.47355,
1403715374312143104,3.54375,-1.80986,0.94202,-0.34261,0.65575,0.48959,0.46142,
1403715374412143104,3.57881,-1.79306,0.94286,-0.35196,0.64460,0.50795,0.45011,
1403715374612143104,3.64184,-1.75669,0.94238,-0.35535,0.63556,0.53302,0.43091,
1403715375112143104,3.76777,-1.58012,0.94990,-0.35375,0.62883,0.53414,0.44060,
1403715375512142848,3.80726,-1.37970,0.93920,-0.35208,0.64014,0.51629,0.44688,
1403715375912143104,3.81353,-1.16205,0.91420,-0.34965,0.64435,0.50540,0.45511,
1403715376212142848,3.79858,-0.99875,0.89000,-0.35818,0.64352,0.50040,0.45517,
1403715376412143104,3.78104,-0.89970,0.86773,-0.37100,0.63274,0.49354,0.46735,
1403715376712142848,3.73769,-0.78870,0.82581,-0.35579,0.63324,0.51019,0.46058,
1403715377012142848,3.66199,-0.70552,0.79655,-0.37303,0.61683,0.50725,0.47231,
1403715377212142848,3.59237,-0.67485,0.77461,-0.36594,0.61789,0.51951,0.46305,
1403715377412143104,3.50419,-0.65420,0.75702,-0.36969,0.61742,0.52292,0.45680,
1403715377612143104,3.40558,-0.64431,0.74042,-0.37417,0.61560,0.52335,0.45513,
1403715377812143104,3.29495,-0.65020,0.72155,-0.37181,0.61837,0.52599,0.45023,
1403715378112143104,3.11267,-0.67350,0.69561,-0.37854,0.62167,0.52250,0.44411,
1403715378312143104,2.98801,-0.70160,0.67497,-0.38701,0.62736,0.51808,0.43386,
1403715378512142848,2.87739,-0.73485,0.65289,-0.37942,0.63424,0.52328,0.42421,
1403715378812143104,2.73183,-0.78066,0.63859,-0.36422,0.63626,0.53339,0.42193,
1403715379312143104,2.52898,-0.78387,0.65801,-0.35540,0.62883,0.53855,0.43385,
1403715379712142848,2.36808,-0.72106,0.68400,-0.34469,0.62702,0.54524,0.43674,
1403715380012142848,2.20538,-0.63728,0.71058,-0.35020,0.61760,0.54152,0.45021,
1403715380212142848,2.07266,-0.56880,0.72430,-0.36490,0.62069,0.53030,0.44763,
1403715380412143104,1.92729,-0.50794,0.72574,-0.36804,0.62741,0.52598,0.44074,
1403715380712142848,1.73512,-0.42606,0.74684,-0.36476,0.62426,0.52948,0.44373,
1403715380912143104,1.59203,-0.37510,0.76001,-0.36571,0.62173,0.52997,0.44591,
1403715381112143104,1.44432,-0.33035,0.77111,-0.36575,0.62165,0.52890,0.44727,
1403715381312143104,1.29487,-0.29537,0.77929,-0.37105,0.62564,0.52104,0.44656,
1403715381612143104,1.08731,-0.26081,0.77903,-0.37037,0.62850,0.51235,0.45312,
1403715381812143104,0.94884,-0.25088,0.76898,-0.35386,0.63284,0.52152,0.44979,
1403715382412143104,0.53576,-0.17235,0.75253,-0.30661,0.68824,0.46156,0.46827,
1403715382812143104,0.27825,-0.05092,0.74367,-0.27287,0.72389,0.40497,0.48736,
1403715383412143104,-0.01810,0.22108,0.71649,-0.24990,0.75705,0.34868,0.49279,
1403715383912143104,-0.13202,0.48095,0.68146,-0.22119,0.76912,0.29106,0.52423,
1403715384112143104,-0.15442,0.57037,0.66836,-0.18846,0.78485,0.24545,0.53689,
1403715384312143104,-0.16955,0.65003,0.65964,-0.15939,0.79852,0.19623,0.54630,
1403715384512142848,-0.18099,0.71695,0.65631,-0.13229,0.80975,0.14797,0.55219,
1403715384712142848,-0.18127,0.77577,0.65299,-0.10144,0.82234,0.10544,0.54985,
1403715384912143104,-0.16701,0.81616,0.65182,-0.07579,0.82831,0.06555,0.55124,
1403715385112143104,-0.13184,0.84463,0.66287,-0.05509,0.82631,0.04593,0.55862,
1403715385312143104,-0.08397,0.86242,0.67302,-0.03274,0.82596,0.03262,0.56183,
1403715385812143104,0.06927,0.89010,0.71778,-0.05352,0.82143,0.00846,0.56773,
1403715386012142848,0.13718,0.87093,0.74388,-0.04630,0.81258,0.01694,0.58076,
1403715386412143104,0.23927,0.79573,0.78076,-0.03263,0.81142,0.02412,0.58306,
1403715387012142848,0.28891,0.61219,0.77847,-0.06704,0.81925,0.00125,0.56950,
1403715387312143104,0.28771,0.43346,0.74971,-0.04788,0.82062,0.01877,0.56915,
1403715387612143104,0.29457,0.22511,0.72235,-0.04316,0.82540,0.02934,0.56214,
1403715388012142848,0.33764,-0.06887,0.78453,-0.05116,0.83240,0.03840,0.55047,
1403715388312143104,0.41478,-0.29985,0.74072,-0.05103,0.82474,0.04560,0.56136,
1403715388612143104,0.50556,-0.52626,0.66968,-0.04939,0.82052,0.04864,0.56740,
1403715388912143104,0.60045,-0.75001,0.60720,-0.04819,0.81814,0.05226,0.57061,
1403715389212142848,0.69513,-0.97145,0.61866,-0.04614,0.81582,0.05984,0.57335,
1403715389512142848,0.78610,-1.16903,0.65317,-0.04235,0.81536,0.06853,0.57333,
1403715390112143104,0.96633,-1.50283,0.66010,-0.09123,0.81976,0.12404,0.55163,
1403715390312143104,1.04013,-1.59976,0.65071,-0.10638,0.81709,0.16492,0.54208,
1403715390512142848,1.13071,-1.68022,0.63688,-0.12167,0.80591,0.20778,0.54087,
1403715390712142848,1.23148,-1.73508,0.62382,-0.14206,0.79182,0.24602,0.54066,
1403715390912143104,1.33271,-1.76031,0.60659,-0.17225,0.78827,0.26410,0.52841,
1403715391212142848,1.50222,-1.76821,0.58882,-0.20269,0.78550,0.27973,0.51347,
1403715391612143104,1.78024,-1.74892,0.56135,-0.22441,0.77747,0.28906,0.51150,
1403715391912143104,2.05000,-1.73897,0.60012,-0.23534,0.76286,0.31634,0.51243,
1403715392212142848,2.33494,-1.71358,0.67793,-0.23759,0.75891,0.34125,0.50115,
1403715392412143104,2.53374,-1.68054,0.72876,-0.25816,0.73924,0.35793,0.50870,
1403715392512142848,2.63540,-1.66379,0.75533,-0.27391,0.72134,0.36864,0.51841,
1403715392712142848,2.82192,-1.62931,0.79240,-0.29570,0.69906,0.40117,0.51278,
1403715392912143104,2.98996,-1.60483,0.81778,-0.31066,0.68514,0.44101,0.48947,
1403715393112143104,3.14254,-1.58511,0.83708,-0.32747,0.66495,0.48270,0.46648,
1403715393312143104,3.27550,-1.55753,0.84968,-0.34934,0.62794,0.52444,0.45675,
1403715393412143104,3.33394,-1.54210,0.85446,-0.36193,0.60813,0.54442,0.45033,
1403715393512142848,3.38359,-1.52576,0.85807,-0.37402,0.58748,0.56409,0.44361,
1403715393612143104,3.42511,-1.51195,0.85991,-0.38713,0.56654,0.58286,0.43525,
1403715393712142848,3.46059,-1.49864,0.86197,-0.40430,0.55137,0.59848,0.41755,
1403715393812143104,3.48246,-1.48820,0.85832,-0.41953,0.53888,0.61420,0.39543,
1403715393912143104,3.50229,-1.48007,0.85787,-0.43216,0.52433,0.63002,0.37602,
1403715394012142848,3.51684,-1.46810,0.85435,-0.44522,0.50851,0.64431,0.35786,
1403715394112143104,3.52769,-1.45802,0.85259,-0.45733,0.48978,0.65888,0.34183,
1403715394212142848,3.53681,-1.44895,0.84916,-0.46798,0.46755,0.67449,0.32780,
1403715394312143104,3.54512,-1.44084,0.84647,-0.47973,0.44441,0.68893,0.31261,
1403715394412143104,3.54809,-1.43194,0.84320,-0.49182,0.41729,0.70241,0.30100,
1403715394512142848,3.54977,-1.42700,0.84207,0.50393,-0.38859,-0.71447,-0.29083,
1403715394612143104,3.54911,-1.42563,0.84012,0.51464,-0.36252,-0.72662,-0.27523,
1403715394712142848,3.54702,-1.42917,0.83714,0.52391,-0.33867,-0.73910,-0.25409,
1403715394812143104,3.54342,-1.43680,0.83380,0.52919,-0.31474,-0.75341,-0.23081,
1403715394912143104,3.53845,-1.44761,0.83091,0.53402,-0.28772,-0.76741,-0.20765,
1403715395012142848,3.53153,-1.45986,0.82888,0.53909,-0.25717,-0.78040,-0.18498,
1403715395112143104,3.52273,-1.47420,0.82670,0.54485,-0.22526,-0.79122,-0.16239,
1403715395212142848,3.51207,-1.48984,0.82381,0.54893,-0.19612,-0.80038,-0.14005,
1403715395312143104,3.49970,-1.50698,0.81988,0.55265,-0.16825,-0.80717,-0.12144,
1403715395412143104,3.48525,-1.52480,0.81405,0.55496,-0.14361,-0.81268,-0.10461,
1403715395512142848,3.46923,-1.54340,0.80618,0.55603,-0.12247,-0.81741,-0.08755,
1403715395612143104,3.45138,-1.56237,0.79581,0.55792,-0.10420,-0.82026,-0.07103,
1403715395712142848,3.43146,-1.58197,0.78280,0.55858,-0.08589,-0.82288,-0.05903,
1403715395912143104,3.38276,-1.62218,0.75242,0.56088,-0.05821,-0.82493,-0.03885,
1403715396112143104,3.32526,-1.66019,0.72355,0.56459,-0.06142,-0.82298,-0.01300,
1403715396712142848,3.14701,-1.69949,0.65668,0.57433,-0.03346,-0.81729,-0.03262,
1403715396912143104,3.09286,-1.71717,0.62716,0.56868,-0.02253,-0.82210,-0.01559,
1403715397112143104,3.03615,-1.73594,0.58934,0.55179,-0.01520,-0.83382,-0.00591,
1403715397412143104,2.91625,-1.75393,0.53328,0.54786,-0.02721,-0.83582,0.02252,
1403715397812143104,2.68352,-1.70303,0.48593,0.56561,-0.02591,-0.82396,0.02242,
1403715398012142848,2.55687,-1.64529,0.48172,0.58114,-0.01986,-0.81351,0.00890,
1403715398212142848,2.44242,-1.58174,0.47298,0.59540,-0.01683,-0.80325,-0.00243,
1403715398512142848,2.31574,-1.49290,0.44216,0.58741,-0.02070,-0.80893,-0.01257,
1403715398812143104,2.22832,-1.42207,0.41902,0.59918,-0.01458,-0.79962,-0.03702,
1403715399512142848,2.24664,-1.48186,0.39528,0.58673,-0.00845,-0.80906,-0.03329,
1403715399712142848,2.29325,-1.54685,0.39001,0.56227,-0.01700,-0.82641,-0.02488,
1403715400312143104,2.34321,-1.81046,0.42628,0.55097,-0.05491,-0.82989,-0.06858,
1403715400512142848,2.31586,-1.92457,0.44130,0.54702,-0.09373,-0.82627,-0.09630,
1403715400712142848,2.27022,-2.05552,0.44797,0.53875,-0.15276,-0.82036,-0.11588,
1403715400912143104,2.20386,-2.18666,0.44955,0.53178,-0.21663,-0.80779,-0.13327,
1403715401212142848,2.07290,-2.35988,0.44944,0.51561,-0.26379,-0.80060,-0.15359,
1403715401512142848,1.88901,-2.47926,0.47047,0.51836,-0.26808,-0.79398,-0.17039,
1403715401712142848,1.74353,-2.52943,0.49625,0.53686,-0.27582,-0.77966,-0.16685,
1403715401912143104,1.59692,-2.55717,0.51839,0.54661,-0.29245,-0.76578,-0.17110,
1403715402212142848,1.40127,-2.57470,0.54464,0.55505,-0.27989,-0.75788,-0.19797,
1403715402512142848,1.24137,-2.59290,0.55150,0.53953,-0.29209,-0.75390,-0.23501,
1403715402912143104,1.03724,-2.68868,0.55361,0.53312,-0.33068,-0.74134,-0.23843,
1403715403112143104,0.93904,-2.75508,0.55230,0.51764,-0.35484,-0.74773,-0.21689,
1403715403412143104,0.79999,-2.81563,0.56399,0.50473,-0.35857,-0.75413,-0.21901,
1403715403712142848,0.65672,-2.81022,0.57965,-0.49383,0.38878,0.73883,0.24314,
1403715403912143104,0.56706,-2.77563,0.58731,-0.48041,0.42846,0.72074,0.25722,
1403715404112143104,0.47553,-2.70993,0.60137,-0.47091,0.45810,0.69732,0.28659,
1403715404212142848,0.43148,-2.66696,0.61030,-0.46433,0.46594,0.68670,0.30941,
1403715404412143104,0.33310,-2.58076,0.62189,-0.45063,0.47593,0.67412,0.34057,
1403715404812143104,0.08835,-2.41933,0.61850,-0.45970,0.48950,0.65489,0.34668,
1403715405112143104,-0.10357,-2.31115,0.59898,-0.46125,0.52349,0.62161,0.35610,
1403715405312143104,-0.21039,-2.25146,0.58181,-0.44200,0.56701,0.58703,0.37220,
1403715405412143104,-0.25333,-2.22344,0.57399,-0.42576,0.58726,0.57066,0.38496,
1403715405512142848,-0.29277,-2.19543,0.56607,-0.40954,0.60765,0.55306,0.39644,
1403715405612143104,-0.32945,-2.16722,0.55827,-0.39118,0.62557,0.53603,0.41026,
1403715405712142848,-0.36084,-2.13888,0.55013,-0.36887,0.64136,0.52249,0.42379,
1403715405812143104,-0.38909,-2.10942,0.54239,-0.34881,0.65700,0.50772,0.43463,
1403715405912143104,-0.41622,-2.07654,0.53399,-0.33256,0.67266,0.48946,0.44425,
1403715406012142848,-0.44188,-2.04031,0.52499,-0.32198,0.68474,0.46580,0.45880,
1403715406112143104,-0.46590,-2.00090,0.51371,-0.31120,0.69633,0.44087,0.47320,
1403715406312143104,-0.51212,-1.92383,0.48350,-0.28563,0.72162,0.39345,0.49282,
1403715406512142848,-0.55106,-1.84763,0.44608,-0.26208,0.75040,0.34692,0.49786,
1403715406712142848,-0.57692,-1.77546,0.40659,-0.23723,0.77108,0.30297,0.50732,
1403715406912143104,-0.58528,-1.71080,0.36828,-0.20513,0.78305,0.26380,0.52456,
1403715407112143104,-0.58024,-1.65108,0.33689,-0.17506,0.79626,0.22440,0.53383,
1403715407312143104,-0.56128,-1.59241,0.30852,-0.14836,0.81462,0.19892,0.52423,
1403715407612143104,-0.48538,-1.49179,0.28972,-0.13366,0.81620,0.18709,0.53004,
1403715407812143104,-0.40834,-1.41150,0.29388,-0.12272,0.80529,0.19669,0.54567,
1403715408112143104,-0.28613,-1.27060,0.31880,-0.13193,0.80150,0.19577,0.54942,
1403715408412143104,-0.16095,-1.12021,0.41014,-0.14267,0.79707,0.19434,0.55368,
1403715408612143104,-0.07939,-1.02033,0.42593,-0.15916,0.78212,0.20804,0.56539,
1403715408712142848,-0.04163,-0.96474,0.41901,-0.16959,0.77226,0.22361,0.56995,
1403715408812143104,-0.00536,-0.91612,0.41556,-0.18375,0.76371,0.24228,0.56945,
1403715408912143104,0.02356,-0.86741,0.41753,-0.19999,0.75657,0.26352,0.56405,
1403715409012142848,0.04603,-0.82451,0.41687,-0.21681,0.74816,0.28711,0.55751,
1403715409112143104,0.06161,-0.78805,0.42083,-0.23511,0.73973,0.31018,0.54891,
1403715409212142848,0.07373,-0.75759,0.42778,-0.25319,0.73358,0.32791,0.53873,
1403715409312143104,0.08446,-0.73158,0.43741,-0.26453,0.73085,0.34139,0.52853,
1403715409512142848,0.10653,-0.69154,0.46744,-0.27069,0.72249,0.35896,0.52525,
1403715409912143104,0.13432,-0.64646,0.54572,-0.24467,0.74859,0.35717,0.50217,
1403715410312143104,0.18593,-0.57401,0.61910,-0.23784,0.74824,0.34276,0.51583,
1403715410812143104,0.25160,-0.44358,0.59950,-0.24048,0.73434,0.34740,0.53125,
1403715411112143104,0.25771,-0.36851,0.58046,-0.25356,0.73174,0.35334,0.52480,
1403715411412143104,0.24589,-0.30694,0.56693,-0.27380,0.73133,0.35049,0.51706,
1403715412412143104,0.17899,-0.30672,0.51080,-0.26685,0.73218,0.36582,0.50880,
1403715413812143104,0.10638,-0.36394,0.31850,-0.26414,0.73150,0.36280,0.51333,
1403715414212142848,0.08318,-0.39527,0.25589,-0.25456,0.73771,0.36837,0.50526,
1403715414912143104,0.03789,-0.34199,0.23602,-0.27137,0.73998,0.35120,0.50542,
1403715415312143104,0.04471,-0.30723,0.16188,-0.27483,0.74351,0.33662,0.50828,
1403715415412143104,0.05465,-0.30739,0.14912,-0.26047,0.74009,0.34327,0.51632,
1403715415612143104,0.06655,-0.30918,0.13371,-0.24159,0.73575,0.35108,0.52635,
1403715415712142848,0.06732,-0.30910,0.11789,-0.23852,0.73581,0.35079,0.52787,
1403715418612143104,0.05010,-0.30970,0.11328,-0.23830,0.73907,0.34853,0.52490,
