1403715896584058112,-1.07411,-0.10132,0.67095,-0.48591,0.57831,0.53116,0.38383,
1403715897184057856,-0.81865,-0.12433,0.77020,-0.48687,0.60925,0.51321,0.35831,
1403715897284058112,-0.71223,-0.13222,0.78599,-0.47038,0.60700,0.51993,0.37412,
1403715897384058112,-0.58859,-0.14743,0.80589,-0.44391,0.59833,0.53367,0.40018,
1403715897484057856,-0.45078,-0.16563,0.82731,-0.42871,0.58897,0.54660,0.41297,
1403715897584058112,-0.30759,-0.17784,0.84774,-0.42457,0.58439,0.55286,0.41541,
1403715897784058112,-0.00616,-0.17917,0.88472,-0.44325,0.58716,0.55067,0.39437,
1403715897884058112,0.14983,-0.17904,0.90307,-0.45128,0.58585,0.54671,0.39273,
1403715897984057856,0.31356,-0.18553,0.92104,-0.44993,0.58169,0.54649,0.40069,
1403715898084058112,0.48460,-0.19315,0.94008,-0.45018,0.57275,0.54526,0.41472,
1403715898184057856,0.66343,-0.21132,0.95932,-0.44748,0.56807,0.53947,0.43131,
1403715898284058112,0.83255,-0.22930,0.97520,-0.43942,0.56923,0.53397,0.44471,
1403715898384058112,1.00013,-0.25299,0.98568,-0.42667,0.57831,0.52806,0.45240,
1403715898484057856,1.17006,-0.28033,0.99116,-0.41082,0.59353,0.52204,0.45435,
1403715898584058112,1.33967,-0.30866,0.99401,-0.39505,0.60890,0.51440,0.45670,
1403715898684057856,1.51416,-0.33821,0.99065,-0.38330,0.62152,0.50160,0.46390,
1403715898784058112,1.67713,-0.36788,0.97599,-0.37362,0.63191,0.48755,0.47264,
1403715898884058112,1.83815,-0.39451,0.94919,-0.36487,0.64046,0.47795,0.47774,
1403715898984057856,1.99555,-0.41818,0.91070,-0.35715,0.64796,0.47234,0.47904,
1403715899084058112,2.14930,-0.43266,0.86036,-0.35099,0.65443,0.47107,0.47605,
1403715899184057856,2.29236,-0.44196,0.80548,-0.33929,0.66414,0.47695,0.46510,
1403715899284058112,2.43007,-0.44245,0.75800,-0.32344,0.66986,0.48909,0.45548,
1403715899384058112,2.55997,-0.43718,0.72134,-0.30919,0.67480,0.50092,0.44511,
1403715899584058112,2.81049,-0.39358,0.68751,-0.30561,0.67256,0.51062,0.43993,
1403715899784058112,3.04909,-0.31376,0.66462,-0.30905,0.66598,0.51515,0.44224,
1403715899884058112,3.16163,-0.25253,0.65529,-0.30953,0.65433,0.51909,0.45452,
1403715900084058112,3.35989,-0.11000,0.64037,-0.30384,0.63488,0.52899,0.47410,
1403715900284058112,3.50262,0.04952,0.62945,-0.29879,0.62749,0.53353,0.48201,
1403715900484057856,3.58368,0.23368,0.62431,-0.30640,0.63309,0.52882,0.47504,
1403715900584058112,3.60120,0.33304,0.62725,-0.32665,0.63694,0.51525,0.47130,
1403715900684057856,3.60991,0.43337,0.63173,-0.35134,0.63839,0.49778,0.47036,
1403715900784058112,3.61591,0.53431,0.63583,-0.37233,0.63241,0.48278,0.47787,
1403715900884058112,3.61768,0.62664,0.64134,-0.38054,0.62146,0.47577,0.49257,
1403715901084058112,3.60642,0.77493,0.65744,-0.38904,0.60525,0.46704,0.51399,
1403715901284058112,3.56667,0.85879,0.68227,-0.40008,0.59736,0.45670,0.52395,
1403715901484057856,3.49834,0.86641,0.70838,-0.39128,0.61702,0.46277,0.50203,
1403715901784058112,3.36563,0.77526,0.75474,-0.37187,0.63229,0.47575,0.48536,
1403715901984057856,3.26289,0.67520,0.77839,-0.36269,0.64000,0.48400,0.47392,
1403715902384058112,3.02751,0.41644,0.80739,-0.34450,0.63565,0.50029,0.47643,
1403715902584058112,2.88669,0.28095,0.81865,-0.34740,0.64753,0.50095,0.45725,
1403715902784058112,2.73641,0.15304,0.82459,-0.35493,0.65044,0.51510,0.43084,
1403715902884058112,2.66419,0.09893,0.81291,-0.35845,0.64568,0.52982,0.41702,
1403715902984057856,2.59234,0.05234,0.79536,-0.36156,0.63452,0.54684,0.40942,
1403715903084058112,2.52046,0.01175,0.77942,-0.36864,0.61826,0.56384,0.40490,
1403715903184057856,2.45309,-0.02170,0.76529,-0.37391,0.59978,0.58161,0.40271,
1403715903284058112,2.38803,-0.05240,0.75344,-0.37956,0.59080,0.59423,0.39216,
1403715903384058112,2.33127,-0.08267,0.74064,-0.38432,0.58670,0.60526,0.37647,
1403715903484057856,2.25571,-0.10011,0.73740,-0.39000,0.58067,0.61562,0.36297,
1403715903584058112,2.18362,-0.09781,0.75018,-0.39878,0.56931,0.62697,0.35180,
1403715903684057856,2.11157,-0.08055,0.77688,-0.40962,0.55358,0.63958,0.34162,
1403715903784058112,2.03754,-0.05378,0.81742,-0.42832,0.53365,0.64890,0.33270,
1403715903884058112,1.96264,-0.01977,0.87135,-0.45205,0.51085,0.65731,0.32034,
1403715903984057856,1.88999,0.02132,0.93002,-0.47372,0.48191,0.66946,0.30851,
1403715904084058112,1.81987,0.06444,0.98734,-0.49428,0.45329,0.68244,0.29066,
1403715904184057856,1.75523,0.10983,1.04058,0.50872,-0.42250,-0.69888,-0.27252,
1403715904284058112,1.69407,0.15500,1.09167,0.51747,-0.38728,-0.71777,-0.25894,
1403715904384058112,1.63615,0.20005,1.13789,0.52712,-0.34897,-0.73326,-0.25038,
1403715904484057856,1.57846,0.24427,1.17286,0.53717,-0.31689,-0.74431,-0.23882,
1403715904584058112,1.52391,0.28339,1.19452,0.54446,-0.28257,-0.75470,-0.23269,
1403715904684057856,1.46817,0.31770,1.20333,0.55354,-0.25005,-0.76230,-0.22354,
1403715904784058112,1.41224,0.34158,1.19919,0.56524,-0.22583,-0.76873,-0.19636,
1403715904884058112,1.35504,0.36079,1.18255,0.57537,-0.20041,-0.77576,-0.16430,
1403715904984057856,1.30116,0.37281,1.15540,0.58748,-0.16875,-0.77995,-0.13439,
1403715905084058112,1.25060,0.38195,1.11858,0.60047,-0.13200,-0.78097,-0.10999,
1403715905184057856,1.20967,0.38418,1.07107,0.61380,-0.09478,-0.77857,-0.08996,
1403715905284058112,1.17926,0.38001,1.01935,0.61575,-0.06018,-0.78206,-0.07488,
1403715905384058112,1.15873,0.36980,0.96714,0.60559,-0.03079,-0.79295,-0.05953,
1403715905484057856,1.14951,0.35229,0.92176,0.59612,-0.00369,-0.80184,-0.04100,
1403715905584058112,1.14247,0.32645,0.87717,0.58719,0.02062,-0.80894,-0.02006,
1403715905684057856,1.14269,0.29211,0.83544,0.58047,0.03798,-0.81324,0.01581,
1403715905784058112,1.14562,0.25600,0.79446,0.57375,0.06072,-0.81519,0.05092,
1403715905884058112,1.15025,0.21973,0.75324,0.56164,0.09282,-0.81798,0.08281,
1403715905984057856,1.15300,0.18378,0.71239,0.54309,0.13268,-0.82198,0.10862,
1403715906084058112,1.15389,0.14902,0.67372,0.52958,0.17836,-0.81896,0.13052,
1403715906184057856,1.14797,0.11360,0.64231,0.53141,0.22844,-0.80241,0.14684,
1403715906284058112,1.13993,0.07583,0.61243,0.53351,0.27650,-0.78203,0.16536,
1403715906384058112,1.13242,0.03368,0.58258,0.52815,0.32115,-0.76374,0.18605,
1403715906484057856,1.12091,-0.01650,0.55468,0.52241,0.35834,-0.74435,0.21124,
1403715906584058112,1.11418,-0.07357,0.53183,0.51539,0.39135,-0.72417,0.23832,
1403715906684057856,1.11521,-0.13123,0.52295,0.50225,0.41672,-0.70617,0.27462,
1403715906784058112,1.12156,-0.19167,0.52457,-0.48467,-0.44349,0.68827,-0.30773,
1403715906884058112,1.13018,-0.25139,0.52875,-0.46728,-0.47182,0.66658,-0.33869,
1403715906984057856,1.13991,-0.30449,0.52663,-0.45281,-0.50161,0.63960,-0.36641,
1403715907084058112,1.14870,-0.35428,0.51303,-0.43903,-0.53693,0.60925,-0.38441,
1403715907184057856,1.15976,-0.40191,0.49912,0.42504,0.57480,-0.57431,0.39889,
1403715907284058112,1.17661,-0.44521,0.49806,0.40316,0.60913,-0.53969,0.41852,
1403715907384058112,1.19918,-0.48536,0.51070,0.38115,0.63977,-0.50298,0.43867,
1403715907484057856,1.22747,-0.52056,0.53245,0.36208,0.66787,-0.46515,0.45441,
1403715907584058112,1.26166,-0.55093,0.55694,0.34205,0.69139,-0.43113,0.46810,
1403715907684057856,1.30048,-0.57674,0.58138,0.32039,0.70782,-0.40142,0.48497,
1403715907784058112,1.34429,-0.59707,0.60447,0.29825,0.71842,-0.37365,0.50527,
1403715907884058112,1.39023,-0.60905,0.62482,0.27546,0.72785,-0.34578,0.52421,
1403715907984057856,1.43634,-0.60992,0.64401,0.24701,0.73646,-0.31973,0.54257,
1403715908084058112,1.48023,-0.60384,0.66048,0.21829,0.74687,-0.28959,0.55738,
1403715908184057856,1.52164,-0.59393,0.67514,0.18997,0.75767,-0.25517,0.56986,
1403715908284058112,1.55709,-0.57707,0.68594,0.16024,0.76924,-0.21793,0.57887,
1403715908384058112,1.58744,-0.55672,0.69567,0.12980,0.78045,-0.17985,0.58455,
1403715908484057856,1.61070,-0.53231,0.70504,0.09901,0.78903,-0.13970,0.59001,
1403715908584058112,1.62699,-0.50474,0.71489,0.06894,0.79546,-0.09621,0.59433,
1403715908684057856,1.63642,-0.47453,0.72354,0.04232,0.79814,-0.04979,0.59892,
1403715908784058112,1.63951,-0.44183,0.73035,0.01310,0.79682,-0.00732,0.60403,
1403715908884058112,1.63676,-0.40812,0.73379,-0.01668,0.79602,0.03144,0.60422,
1403715908984057856,1.62565,-0.37191,0.73401,-0.04293,0.79921,0.07115,0.59529,
1403715909084058112,1.60928,-0.33565,0.73252,-0.06373,0.80040,0.11168,0.58552,
1403715909184057856,1.58816,-0.29705,0.72861,-0.08427,0.79880,0.14913,0.57670,
1403715909284058112,1.56294,-0.25582,0.72153,-0.10684,0.79482,0.18157,0.56911,
1403715909384058112,1.53799,-0.21287,0.71195,-0.12596,0.78805,0.21294,0.56371,
1403715909484057856,1.50955,-0.16688,0.69967,-0.14177,0.77832,0.24522,0.56034,
1403715909584058112,1.47764,-0.11677,0.68306,-0.15549,0.76664,0.28123,0.55587,
1403715909684057856,1.44045,-0.06050,0.66525,-0.17878,0.75247,0.31469,0.55027,
1403715909784058112,1.39614,0.00053,0.64478,-0.20836,0.73766,0.34820,0.53964,
1403715909884058112,1.34333,0.06704,0.62300,-0.24524,0.71736,0.38267,0.52803,
1403715909984057856,1.28392,0.13373,0.60168,-0.28980,0.69052,0.41545,0.51634,
1403715910084058112,1.22028,0.19560,0.57914,-0.32928,0.65989,0.45361,0.50035,
1403715910184057856,1.15238,0.25089,0.55259,-0.36050,0.63089,0.49458,0.47687,
1403715910284058112,1.08242,0.29909,0.52495,-0.38499,0.60198,0.53269,0.45347,
1403715910384058112,1.01171,0.33942,0.50080,-0.40898,0.57216,0.56264,0.43452,
1403715910484057856,0.94032,0.37099,0.47840,-0.43357,0.54035,0.58518,0.42144,
1403715910584058112,0.86638,0.39334,0.45771,-0.45501,0.51045,0.60516,0.40767,
1403715910684057856,0.79232,0.40424,0.44001,-0.47170,0.48529,0.62491,0.38921,
1403715910784058112,0.71908,0.40456,0.42595,-0.48647,0.46202,0.64346,0.36858,
1403715910884058112,0.64741,0.39351,0.41443,0.50126,-0.43766,-0.65998,-0.34873,
1403715910984057856,0.57870,0.37191,0.40385,0.51425,-0.41428,-0.67655,-0.32587,
1403715911084058112,0.51132,0.34030,0.39556,0.53046,-0.38875,-0.68886,-0.30487,
1403715911184057856,0.44886,0.30032,0.38774,0.54802,-0.36121,-0.69845,-0.28527,
1403715911284058112,0.39385,0.25087,0.37985,0.56076,-0.33271,-0.71095,-0.26343,
1403715911384058112,0.34758,0.19231,0.37222,0.56906,-0.30642,-0.72516,-0.23752,
1403715911484057856,0.30727,0.12729,0.36175,0.57272,-0.28238,-0.74017,-0.21072,
1403715911584058112,0.27508,0.05499,0.35050,0.57007,-0.26056,-0.75701,-0.18457,
1403715911684057856,0.24843,-0.01942,0.34005,0.56481,-0.23451,-0.77376,-0.16516,
1403715911784058112,0.22235,-0.09356,0.33677,0.56219,-0.20412,-0.78659,-0.15348,
1403715911884058112,0.19788,-0.16904,0.34659,0.56377,-0.17711,-0.79461,-0.13925,
1403715911984057856,0.17406,-0.24517,0.36832,0.56702,-0.15460,-0.79957,-0.12359,
1403715912084058112,0.15215,-0.32032,0.40096,0.56964,-0.13731,-0.80333,-0.10640,
1403715912184057856,0.13130,-0.39408,0.43528,0.57276,-0.12307,-0.80554,-0.08894,
1403715912284058112,0.11284,-0.47092,0.46762,0.57609,-0.10855,-0.80687,-0.07281,
1403715912384058112,0.09337,-0.54943,0.49692,0.57828,-0.09262,-0.80841,-0.05903,
1403715912484057856,0.07869,-0.62383,0.52459,0.57878,-0.07469,-0.81084,-0.04450,
1403715912584058112,0.06716,-0.70039,0.55209,0.57897,-0.05469,-0.81303,-0.02802,
1403715912684057856,0.05429,-0.77663,0.57870,0.57928,-0.03041,-0.81450,-0.01036,
1403715912784058112,0.04555,-0.85157,0.60541,0.58018,-0.00153,-0.81440,0.01200,
1403715912884058112,0.03893,-0.92536,0.62813,0.57966,0.03349,-0.81336,0.03631,
1403715912984057856,0.03519,-0.99685,0.63683,0.57737,0.07143,-0.81099,0.06199,
1403715913084058112,0.03295,-1.06707,0.63197,0.57445,0.10771,-0.80657,0.08860,
1403715913184057856,0.03180,-1.13686,0.61784,0.57206,0.14422,-0.79945,0.11323,
1403715913284058112,0.03327,-1.20171,0.60074,0.57490,0.17922,-0.78695,0.13447,
1403715913384058112,0.03573,-1.26460,0.58616,0.57947,0.21368,-0.77324,0.14371,
1403715913484057856,0.04413,-1.32624,0.57358,0.58601,0.23882,-0.76003,0.14803,
1403715913584058112,0.06223,-1.38442,0.56227,0.59485,0.26051,-0.74727,0.14096,
1403715913784058112,0.13836,-1.51311,0.54159,0.60043,0.27935,-0.73797,0.12981,
1403715913984057856,0.27157,-1.66722,0.53085,0.57851,0.27133,-0.75718,0.13559,
1403715914184057856,0.44298,-1.84090,0.53503,0.57300,0.26168,-0.76543,0.13159,
1403715914384058112,0.63711,-2.02670,0.54290,0.54319,0.22500,-0.79732,0.13637,
1403715914584058112,0.81742,-2.22205,0.56001,0.52092,0.18964,-0.82379,0.11852,
1403715914784058112,0.96331,-2.42882,0.57739,-0.49880,-0.12686,0.84853,-0.12284,
1403715914984057856,1.04347,-2.62419,0.59044,-0.48028,-0.07106,0.86326,-0.13810,
1403715915284058112,1.02073,-2.84757,0.61476,0.50399,0.05693,-0.85244,0.12685,
1403715915384058112,0.97357,-2.89341,0.62404,0.52727,0.07541,-0.83982,0.10488,
1403715915584058112,0.84822,-2.95939,0.59595,0.55126,0.10027,-0.82430,0.08120,
1403715915884058112,0.64361,-3.05745,0.49948,0.54325,0.11511,-0.82806,0.07706,
1403715916184057856,0.40187,-3.16761,0.41243,0.55241,0.10746,-0.82275,0.07982,
1403715916284058112,0.31459,-3.20241,0.38283,0.55932,0.09184,-0.82083,0.07040,
1403715916384058112,0.22693,-3.23610,0.35592,0.56533,0.07013,-0.81993,0.05656,
1403715916484057856,0.13880,-3.27076,0.32807,0.56820,0.04232,-0.82062,0.04409,
1403715916584058112,0.04621,-3.30429,0.30012,0.56719,0.01233,-0.82301,0.02833,
1403715916684057856,-0.04346,-3.33227,0.27339,0.56614,-0.02145,-0.82386,0.01647,
1403715916784058112,-0.13463,-3.35535,0.25029,0.56542,-0.05269,-0.82305,0.01099,
1403715916984057856,-0.31348,-3.37808,0.21297,0.56940,-0.10245,-0.81558,0.01055,
1403715917184057856,-0.48750,-3.35237,0.19674,0.59861,-0.11206,-0.79276,-0.02526,
1403715917284058112,-0.56476,-3.32551,0.19469,0.61179,-0.10778,-0.78110,-0.06310,
1403715917384058112,-0.62657,-3.29988,0.19165,0.61739,-0.11224,-0.77379,-0.08652,
1403715917584058112,-0.71895,-3.26255,0.18348,0.59973,-0.13604,-0.78413,-0.08338,
1403715917984057856,-0.80173,-3.18312,0.14291,0.62322,-0.13895,-0.76587,-0.07576,
1403715918184057856,-0.76467,-3.14866,0.11294,0.61541,-0.13016,-0.76990,-0.10762,
1403715918384058112,-0.69559,-3.11591,0.08972,0.60575,-0.16952,-0.77017,-0.10571,
1403715918484057856,-0.64509,-3.10364,0.06020,0.59104,-0.19749,-0.77594,-0.09794,
1403715918584058112,-0.58805,-3.08677,0.01912,0.57995,-0.22012,-0.77833,-0.09700,
1403715918684057856,-0.52288,-3.06444,-0.02337,0.57200,-0.23132,-0.77981,-0.10584,
1403715918784058112,-0.45396,-3.03601,-0.05433,0.56221,-0.23022,-0.78462,-0.12369,
1403715918884058112,-0.38339,-3.00423,-0.07320,0.54523,-0.22454,-0.79544,-0.13993,
1403715918984057856,-0.31618,-2.97132,-0.08017,0.52655,-0.22250,-0.80751,-0.14552,
1403715919084058112,-0.26075,-2.93467,-0.07367,0.51055,-0.22036,-0.81772,-0.14874,
1403715919284058112,-0.19012,-2.86075,-0.03709,0.51009,-0.19098,-0.81892,-0.18083,
1403715919484057856,-0.18172,-2.80419,-0.02463,0.53093,-0.18690,-0.80678,-0.17971,
1403715919984057856,-0.25940,-2.75133,-0.18975,0.53728,-0.19679,-0.80264,-0.16846,
1403715920184057856,-0.32739,-2.76020,-0.23401,0.52710,-0.20168,-0.81052,-0.15667,
1403715920384058112,-0.42443,-2.77667,-0.21957,0.54100,-0.20273,-0.80440,-0.13845,
1403715920484057856,-0.47941,-2.78460,-0.19956,0.55338,-0.20158,-0.79746,-0.13112,
1403715920584058112,-0.53427,-2.79081,-0.17853,0.56655,-0.19968,-0.78944,-0.12627,
1403715920684057856,-0.58547,-2.79622,-0.15867,0.57829,-0.19751,-0.78206,-0.12229,
1403715920784058112,-0.63033,-2.80227,-0.13098,0.58863,-0.19102,-0.77649,-0.11869,
1403715920984057856,-0.70013,-2.81976,-0.04690,0.58539,-0.17321,-0.78594,-0.09801,
1403715921184057856,-0.74168,-2.83239,0.06414,0.57054,-0.14943,-0.80404,-0.07533,
1403715921384058112,-0.77557,-2.82821,0.17202,0.56321,-0.12560,-0.81311,-0.07655,
1403715921584058112,-0.81184,-2.81795,0.28430,0.55821,-0.11396,-0.81777,-0.08165,
1403715921784058112,-0.86238,-2.81189,0.43346,0.56015,-0.11834,-0.81622,-0.07753,
1403715921984057856,-0.91677,-2.80541,0.57056,0.56452,-0.12731,-0.81245,-0.07104,
1403715922184057856,-0.97020,-2.79355,0.69699,0.57377,-0.12923,-0.80522,-0.07555,
1403715922284058112,-0.99382,-2.78702,0.77351,0.58160,-0.12975,-0.79936,-0.07706,
1403715922384058112,-1.01454,-2.77844,0.85490,0.58548,-0.12680,-0.79654,-0.08162,
1403715922484057856,-1.03298,-2.77051,0.93769,0.58529,-0.12331,-0.79682,-0.08547,
1403715922684057856,-1.05540,-2.75921,1.09197,0.58961,-0.12650,-0.79385,-0.07840,
1403715922884058112,-1.06556,-2.75210,1.19481,0.58559,-0.11978,-0.79707,-0.08615,
1403715923384058112,-1.04074,-2.77963,1.37123,0.56615,-0.12215,-0.81123,-0.08037,
1403715923684057856,-1.01291,-2.81152,1.45551,0.57231,-0.14427,-0.80588,-0.04693,
1403715924184057856,-0.92324,-2.76036,1.25374,0.60086,-0.12818,-0.78616,-0.06701,
1403715924284058112,-0.88535,-2.73947,1.19314,0.59643,-0.12490,-0.78963,-0.07175,
1403715924384058112,-0.84090,-2.71880,1.13607,0.58909,-0.12261,-0.79511,-0.07580,
1403715924484057856,-0.79279,-2.69848,1.07953,0.57876,-0.12406,-0.80251,-0.07497,
1403715924584058112,-0.74314,-2.67674,1.02490,0.56901,-0.12668,-0.80915,-0.07392,
1403715924684057856,-0.69475,-2.65324,0.97269,0.56503,-0.13778,-0.81070,-0.06718,
1403715924784058112,-0.64641,-2.62435,0.92217,0.56585,-0.15422,-0.80721,-0.06671,
1403715924884058112,-0.59949,-2.58850,0.87095,0.56770,-0.17364,-0.80123,-0.07476,
1403715924984057856,-0.54929,-2.54659,0.82043,0.57249,-0.19418,-0.79125,-0.09206,
1403715925084058112,-0.49543,-2.49790,0.77694,0.58101,-0.21267,-0.77657,-0.11891,
1403715925184057856,-0.43419,-2.44870,0.74505,0.58514,-0.23136,-0.76325,-0.14675,
1403715925284058112,-0.36615,-2.40159,0.72665,0.58148,-0.25675,-0.75418,-0.16486,
1403715925384058112,-0.29070,-2.35744,0.71920,0.57092,-0.28782,-0.74863,-0.17538,
1403715925484057856,-0.20826,-2.31427,0.71636,0.55613,-0.31977,-0.74489,-0.18333,
1403715925584058112,-0.12008,-2.26964,0.71376,0.54238,-0.34892,-0.73891,-0.19516,
1403715925684057856,-0.02741,-2.22113,0.71214,0.53299,-0.37484,-0.72844,-0.21163,
1403715925784058112,0.07043,-2.16748,0.71029,0.52500,-0.39937,-0.71557,-0.22988,
1403715925884058112,0.16948,-2.10923,0.70877,0.51801,-0.42283,-0.70031,-0.24990,
1403715925984057856,0.27475,-2.04925,0.70654,0.50917,-0.44383,-0.68463,-0.27394,
1403715926084058112,0.38466,-1.98892,0.70108,0.50535,-0.46680,-0.66266,-0.29599,
1403715926184057856,0.49854,-1.93104,0.68532,0.50277,-0.49059,-0.63625,-0.31895,
1403715926284058112,0.61924,-1.87861,0.65499,-0.49604,0.51460,0.61046,0.34128,
1403715926384058112,0.74692,-1.83277,0.61519,-0.48452,0.53563,0.58621,0.36701,
1403715926484057856,0.88020,-1.79658,0.57337,-0.47139,0.55035,0.56229,0.39841,
1403715926584058112,1.01622,-1.77225,0.52841,-0.45232,0.56805,0.54233,0.42262,
1403715926684057856,1.15424,-1.76100,0.48170,-0.42701,0.59211,0.52707,0.43504,
1403715926784058112,1.29063,-1.75887,0.43639,-0.39791,0.61461,0.51501,0.44575,
1403715926884058112,1.42394,-1.76478,0.40061,-0.36804,0.63340,0.50590,0.45543,
1403715926984057856,1.55335,-1.77227,0.37869,-0.34570,0.64955,0.49431,0.46286,
1403715927084058112,1.67853,-1.77629,0.36789,-0.33238,0.65963,0.47880,0.47451,
1403715927184057856,1.79951,-1.78318,0.35699,-0.31673,0.66276,0.46522,0.49396,
1403715927284058112,1.91054,-1.78916,0.34702,-0.29609,0.66166,0.45476,0.51743,
1403715927384058112,2.00948,-1.79623,0.33950,-0.28164,0.65876,0.44120,0.54042,
1403715927484057856,2.09151,-1.80465,0.33425,-0.27913,0.65872,0.41875,0.55931,
1403715927584058112,2.15604,-1.81910,0.32928,-0.28639,0.66514,0.38729,0.57059,
1403715927684057856,2.20550,-1.84281,0.32340,-0.28743,0.67466,0.35468,0.58002,
1403715927784058112,2.24027,-1.87824,0.31422,-0.26917,0.68765,0.32813,0.58908,
1403715927884058112,2.26084,-1.92572,0.30371,-0.23886,0.70234,0.30380,0.59780,
1403715927984057856,2.26609,-1.98350,0.29085,-0.20264,0.71887,0.27896,0.60361,
1403715928084058112,2.25658,-2.04858,0.26998,-0.17182,0.73737,0.24599,0.60518,
1403715928184057856,2.23424,-2.11707,0.23563,-0.14590,0.75839,0.20540,0.60114,
1403715928284058112,2.20208,-2.18652,0.19067,-0.12303,0.76969,0.16036,0.60558,
1403715928384058112,2.15952,-2.25806,0.14040,-0.09929,0.77037,0.11656,0.61894,
1403715928484057856,2.10339,-2.33191,0.08660,-0.07889,0.77342,0.07537,0.62443,
1403715928584058112,2.03457,-2.40791,0.03026,-0.06044,0.78557,0.04149,0.61442,
1403715928684057856,1.95652,-2.48599,-0.01652,-0.04375,0.79569,0.02092,0.60376,
1403715928784058112,1.87269,-2.56449,-0.05051,-0.02976,0.81532,0.01315,0.57810,
1403715928884058112,1.79054,-2.64144,-0.06150,-0.02579,0.83787,0.01679,0.54500,
1403715928984057856,1.71782,-2.71441,-0.04494,-0.03151,0.85510,0.03127,0.51656,
1403715929084058112,1.66848,-2.78144,0.00034,-0.04147,0.86713,0.04913,0.49391,
1403715929284058112,1.63799,-2.90294,0.10566,-0.04264,0.87536,0.09288,0.47255,
1403715929384058112,1.65168,-2.95872,0.14973,-0.02154,0.85864,0.12674,0.49620,
1403715929484057856,1.67817,-3.00243,0.18739,0.00675,0.83288,0.16047,0.52963,
1403715929584058112,1.70808,-3.02189,0.22402,0.03506,0.80815,0.18671,0.55750,
1403715929784058112,1.75120,-2.97637,0.29075,0.01695,0.80738,0.16494,0.56625,
1403715929884058112,1.76661,-2.91844,0.31721,-0.02122,0.80929,0.13250,0.57188,
1403715929984057856,1.78137,-2.85045,0.33434,-0.06171,0.80678,0.09846,0.57931,
1403715930084058112,1.79589,-2.77939,0.34092,-0.09354,0.80340,0.07086,0.58376,
1403715930184057856,1.80653,-2.71601,0.34505,-0.11790,0.79993,0.04881,0.58637,
1403715930484057856,1.81757,-2.61542,0.34856,-0.11392,0.81428,0.03877,0.56787,
1403715930684057856,1.82414,-2.61300,0.31645,-0.09367,0.83548,0.04636,0.53949,
1403715930984057856,1.90472,-2.67231,0.34935,-0.05806,0.84473,0.06516,0.52802,
1403715931184057856,2.00878,-2.71913,0.38217,-0.04357,0.85681,0.07276,0.50861,
1403715931384058112,2.16937,-2.74796,0.43675,-0.04706,0.85510,0.06919,0.51166,
1403715931484057856,2.27290,-2.75846,0.47774,-0.04979,0.85091,0.06941,0.51831,
1403715931584058112,2.38659,-2.76531,0.51086,-0.04987,0.84661,0.07239,0.52490,
1403715931684057856,2.50867,-2.76738,0.53068,-0.04789,0.84254,0.07820,0.53076,
1403715931884058112,2.76830,-2.75852,0.54386,-0.04989,0.83131,0.08702,0.54668,
1403715931984057856,2.90655,-2.74967,0.55177,-0.05341,0.81992,0.08920,0.56295,
1403715932084058112,3.04222,-2.73784,0.56195,-0.05909,0.80569,0.08940,0.58256,
1403715932184057856,3.17097,-2.72430,0.57798,-0.06125,0.78494,0.09035,0.60988,
1403715932284058112,3.28684,-2.70871,0.60041,-0.06309,0.75922,0.09030,0.64145,
1403715932384058112,3.38349,-2.69272,0.62473,-0.06617,0.73621,0.08840,0.66768,
1403715932484057856,3.45333,-2.67736,0.64773,-0.06963,0.72035,0.08606,0.68472,
1403715932584058112,3.48957,-2.66511,0.67332,-0.07330,0.70415,0.08335,0.70132,
1403715932684057856,3.48869,-2.65688,0.70181,-0.07802,0.68939,0.07997,0.71573,
1403715932984057856,3.24792,-2.66437,0.78983,-0.06474,0.73111,0.07868,0.67461,
1403715933084058112,3.10457,-2.67468,0.81698,-0.05682,0.77093,0.07872,0.62948,
1403715933184057856,2.94862,-2.68559,0.84307,-0.05010,0.80685,0.07841,0.58338,
1403715933284058112,2.79084,-2.69526,0.86861,-0.04481,0.83760,0.07824,0.53880,
1403715933384058112,2.64134,-2.70149,0.89371,-0.04684,0.86572,0.07262,0.49301,
1403715933484057856,2.51241,-2.70490,0.91743,-0.05309,0.89150,0.06234,0.44556,
1403715933584058112,2.41708,-2.70245,0.94465,-0.05470,0.91050,0.05402,0.40630,
1403715933684057856,2.36193,-2.67824,0.97682,-0.04583,0.92259,0.04325,0.38059,
1403715933884058112,2.40426,-2.66459,1.06861,-0.02738,0.92153,0.04804,0.38436,
1403715933984057856,2.50780,-2.65465,1.13621,-0.02629,0.89696,0.04791,0.43872,
1403715934084058112,2.64421,-2.63783,1.21324,-0.02755,0.85547,0.04622,0.51504,
1403715934184057856,2.78810,-2.61893,1.28203,-0.03084,0.80377,0.04264,0.59261,
1403715934284058112,2.92452,-2.60012,1.32665,-0.03140,0.75886,0.04102,0.64920,
1403715934384058112,3.04159,-2.58217,1.35388,-0.03438,0.72390,0.03892,0.68795,
1403715934484057856,3.12980,-2.56763,1.36744,-0.03653,0.69392,0.03850,0.71809,
1403715934584058112,3.18066,-2.55797,1.37112,-0.04094,0.66922,0.03845,0.74094,
1403715934784058112,3.13781,-2.55256,1.38704,-0.05680,0.64724,0.03758,0.75924,
1403715934884058112,3.03441,-2.55834,1.40129,-0.05946,0.67202,0.04009,0.73705,
1403715934984057856,2.88352,-2.57196,1.41512,-0.05855,0.72043,0.04269,0.68973,
1403715935084058112,2.70388,-2.59081,1.42255,-0.05580,0.76994,0.04397,0.63415,
1403715935184057856,2.51045,-2.61208,1.41964,-0.05022,0.81173,0.04487,0.58014,
1403715935284058112,2.31614,-2.63330,1.40529,-0.04445,0.84200,0.04551,0.53572,
1403715935384058112,2.13000,-2.65187,1.38012,-0.03804,0.86333,0.04645,0.50106,
1403715935484057856,1.96455,-2.68295,1.34732,-0.03671,0.87788,0.05460,0.47433,
1403715935584058112,1.82356,-2.70185,1.30710,-0.03313,0.88711,0.05784,0.45671,
1403715935684057856,1.71255,-2.71461,1.26446,-0.03170,0.89532,0.05890,0.44037,
1403715935784058112,1.64175,-2.71778,1.22419,-0.02920,0.90368,0.05889,0.42312,
1403715936084058112,1.68097,-2.66958,1.15497,-0.02178,0.88509,0.04866,0.46236,
1403715936184057856,1.76079,-2.64951,1.14930,-0.02105,0.85190,0.04755,0.52112,
1403715936284058112,1.84724,-2.62943,1.14461,-0.02114,0.81418,0.04521,0.57846,
1403715936384058112,1.93149,-2.60714,1.13536,-0.02618,0.78339,0.03803,0.61981,
1403715936484057856,2.00472,-2.58340,1.12017,-0.02914,0.76572,0.03243,0.64169,
1403715936684057856,2.09036,-2.54075,1.09225,-0.04274,0.74698,0.01817,0.66322,
1403715936884058112,2.08533,-2.51016,1.06289,-0.03390,0.76660,0.02085,0.64089,
1403715937084058112,2.01353,-2.48956,1.03158,-0.03546,0.78825,0.02993,0.61360,
1403715937184057856,1.96351,-2.48142,1.01435,-0.04418,0.80019,0.04208,0.59664,
1403715937284058112,1.90951,-2.47249,0.99457,-0.05572,0.80719,0.05940,0.58464,
1403715937384058112,1.85326,-2.46267,0.96526,-0.06800,0.80815,0.08195,0.57926,
1403715937484057856,1.79507,-2.45440,0.92358,-0.08144,0.80923,0.10401,0.57245,
1403715937584058112,1.73796,-2.44751,0.86766,-0.09160,0.82142,0.12272,0.54938,
1403715937684057856,1.68794,-2.43922,0.80911,-0.09968,0.83309,0.14248,0.52510,
1403715937784058112,1.64708,-2.42849,0.75147,-0.10859,0.83861,0.16034,0.50915,
1403715937884058112,1.61592,-2.41406,0.69742,-0.11837,0.83986,0.17816,0.49888,
1403715937984057856,1.59723,-2.39483,0.64635,-0.12695,0.83847,0.19840,0.49142,
1403715938084058112,1.59472,-2.36774,0.59890,-0.13814,0.83627,0.21843,0.48359,
1403715938184057856,1.60959,-2.33245,0.56220,-0.14905,0.83268,0.24092,0.47579,
1403715938284058112,1.64356,-2.28606,0.54443,-0.16069,0.82057,0.26531,0.48005,
1403715938384058112,1.69248,-2.22793,0.54606,-0.17071,0.79695,0.29285,0.49997,
1403715938484057856,1.74747,-2.16149,0.55660,-0.18946,0.77513,0.31356,0.51474,
1403715938584058112,1.80427,-2.08956,0.56603,-0.21005,0.75918,0.32908,0.52080,
1403715938684057856,1.86119,-2.01673,0.57123,-0.22308,0.75227,0.34052,0.51805,
1403715938884058112,1.97763,-1.86047,0.57147,-0.22100,0.76857,0.36104,0.47971,
1403715939084058112,2.11538,-1.67614,0.56406,-0.21465,0.78318,0.37372,0.44821,
1403715939184057856,2.20030,-1.56296,0.56243,-0.22064,0.77587,0.37387,0.45778,
1403715939284058112,2.29541,-1.43712,0.56650,-0.23760,0.75309,0.36692,0.49170,
1403715939384058112,2.39295,-1.30673,0.57019,-0.25610,0.72747,0.35630,0.52750,
1403715939484057856,2.48434,-1.18059,0.57106,-0.27056,0.70410,0.34577,0.55810,
1403715939584058112,2.56604,-1.06428,0.57179,-0.28036,0.68368,0.33604,0.58400,
1403715939684057856,2.63275,-0.96316,0.58006,-0.29277,0.65753,0.32226,0.61488,
1403715939784058112,2.67729,-0.88660,0.59574,-0.30169,0.63726,0.30974,0.63792,
1403715939984057856,2.67824,-0.82547,0.65489,-0.30071,0.62839,0.30125,0.65111,
1403715940084058112,2.63112,-0.84161,0.69452,-0.28276,0.65856,0.31413,0.62263,
1403715940184057856,2.56134,-0.88041,0.73705,-0.26139,0.69560,0.32980,0.58228,
1403715940284058112,2.47863,-0.93003,0.77863,-0.24164,0.72893,0.34340,0.54069,
1403715940384058112,2.39238,-0.98054,0.81830,-0.22425,0.75881,0.35490,0.49796,
1403715940484057856,2.31156,-1.02628,0.85579,-0.20673,0.78576,0.36473,0.45477,
1403715940584058112,2.23667,-1.05672,0.89088,-0.19264,0.81196,0.36991,0.40839,
1403715940684057856,2.18497,-1.06626,0.92531,-0.18093,0.83567,0.37172,0.36158,
1403715940784058112,2.16560,-1.04482,0.96344,-0.16785,0.84780,0.37667,0.33344,
1403715940984057856,2.23463,-0.88276,1.06459,-0.17349,0.82972,0.37369,0.37660,
1403715941084058112,2.31323,-0.75303,1.12900,-0.20055,0.79386,0.35943,0.44764,
1403715941184057856,2.40238,-0.61197,1.19724,-0.23487,0.74444,0.33664,0.52661,
1403715941284058112,2.48829,-0.47463,1.25869,-0.26368,0.70173,0.31415,0.58255,
1403715941384058112,2.56214,-0.35287,1.31268,-0.28431,0.67209,0.29710,0.61579,
1403715941484057856,2.62047,-0.24947,1.35212,-0.29973,0.65299,0.28460,0.63465,
1403715941584058112,2.66344,-0.16834,1.36773,-0.31045,0.64095,0.27639,0.64531,
1403715941684057856,2.68592,-0.11594,1.36565,-0.32442,0.62590,0.26544,0.65768,
1403715941784058112,2.68431,-0.09734,1.35667,-0.33881,0.60812,0.25407,0.67145,
1403715942084058112,2.51522,-0.28275,1.28712,-0.30886,0.64597,0.28087,0.63910,
1403715942184057856,2.41183,-0.40875,1.24196,-0.28146,0.69078,0.30498,0.59211,
1403715942284058112,2.29937,-0.54797,1.17519,-0.25479,0.73394,0.32587,0.53872,
1403715942384058112,2.18498,-0.68737,1.08787,-0.23205,0.76852,0.34057,0.48942,
1403715942484057856,2.07362,-0.82061,0.98729,-0.21864,0.79232,0.34740,0.45138,
1403715942584058112,1.97483,-0.94161,0.88130,-0.20593,0.80992,0.35462,0.41937,
1403715942684057856,1.89684,-1.03899,0.77870,-0.19054,0.82248,0.36290,0.39435,
1403715942784058112,1.84622,-1.10863,0.68182,-0.18192,0.82747,0.36802,0.38310,
1403715942984057856,1.83699,-1.15383,0.50847,-0.17988,0.82348,0.37218,0.38859,
1403715943184057856,1.92343,-1.09109,0.38539,-0.18545,0.79963,0.37988,0.42649,
1403715943284058112,1.99459,-1.01850,0.35304,-0.21314,0.77276,0.36746,0.47158,
1403715943384058112,2.06991,-0.92971,0.33845,-0.24591,0.73512,0.35395,0.52331,
1403715943484057856,2.14042,-0.84150,0.33066,-0.27479,0.69808,0.34390,0.56473,
1403715943584058112,2.20220,-0.76390,0.31915,-0.28984,0.67637,0.33854,0.58643,
1403715943784058112,2.28134,-0.66432,0.30117,-0.31092,0.64915,0.31926,0.61644,
1403715943984057856,2.27501,-0.67336,0.32263,-0.31506,0.63760,0.30353,0.63409,
1403715944084058112,2.23281,-0.72614,0.34770,-0.30531,0.66944,0.31407,0.60000,
1403715944184057856,2.17297,-0.80015,0.37622,-0.28943,0.71062,0.33626,0.54606,
1403715944284058112,2.10647,-0.88455,0.40189,-0.27098,0.74865,0.36435,0.48306,
1403715944384058112,2.04442,-0.96717,0.42220,-0.25647,0.76719,0.39402,0.43633,
1403715944484057856,1.99382,-1.03787,0.43426,-0.24817,0.77443,0.42412,0.39849,
1403715944584058112,1.96136,-1.08958,0.44543,-0.24894,0.77300,0.45162,0.36952,
1403715944684057856,1.94957,-1.11138,0.46179,-0.25685,0.76561,0.47579,0.34855,
1403715944784058112,1.95727,-1.09850,0.48242,-0.26530,0.75275,0.50029,0.33568,
1403715944884058112,1.98428,-1.05637,0.50954,-0.28114,0.72406,0.52458,0.34859,
1403715944984057856,2.02310,-0.98485,0.54470,-0.31195,0.67676,0.53996,0.39131,
1403715945084058112,2.06374,-0.90156,0.58060,-0.35185,0.62216,0.53992,0.44454,
1403715945184057856,2.09947,-0.81779,0.61295,-0.38115,0.58137,0.53266,0.48271,
1403715945284058112,2.12762,-0.74614,0.64045,-0.40134,0.55418,0.52304,0.50816,
1403715945384058112,2.14591,-0.69311,0.66908,-0.41907,0.53230,0.50924,0.53077,
1403715945484057856,2.14946,-0.66576,0.70150,-0.43717,0.51528,0.49206,0.54886,
1403715945684057856,2.11688,-0.70803,0.75161,-0.42473,0.55696,0.50159,0.50774,
1403715945784058112,2.08704,-0.76057,0.77555,-0.39731,0.59223,0.52103,0.46898,
1403715945884058112,2.05500,-0.82303,0.80051,-0.36311,0.62432,0.54218,0.42943,
1403715945984057856,2.02118,-0.88430,0.82466,-0.33364,0.64975,0.55941,0.39188,
1403715946084058112,1.98787,-0.93169,0.85091,-0.31422,0.66231,0.57547,0.36256,
1403715946184057856,1.95602,-0.95561,0.87699,-0.30098,0.66841,0.59196,0.33499,
1403715946284058112,1.92737,-0.94898,0.90520,-0.29546,0.66699,0.60761,0.31407,
1403715946384058112,1.90225,-0.90836,0.93731,-0.30573,0.64923,0.62022,0.31681,
1403715946484057856,1.87677,-0.83367,0.97805,-0.33718,0.61637,0.62137,0.34683,
1403715946584058112,1.84735,-0.74001,1.01980,-0.38012,0.58476,0.60764,0.37992,
1403715946684057856,1.81687,-0.63964,1.06220,-0.42249,0.55402,0.58780,0.41116,
1403715946784058112,1.78572,-0.54607,1.10123,-0.45130,0.53219,0.57228,0.43081,
1403715946884058112,1.75570,-0.46383,1.13307,-0.46808,0.51910,0.56296,0.44104,
1403715946984057856,1.72654,-0.40064,1.16069,-0.47934,0.50753,0.55512,0.45220,
1403715947084058112,1.69816,-0.35897,1.18420,-0.49334,0.49763,0.54290,0.46287,
1403715947184057856,1.67041,-0.34580,1.20905,0.51698,-0.47945,-0.51799,-0.48431,
1403715947484057856,1.60100,-0.50070,1.21480,-0.48599,0.51991,0.53603,0.45406,
1403715947584058112,1.57998,-0.60611,1.19033,-0.45853,0.55097,0.55884,0.41699,
1403715947684057856,1.56160,-0.72148,1.15194,-0.42764,0.58210,0.58115,0.37491,
1403715947784058112,1.54705,-0.83645,1.10421,-0.39867,0.60252,0.59977,0.34396,
1403715947884058112,1.53817,-0.93963,1.04863,-0.37108,0.61080,0.61817,0.32725,
1403715947984057856,1.53153,-1.02195,0.98725,-0.34611,0.61675,0.63523,0.31036,
1403715948084058112,1.52203,-1.07713,0.92812,-0.32443,0.62262,0.64936,0.29228,
1403715948384058112,1.50092,-1.00615,0.80613,-0.34847,0.60466,0.64543,0.31045,
1403715948484057856,1.48933,-0.91577,0.78282,-0.38501,0.58458,0.62477,0.34596,
1403715948584058112,1.47954,-0.81789,0.75716,-0.41589,0.56304,0.60359,0.38172,
1403715948684057856,1.47018,-0.71785,0.72957,-0.43881,0.54592,0.58373,0.41071,
1403715948784058112,1.45955,-0.62533,0.69877,-0.45676,0.53099,0.56522,0.43582,
1403715948884058112,1.45042,-0.54974,0.66739,-0.46960,0.52106,0.55250,0.45025,
1403715949084058112,1.43282,-0.46245,0.61476,-0.49901,0.49762,0.54110,0.45889,
1403715949184057856,1.42671,-0.45404,0.59163,0.50237,-0.49424,-0.55278,-0.44472,
1403715949284058112,1.42333,-0.47106,0.56584,-0.48475,0.50289,0.58479,0.41249,
1403715949384058112,1.42213,-0.50306,0.54017,-0.45618,0.51480,0.62298,0.37252,
1403715949484057856,1.42124,-0.53768,0.51749,-0.42559,0.52473,0.65691,0.33466,
1403715949584058112,1.41941,-0.56565,0.50002,-0.40482,0.52476,0.68311,0.30678,
1403715949684057856,1.41460,-0.57718,0.48497,-0.39301,0.51941,0.70441,0.28206,
1403715949784058112,1.40345,-0.56568,0.47372,-0.38299,0.50873,0.72512,0.26214,
1403715949984057856,1.35359,-0.46855,0.46843,-0.38439,0.46151,0.75647,0.25886,
1403715950084058112,1.30634,-0.38228,0.47319,-0.39820,0.42880,0.76454,0.27028,
1403715950184057856,1.24141,-0.28109,0.48396,-0.43767,0.39592,0.75357,0.28952,
1403715950284058112,1.16517,-0.17761,0.49746,-0.49083,0.37338,0.72611,0.30403,
1403715950384058112,1.08623,-0.08129,0.50697,0.53518,-0.35942,-0.69789,-0.31202,
1403715950484057856,1.01240,0.00091,0.51595,0.56868,-0.34703,-0.67226,-0.32284,
1403715950584058112,0.94779,0.06407,0.52435,0.59002,-0.33816,-0.65273,-0.33385,
1403715950684057856,0.89625,0.09997,0.53453,0.60340,-0.33347,-0.63985,-0.33955,
1403715950784058112,0.85974,0.10650,0.54803,0.61590,-0.32779,-0.62750,-0.34563,
1403715950984057856,0.83753,0.01907,0.57955,0.61429,-0.33263,-0.63274,-0.33412,
1403715951084058112,0.85295,-0.07010,0.59191,0.58023,-0.35323,-0.66645,-0.30726,
1403715951184057856,0.87804,-0.17751,0.60369,0.53846,-0.36837,-0.70403,-0.28057,
1403715951284058112,0.90711,-0.29030,0.61558,-0.49371,0.37841,0.74151,0.25144,
1403715951384058112,0.93190,-0.39934,0.62816,-0.45981,0.38210,0.76955,0.22444,
1403715951484057856,0.94548,-0.49387,0.64219,-0.43249,0.37973,0.79271,0.20093,
1403715951584058112,0.94548,-0.56805,0.65776,-0.41220,0.37357,0.81130,0.17979,
1403715951684057856,0.93461,-0.61063,0.67636,-0.40010,0.35959,0.82742,0.16120,
1403715951784058112,0.90138,-0.62880,0.69781,-0.39525,0.34437,0.83894,0.14618,
1403715951884058112,0.84560,-0.61742,0.72406,-0.40987,0.32327,0.84181,0.13735,
1403715951984057856,0.75725,-0.58243,0.76122,-0.46105,0.29876,0.82316,0.14349,
1403715952084058112,0.65561,-0.53170,0.79971,0.52297,-0.27004,-0.79424,-0.15088,
1403715952184057856,0.55209,-0.47624,0.83516,0.57688,-0.24055,-0.76508,-0.15494,
1403715952284058112,0.45876,-0.42014,0.86473,0.61282,-0.21877,-0.74388,-0.15243,
1403715952384058112,0.38226,-0.36890,0.89166,0.63680,-0.20160,-0.72899,-0.14970,
1403715952484057856,0.32954,-0.32876,0.91853,0.65511,-0.18761,-0.71706,-0.14649,
1403715952684057856,0.29790,-0.28360,0.97658,0.68690,-0.15918,-0.69533,-0.13907,
1403715952784058112,0.33024,-0.27941,1.00810,0.70860,-0.14692,-0.67582,-0.13984,
1403715952984057856,0.49889,-0.31231,1.05261,0.67144,-0.14649,-0.71536,-0.12635,
1403715953084058112,0.62318,-0.34369,1.05768,0.61451,-0.15176,-0.76643,-0.10922,
1403715953184057856,0.76007,-0.37850,1.04749,0.55376,-0.15708,-0.81236,-0.09356,
1403715953284058112,0.89820,-0.40121,1.02257,0.50737,-0.16011,-0.84271,-0.08234,
1403715953384058112,1.02523,-0.41752,0.99147,-0.47392,0.15860,0.86314,0.07242,
1403715953484057856,1.13539,-0.43080,0.95540,-0.44705,0.15247,0.87942,0.05934,
1403715953584058112,1.19334,-0.42771,0.92722,-0.42550,0.14043,0.89276,0.04699,
1403715953684057856,1.21783,-0.43117,0.90744,-0.41005,0.12835,0.90217,0.03844,
1403715953784058112,1.20389,-0.40932,0.89551,-0.40107,0.10999,0.90887,0.03168,
1403715953984057856,1.06220,-0.33025,0.89714,-0.44314,0.04559,0.89285,0.06608,
1403715954084058112,0.94297,-0.29067,0.89572,-0.49216,0.01207,0.86541,0.09329,
1403715954184057856,0.81391,-0.26039,0.88275,0.54658,0.00380,-0.83084,-0.10458,
1403715954284058112,0.67352,-0.24764,0.87112,0.59573,0.00270,-0.79670,-0.10183,
1403715954384058112,0.54834,-0.25367,0.85629,0.63486,-0.01261,-0.76818,-0.08177,
1403715954484057856,0.43432,-0.27189,0.84204,0.66945,-0.02811,-0.73984,-0.06064,
1403715954584058112,0.35357,-0.30118,0.83208,0.69967,-0.03368,-0.71174,-0.05254,
1403715954684057856,0.30681,-0.34077,0.82349,0.71985,-0.03557,-0.69157,-0.04773,
1403715954884058112,0.33583,-0.43896,0.80327,0.69803,-0.03665,-0.71365,-0.04600,
1403715954984057856,0.39631,-0.49719,0.79412,0.65956,-0.03926,-0.74919,-0.04646,
1403715955084058112,0.48026,-0.55883,0.78957,0.61814,-0.04370,-0.78353,-0.04564,
1403715955184057856,0.57458,-0.62287,0.78507,0.57313,-0.05418,-0.81686,-0.03652,
1403715955284058112,0.66941,-0.68558,0.78167,0.52829,-0.06418,-0.84616,-0.02813,
1403715955384058112,0.75676,-0.74200,0.78222,-0.49386,0.07032,0.86633,0.02507,
1403715955484057856,0.82645,-0.79371,0.78461,-0.46482,0.07610,0.88193,0.01857,
1403715955584058112,0.86853,-0.84071,0.78983,-0.43824,0.08315,0.89500,0.00372,
1403715955684057856,0.87796,-0.87446,0.79941,-0.42000,0.07623,0.90428,-0.00857,
1403715955784058112,0.84761,-0.90043,0.81779,-0.43588,0.05597,0.89823,-0.00740,
1403715955884058112,0.78521,-0.91283,0.84669,-0.49043,0.02921,0.87093,-0.01086,
1403715955984057856,0.70640,-0.92189,0.87654,0.54727,0.00009,-0.83674,0.01881,
1403715956084058112,0.62456,-0.93134,0.90665,0.59750,0.03721,-0.80068,0.02287,
1403715956184057856,0.54892,-0.93816,0.93108,0.62779,0.07353,-0.77428,0.03108,
1403715956284058112,0.48787,-0.94556,0.95188,0.64159,0.10648,-0.75824,0.04573,
1403715956384058112,0.44824,-0.95628,0.97420,0.65606,0.13438,-0.73939,0.06947,
1403715956484057856,0.43760,-0.96854,1.00126,0.67855,0.15754,-0.71062,0.09890,
1403715956584058112,0.45819,-0.97775,1.02910,0.69335,0.17664,-0.68737,0.12482,
1403715956684057856,0.51060,-0.97854,1.05714,0.69243,0.18952,-0.68138,0.14268,
1403715956784058112,0.59521,-0.96947,1.08208,0.66974,0.19743,-0.69900,0.15447,
1403715956884058112,0.70881,-0.95083,1.10515,0.63714,0.20207,-0.72652,0.15934,
1403715956984057856,0.84022,-0.92691,1.12438,0.59699,0.20670,-0.75950,0.15503,
1403715957084058112,0.98107,-0.90015,1.13433,0.55592,0.21042,-0.79098,0.14502,
1403715957184057856,1.12041,-0.87577,1.13221,0.51731,0.21073,-0.81794,0.13768,
1403715957284058112,1.25165,-0.85569,1.11600,-0.47774,-0.20925,0.84292,-0.13213,
1403715957384058112,1.36961,-0.84428,1.08816,-0.43646,-0.20743,0.86649,-0.12520,
1403715957484057856,1.46167,-0.84223,1.05476,-0.40309,-0.20740,0.88363,-0.11704,
1403715957584058112,1.52138,-0.85484,1.01891,-0.37868,-0.20854,0.89509,-0.10917,
1403715957884058112,1.44349,-1.00173,0.93107,-0.44396,-0.21352,0.86204,-0.11913,
1403715957984057856,1.35288,-1.08458,0.91578,0.50527,0.21640,-0.82400,0.13746,
1403715958084058112,1.25564,-1.17301,0.90157,0.56037,0.22280,-0.78191,0.15798,
1403715958184057856,1.16359,-1.26010,0.88114,0.60202,0.22911,-0.74296,0.18191,
1403715958284058112,1.08494,-1.33995,0.85643,0.63062,0.23946,-0.71033,0.20101,
1403715958384058112,1.02226,-1.40733,0.82836,0.64996,0.25050,-0.68317,0.21926,
1403715958484057856,0.99174,-1.45920,0.80058,0.66772,0.25797,-0.65471,0.24282,
1403715958584058112,0.99451,-1.49017,0.76923,0.66902,0.26806,-0.64085,0.26431,
1403715958684057856,1.02879,-1.49380,0.73704,0.65205,0.28102,-0.64393,0.28499,
1403715958784058112,1.08857,-1.47195,0.70556,0.61811,0.29891,-0.66125,0.30221,
1403715958884058112,1.16794,-1.42663,0.67318,0.56796,0.31697,-0.68860,0.32058,
1403715958984057856,1.25440,-1.36218,0.64265,0.51775,0.33618,-0.71276,0.33301,
1403715959084058112,1.33874,-1.28205,0.61297,-0.47239,-0.36593,0.73156,-0.32827,
1403715959184057856,1.41340,-1.19889,0.58667,-0.44596,-0.40249,0.73659,-0.31073,
1403715959284058112,1.47806,-1.12101,0.56120,-0.42522,-0.43788,0.73718,-0.28985,
1403715959384058112,1.53007,-1.05219,0.53186,-0.39146,-0.47049,0.74383,-0.26855,
1403715959484057856,1.56492,-1.00085,0.50382,-0.36053,-0.49389,0.75009,-0.25190,
1403715959584058112,1.58398,-0.98415,0.48385,-0.34142,-0.51129,0.75104,-0.24074,
1403715959784058112,1.57510,-1.08120,0.50574,-0.37379,-0.51990,0.71713,-0.27515,
1403715959884058112,1.55326,-1.17314,0.53712,-0.41805,-0.50955,0.68100,-0.31910,
1403715959984057856,1.53017,-1.27451,0.56551,-0.46489,-0.49254,0.64042,-0.36214,
1403715960084058112,1.50609,-1.36970,0.58607,0.50205,0.47477,-0.60457,0.39629,
1403715960184057856,1.48732,-1.45009,0.60206,0.52740,0.46182,-0.57828,0.41732,
1403715960284058112,1.47808,-1.50245,0.61788,0.54635,0.45220,-0.55856,0.43016,
1403715960384058112,1.47931,-1.52376,0.63447,0.56200,0.44275,-0.54252,0.44023,
1403715960684057856,1.55572,-1.37660,0.67567,0.52174,0.47379,-0.58599,0.39991,
1403715960784058112,1.60065,-1.27748,0.69070,-0.48672,-0.49721,0.61820,-0.36566,
1403715960884058112,1.65266,-1.16874,0.70285,-0.44047,-0.52268,0.65498,-0.32218,
1403715960984057856,1.70770,-1.06630,0.71813,-0.40062,-0.53964,0.68298,-0.28607,
1403715961084058112,1.76385,-0.98455,0.73397,-0.36972,-0.55072,0.70278,-0.25713,
1403715961184057856,1.81597,-0.93588,0.75190,-0.33992,-0.55590,0.72129,-0.23488,
1403715961384058112,1.89029,-0.96755,0.81245,-0.33129,-0.53608,0.73212,-0.25858,
1403715961484057856,1.91314,-1.03809,0.85875,-0.35638,-0.52334,0.71501,-0.29643,
1403715961584058112,1.92346,-1.13515,0.90992,-0.38758,-0.51745,0.68507,-0.33573,
1403715961684057856,1.92368,-1.24379,0.96201,-0.41857,-0.51709,0.64610,-0.37413,
1403715961784058112,1.92060,-1.35448,1.00871,-0.45114,-0.51835,0.60199,-0.40668,
1403715961884058112,1.91807,-1.45203,1.04260,-0.47615,-0.51763,0.56293,-0.43411,
1403715961984057856,1.91897,-1.53145,1.06278,-0.49619,-0.51281,0.52895,-0.45938,
1403715962084058112,1.92363,-1.58117,1.07496,0.51283,0.49884,-0.49300,0.49509,
1403715962184057856,1.93071,-1.59430,1.07479,0.51654,0.49306,-0.46699,0.52153,
1403715962284058112,1.94008,-1.56900,1.06209,0.50240,0.50039,-0.45730,0.53673,
1403715962384058112,1.95001,-1.50316,1.04155,0.47328,0.51488,-0.46303,0.54453,
1403715962484057856,1.95310,-1.40093,1.01491,0.43291,0.53288,-0.47863,0.54731,
1403715962584058112,1.94672,-1.26953,0.97721,0.37922,0.55800,-0.50303,0.54017,
1403715962684057856,1.92512,-1.12128,0.92995,0.32929,0.58196,-0.52272,0.52882,
1403715962784058112,1.88796,-0.96690,0.87287,0.28914,0.60522,-0.53456,0.51414,
1403715962884058112,1.83452,-0.81519,0.80652,0.26496,0.63383,-0.53556,0.49115,
1403715962984057856,1.76507,-0.67358,0.72970,0.25546,0.67531,-0.52283,0.45315,
1403715963084058112,1.69253,-0.54855,0.63845,0.24394,0.71634,-0.50851,0.41081,
1403715963184057856,1.62434,-0.44641,0.53428,0.22392,0.74909,-0.49726,0.37610,
1403715963284058112,1.57326,-0.37157,0.41920,0.20300,0.77259,-0.48824,0.35146,
1403715963384058112,1.53231,-0.33685,0.30517,0.19380,0.78421,-0.46982,0.35599,
1403715963484057856,1.50940,-0.34550,0.20421,0.21349,0.77461,-0.43188,0.40973,
1403715963584058112,1.50213,-0.37531,0.10980,0.23638,0.75273,-0.38941,0.47527,
1403715963684057856,1.50334,-0.40964,0.02284,0.25031,0.73511,-0.35248,0.52222,
1403715963784058112,1.50717,-0.44008,-0.05235,0.25183,0.72649,-0.32877,0.54837,
1403715963984057856,1.50413,-0.47118,-0.16143,0.23321,0.73243,-0.31448,0.55701,
1403715964084058112,1.49636,-0.47243,-0.19578,0.22442,0.75195,-0.31319,0.53490,
1403715964184057856,1.49248,-0.47212,-0.20830,0.22190,0.77819,-0.30870,0.49988,
1403715964484057856,1.53911,-0.47431,-0.11996,0.20990,0.76771,-0.31270,0.51843,
1403715964684057856,1.59459,-0.47674,-0.05585,0.20554,0.76138,-0.31517,0.52795,
1403715964884058112,1.65300,-0.49067,0.04225,0.18655,0.73947,-0.32486,0.55933,
1403715964984057856,1.67432,-0.50135,0.09380,0.18830,0.72970,-0.31894,0.57476,
1403715965084058112,1.68761,-0.51047,0.13370,0.19709,0.71896,-0.30668,0.59178,
1403715965284058112,1.68427,-0.51724,0.16266,0.20187,0.74885,-0.29745,0.55676,
1403715965384058112,1.67304,-0.51532,0.16953,0.18865,0.78631,-0.30784,0.50137,
1403715965484057856,1.66694,-0.51913,0.18152,0.17614,0.81265,-0.31942,0.45446,
1403715965584058112,1.67714,-0.53745,0.19984,0.17152,0.82564,-0.32555,0.42769,
1403715965684057856,1.70789,-0.57329,0.22994,0.18185,0.81679,-0.32131,0.44333,
1403715965784058112,1.75862,-0.62393,0.27077,0.20316,0.78633,-0.30773,0.49570,
1403715965884058112,1.81485,-0.67821,0.31124,0.22191,0.74784,-0.29293,0.55289,
1403715965984057856,1.86635,-0.72541,0.34662,0.23707,0.71639,-0.27857,0.59413,
1403715966084058112,1.90718,-0.75966,0.37745,0.24651,0.69285,-0.26620,0.62316,
1403715966184057856,1.93020,-0.77282,0.40989,0.25266,0.67005,-0.25521,0.64966,
1403715966384058112,1.91387,-0.72847,0.46707,0.23589,0.71479,-0.27368,0.59877,
1403715966484057856,1.88383,-0.68019,0.49455,0.22028,0.75359,-0.29331,0.54548,
1403715966584058112,1.85223,-0.62813,0.51957,0.20108,0.78985,-0.31509,0.48624,
1403715966684057856,1.83170,-0.58263,0.54655,0.18800,0.81086,-0.33202,0.44375,
1403715966784058112,1.82688,-0.55195,0.57339,0.17989,0.82183,-0.34365,0.41730,
1403715966984057856,1.88578,-0.55443,0.64249,0.20079,0.80277,-0.33791,0.44840,
1403715967084058112,1.94281,-0.57906,0.68498,0.22529,0.77094,-0.32244,0.50093,
1403715967184057856,2.00439,-0.60391,0.72691,0.24781,0.73488,-0.30592,0.55222,
1403715967284058112,2.06132,-0.61831,0.76779,0.26774,0.69598,-0.28882,0.60042,
1403715967384058112,2.10271,-0.61347,0.80536,0.27963,0.66393,-0.27754,0.63559,
1403715967584058112,2.12730,-0.52355,0.86953,0.25723,0.67157,-0.28816,0.63229,
1403715967684057856,2.10901,-0.44607,0.89639,0.22201,0.70109,-0.29909,0.60806,
1403715967784058112,2.07606,-0.35860,0.92164,0.17794,0.73289,-0.30884,0.57951,
1403715967884058112,2.03128,-0.27242,0.94238,0.13521,0.76347,-0.31378,0.54806,
1403715967984057856,1.98173,-0.19789,0.95448,0.11114,0.79027,-0.30799,0.51794,
1403715968084058112,1.93112,-0.13977,0.95630,0.10821,0.81952,-0.29181,0.48117,
1403715968184057856,1.88833,-0.10188,0.95056,0.11181,0.83872,-0.27589,0.45599,
1403715968384058112,1.85034,-0.07881,0.92854,0.13713,0.81293,-0.24923,0.50815,
1403715968484057856,1.83947,-0.07719,0.90076,0.14932,0.78671,-0.23979,0.54890,
1403715968584058112,1.82955,-0.08230,0.86104,0.16039,0.76037,-0.23069,0.58558,
1403715968684057856,1.81701,-0.08296,0.81342,0.17227,0.73570,-0.22142,0.61648,
1403715968884058112,1.74466,-0.05680,0.71784,0.18791,0.70183,-0.20762,0.65499,
1403715969084058112,1.58664,0.02548,0.61640,0.17365,0.73705,-0.21768,0.61581,
1403715969184057856,1.48202,0.08218,0.56039,0.15516,0.78853,-0.23300,0.54759,
1403715969284058112,1.37601,0.13718,0.50880,0.13826,0.82952,-0.24672,0.48157,
1403715969384058112,1.28536,0.18113,0.46447,0.12836,0.85439,-0.25516,0.43409,
1403715969484057856,1.22239,0.20763,0.42649,0.12598,0.87077,-0.25795,0.39918,
1403715969684057856,1.20095,0.20283,0.37000,0.17342,0.87584,-0.21735,0.39444,
1403715969784058112,1.24594,0.18447,0.35558,0.20042,0.86229,-0.19349,0.42291,
1403715969884058112,1.33083,0.16902,0.35078,0.20936,0.83631,-0.18526,0.47162,
1403715969984057856,1.43391,0.16160,0.35052,0.19675,0.80065,-0.19281,0.53204,
1403715970084058112,1.54292,0.16275,0.34936,0.18703,0.76796,-0.19576,0.58046,
1403715970184057856,1.64417,0.17495,0.34776,0.18381,0.73908,-0.19314,0.61860,
1403715970284058112,1.72981,0.19927,0.34887,0.18043,0.70776,-0.18959,0.65618,
1403715970384058112,1.78953,0.23650,0.35055,0.17766,0.68579,-0.18703,0.68056,
1403715970584058112,1.81560,0.36125,0.35625,0.13887,0.70211,-0.20690,0.66705,
1403715970684057856,1.78502,0.43786,0.35802,0.11472,0.74000,-0.22503,0.62337,
1403715970784058112,1.73347,0.51299,0.36017,0.08919,0.78299,-0.24687,0.56393,
1403715970884058112,1.67476,0.57533,0.36643,0.06547,0.82024,-0.26898,0.50057,
1403715970984057856,1.62423,0.61383,0.38069,0.04984,0.84658,-0.28178,0.44880,
1403715971084058112,1.59200,0.61838,0.40146,0.05220,0.86782,-0.27473,0.41070,
1403715971284058112,1.61936,0.52850,0.47634,0.09970,0.87798,-0.20404,0.42141,
1403715971384058112,1.68757,0.45594,0.52564,0.12627,0.86254,-0.15362,0.46528,
1403715971484057856,1.77998,0.38534,0.57738,0.14140,0.83882,-0.10618,0.51488,
1403715971584058112,1.88223,0.32546,0.62527,0.14445,0.81399,-0.06576,0.55878,
1403715971684057856,1.98513,0.28354,0.67017,0.13209,0.79371,-0.03397,0.59280,
1403715971784058112,2.08203,0.26286,0.71217,0.10344,0.77721,-0.01477,0.62051,
1403715971884058112,2.16666,0.25859,0.75044,0.06354,0.76866,-0.00497,0.63648,
1403715971984057856,2.23565,0.26628,0.78296,0.03036,0.76710,0.00615,0.64078,
1403715972084058112,2.28637,0.28037,0.81308,0.00678,0.76507,0.01950,0.64361,
1403715972184057856,2.31738,0.29770,0.84542,-0.00754,0.75142,0.03126,0.65904,
1403715972284058112,2.32360,0.31634,0.88003,-0.01669,0.73207,0.03905,0.67991,
1403715972484057856,2.24918,0.35427,0.94300,-0.02480,0.72226,0.04447,0.68975,
1403715972584058112,2.16882,0.37251,0.96615,-0.02673,0.74673,0.04268,0.66322,
1403715972684057856,2.06756,0.39011,0.98348,-0.03111,0.78049,0.03693,0.62330,
1403715972784058112,1.95553,0.40653,0.99098,-0.03591,0.81361,0.02897,0.57958,
1403715972884058112,1.84168,0.42084,0.99107,-0.03805,0.83165,0.02167,0.55356,
1403715973284058112,1.42810,0.42551,0.96576,-0.04324,0.81399,-0.00478,0.57925,
1403715973484057856,1.22695,0.38611,0.95037,-0.03826,0.83175,-0.00663,0.55379,
1403715973684057856,1.05237,0.32029,0.94439,-0.04637,0.85096,-0.01331,0.52301,
1403715973884058112,0.93094,0.22431,0.94154,-0.05667,0.86096,-0.01743,0.50520,
1403715974184057856,0.87441,0.01478,0.94946,-0.03751,0.84534,0.00778,0.53285,
1403715974484057856,0.90346,-0.21918,0.93236,-0.03145,0.83940,0.02054,0.54221,
1403715974784058112,0.98895,-0.45340,0.88894,-0.03121,0.82748,0.02485,0.56008,
1403715975084058112,1.09833,-0.67905,0.83582,-0.03206,0.82402,0.03274,0.56471,
1403715975384058112,1.21697,-0.88770,0.79656,-0.02669,0.81879,0.04875,0.57140,
1403715975784058112,1.36356,-1.10343,0.81368,-0.02925,0.81803,0.05585,0.57170,
1403715976184057856,1.50251,-1.23592,0.85956,-0.02466,0.82192,0.05432,0.56647,
1403715976784058112,1.72198,-1.26422,0.90386,-0.03925,0.81562,0.09331,0.56966,
1403715976984057856,1.79321,-1.21894,0.90347,-0.05461,0.81395,0.10812,0.56817,
1403715977184057856,1.86056,-1.15496,0.89950,-0.07126,0.80990,0.13410,0.56657,
1403715977284058112,1.89144,-1.11309,0.89543,-0.08498,0.80680,0.15437,0.56394,
1403715977384058112,1.91982,-1.06455,0.89174,-0.10154,0.80097,0.18003,0.56189,
1403715977484057856,1.94552,-1.01167,0.88657,-0.12140,0.79407,0.20834,0.55795,
1403715977584058112,1.96897,-0.95340,0.88242,-0.14338,0.78540,0.23890,0.55274,
1403715977684057856,1.99038,-0.88954,0.87814,-0.16803,0.77478,0.26982,0.54651,
1403715977784058112,2.00777,-0.82338,0.87189,-0.19221,0.76279,0.30263,0.53816,
1403715977884058112,2.01707,-0.75380,0.86600,-0.21439,0.74610,0.33722,0.53260,
1403715977984057856,2.02527,-0.68340,0.86064,-0.23281,0.72429,0.37474,0.52988,
1403715978084058112,2.02443,-0.61124,0.85633,-0.25206,0.69905,0.41308,0.52647,
1403715978184057856,2.01379,-0.53709,0.85059,-0.26800,0.67187,0.45191,0.52206,
1403715978284058112,1.99147,-0.46057,0.84367,-0.28450,0.64550,0.48690,0.51509,
1403715978384058112,1.95447,-0.38483,0.83771,-0.31042,0.62309,0.51245,0.50278,
1403715978484057856,1.90450,-0.30820,0.82925,-0.33984,0.60680,0.53280,0.48211,
1403715978584058112,1.84377,-0.23371,0.81876,-0.37515,0.59004,0.54924,0.45766,
1403715978684057856,1.77374,-0.16404,0.80666,-0.40506,0.56960,0.56865,0.43373,
1403715978784058112,1.69961,-0.10207,0.79406,-0.42514,0.54496,0.59336,0.41255,
1403715978884058112,1.62268,-0.04782,0.78284,-0.43817,0.51830,0.62206,0.39040,
1403715978984057856,1.54296,0.00152,0.77493,-0.44974,0.48819,0.65108,0.36811,
1403715979084058112,1.45907,0.04637,0.77035,-0.46659,0.45341,0.67517,0.34765,
1403715979184057856,1.37159,0.08522,0.77196,-0.49268,0.41664,0.69132,0.32519,
1403715979284058112,1.28383,0.11475,0.78167,0.52581,-0.37418,-0.70022,-0.30529,
1403715979384058112,1.19752,0.13374,0.79242,0.54475,-0.32670,-0.71533,-0.29124,
1403715979484057856,1.11385,0.14045,0.80129,0.55143,-0.28421,-0.73448,-0.27511,
1403715979584058112,1.03190,0.13388,0.81095,0.55734,-0.24837,-0.75053,-0.25375,
1403715979684057856,0.95123,0.11042,0.82219,0.56332,-0.21498,-0.76430,-0.22870,
1403715979784058112,0.87228,0.07125,0.83571,0.57379,-0.17830,-0.77308,-0.20329,
1403715979884058112,0.79457,0.01875,0.84805,0.58708,-0.14166,-0.77742,-0.17574,
1403715979984057856,0.72326,-0.05077,0.86062,0.60092,-0.10308,-0.77871,-0.14791,
1403715980084058112,0.66074,-0.13574,0.87324,0.61315,-0.06416,-0.77830,-0.11908,
1403715980184057856,0.60616,-0.23431,0.88470,0.62013,-0.02621,-0.77898,-0.08918,
1403715980284058112,0.56210,-0.34231,0.89343,0.62158,0.00729,-0.78154,-0.05274,
1403715980384058112,0.52860,-0.45652,0.90104,0.62007,0.04208,-0.78324,-0.01648,
1403715980484057856,0.51158,-0.57827,0.90898,0.62196,0.07757,-0.77889,0.02191,
1403715980584058112,0.51045,-0.70419,0.91551,0.62209,0.11142,-0.77224,0.06506,
1403715980684057856,0.52265,-0.83008,0.91971,0.61668,0.14836,-0.76614,0.10361,
1403715980784058112,0.54360,-0.95399,0.92155,0.60700,0.18541,-0.75974,0.14129,
1403715980884058112,0.57928,-1.07034,0.92088,0.59398,0.22349,-0.75204,0.17796,
1403715980984057856,0.62484,-1.18098,0.92188,0.58189,0.26236,-0.73931,0.21447,
1403715981084058112,0.68045,-1.27766,0.92208,0.57070,0.30048,-0.72122,0.25269,
1403715981184057856,0.74195,-1.36702,0.92223,0.55821,0.34076,-0.70008,0.28665,
1403715981284058112,0.81235,-1.43874,0.92417,0.54092,0.38124,-0.67692,0.32223,
1403715981384058112,0.88579,-1.49867,0.92755,0.52074,0.42089,-0.65091,0.35777,
1403715981484057856,0.96399,-1.53934,0.93306,-0.49866,-0.45813,0.62063,-0.39531,
1403715981584058112,1.04410,-1.56083,0.94096,-0.47951,-0.49187,0.58397,-0.43257,
1403715981684057856,1.12206,-1.56547,0.94917,-0.45852,-0.52664,0.54617,-0.46272,
1403715981784058112,1.19900,-1.54723,0.95397,0.43017,0.56650,-0.51312,0.48035,
1403715981884058112,1.27241,-1.50992,0.95504,0.39253,0.61026,-0.48691,0.48622,
1403715981984057856,1.34301,-1.45972,0.95703,0.36012,0.64548,-0.45694,0.49484,
1403715982084058112,1.41523,-1.40185,0.96083,0.33316,0.67195,-0.42520,0.50665,
1403715982184057856,1.48485,-1.33243,0.96502,0.30901,0.69366,-0.39205,0.51928,
1403715982284058112,1.55016,-1.25435,0.96986,0.28333,0.71221,-0.35983,0.53199,
1403715982384058112,1.61292,-1.16944,0.97457,0.25800,0.72851,-0.32739,0.54362,
1403715982484057856,1.67263,-1.08056,0.97848,0.23236,0.74386,-0.29301,0.55392,
1403715982584058112,1.72792,-0.98252,0.98215,0.20727,0.75716,-0.25535,0.56440,
1403715982684057856,1.77886,-0.87697,0.98511,0.17819,0.76885,-0.21653,0.57465,
1403715982784058112,1.82411,-0.76583,0.98698,0.14734,0.77951,-0.17585,0.58287,
1403715982884058112,1.86261,-0.64719,0.98845,0.11574,0.78857,-0.13444,0.58881,
1403715982984057856,1.89331,-0.52404,0.99001,0.08558,0.79504,-0.09337,0.59319,
1403715983084058112,1.91673,-0.39722,0.98954,0.05447,0.79881,-0.05353,0.59672,
1403715983184057856,1.93242,-0.26780,0.98912,0.02157,0.80013,-0.01347,0.59928,
1403715983284058112,1.94283,-0.13742,0.98830,-0.01300,0.79923,0.02752,0.60025,
1403715983384058112,1.94422,-0.00832,0.98777,-0.04562,0.79582,0.07229,0.59947,
1403715983484057856,1.93512,0.11853,0.98830,-0.08416,0.78613,0.11568,0.60128,
1403715983584058112,1.91843,0.24361,0.99047,-0.12665,0.76951,0.15517,0.60642,
1403715983684057856,1.89090,0.36181,0.99335,-0.16887,0.75162,0.19209,0.60798,
1403715983784058112,1.85101,0.47056,0.99610,-0.20725,0.73477,0.22660,0.60482,
1403715983884058112,1.79900,0.56499,0.99830,-0.24111,0.71942,0.26083,0.59688,
1403715983984057856,1.73509,0.64220,1.00122,-0.27137,0.70549,0.29369,0.58514,
1403715984084058112,1.65996,0.70106,1.00535,-0.29813,0.69491,0.32554,0.56766,
1403715984184057856,1.57805,0.74252,1.00971,-0.32178,0.68589,0.35634,0.54684,
1403715984284058112,1.49084,0.76346,1.01593,-0.34368,0.67417,0.38577,0.52778,
1403715984384058112,1.40401,0.77097,1.02472,-0.36612,0.65833,0.41228,0.51243,
1403715984484057856,1.31755,0.76097,1.03412,-0.38282,0.63971,0.44157,0.49924,
1403715984584058112,1.22992,0.73703,1.04104,-0.39298,0.62490,0.47556,0.47844,
1403715984684057856,1.14467,0.70149,1.04770,-0.39938,0.60881,0.51327,0.45432,
1403715984784058112,1.05615,0.65905,1.05170,-0.41733,0.58930,0.54463,0.42654,
1403715984884058112,0.97297,0.60960,1.05731,-0.44293,0.56582,0.56903,0.39983,
1403715984984057856,0.89627,0.55756,1.06235,-0.46370,0.53881,0.59216,0.37949,
1403715985084058112,0.82600,0.50096,1.06656,-0.47553,0.51125,0.61380,0.36844,
1403715985184057856,0.76199,0.43688,1.06928,-0.48042,0.49247,0.62933,0.36141,
1403715985284058112,0.70656,0.36907,1.07384,-0.47673,0.47646,0.64181,0.36578,
1403715985484057856,0.59571,0.21588,1.08264,-0.46744,0.47728,0.64451,0.37190,
1403715985584058112,0.54090,0.13058,1.08453,-0.45562,0.49926,0.64060,0.36438,
1403715985684057856,0.47911,0.04040,1.08355,-0.43528,0.52578,0.63947,0.35379,
1403715985784058112,0.41319,-0.04484,1.07688,-0.41856,0.55248,0.63656,0.33818,
1403715986184057856,0.16113,-0.30737,0.95610,-0.43101,0.58595,0.59419,0.34326,
1403715986584058112,0.01564,-0.46280,0.75826,-0.41754,0.56726,0.60464,0.37188,
1403715986684057856,-0.00853,-0.53124,0.70952,-0.40073,0.57444,0.61766,0.35768,
1403715986884058112,-0.05895,-0.57694,0.61244,-0.39562,0.57421,0.62362,0.35336,
1403715987084058112,-0.10215,-0.57144,0.53571,-0.42464,0.57047,0.59407,0.37593,
1403715987384058112,-0.13342,-0.55041,0.42269,-0.44230,0.59095,0.54434,0.39855,
1403715987584058112,-0.12598,-0.56536,0.35642,-0.41478,0.59224,0.55510,0.41118,
1403715987884058112,-0.10700,-0.60065,0.26576,-0.39105,0.59603,0.57474,0.40187,
1403715988084058112,-0.09766,-0.61174,0.21350,-0.38574,0.59667,0.58397,0.39264,
1403715988184057856,-0.09510,-0.61265,0.19412,-0.39387,0.58930,0.58128,0.39964,
1403715988584058112,-0.09502,-0.60073,0.13320,-0.42366,0.58073,0.56418,0.40616,
1403715988884058112,-0.07991,-0.61324,0.10549,-0.41733,0.59618,0.56618,0.38709,
1403715989284058112,-0.01121,-0.62734,0.09988,-0.40080,0.59436,0.57362,0.39630,
1403715989784058112,0.08390,-0.59287,0.09665,-0.40743,0.58444,0.56787,0.41227,
1403715990684057856,0.14659,-0.57233,-0.05687,-0.39280,0.57749,0.58587,0.41107,
1403715990784058112,0.13307,-0.56830,-0.08992,-0.39024,0.57897,0.58779,0.40867,
1403715990884058112,0.11580,-0.55777,-0.12527,-0.38687,0.58041,0.59042,0.40602,
